1000000	0.47818	-59.63632
1.01193E6	0.93744	-61.06
1.02386E6	0.51914	-60.38946
1.03579E6	1.52223	-58.06876
1.04772E6	-0.08071	-57.58796
1.05965E6	-0.30899	-58.59849
1.07158E6	1.52345	-57.7601
1.08351E6	1.04287	-56.94341
1.09544E6	0.96801	-54.46195
1.10737E6	-0.54523	-53.55437
1.1193E6	-1.49055	-52.78667
1.13123E6	0.74697	-53.36221
1.14316E6	0.96573	-53.65847
1.15509E6	-1.35515	-53.43811
1.16702E6	0.76884	-50.49661
1.17895E6	-0.09656	-50.69616
1.19088E6	0.64655	-52.17391
1.20281E6	-0.72626	-49.50649
1.21474E6	-0.21706	-50.20142
1.22667E6	-0.80609	-49.61732
1.23861E6	0.35998	-48.15545
1.25054E6	-0.41332	-47.91022
1.26247E6	0.88649	-45.93187
1.2744E6	0.47976	-48.13069
1.28633E6	1.64539	-46.40618
1.29826E6	0.41817	-45.84014
1.31019E6	-1.17228	-45.11404
1.32212E6	1.40879	-45.90025
1.33405E6	-0.98654	-45.92099
1.34598E6	1.53049	-44.05646
1.35791E6	0.42047	-43.37288
1.36984E6	-0.59875	-42.34876
1.38177E6	0.75726	-43.61155
1.3937E6	0.36026	-43.24202
1.40563E6	0.61832	-43.26194
1.41756E6	0.34522	-42.26153
1.42949E6	-1.04581	-42.5814
1.44142E6	-0.20063	-41.84338
1.45335E6	0.63338	-41.11452
1.46528E6	-0.13563	-40.05641
1.47721E6	-1.46749	-40.21525
1.48914E6	0.56418	-39.49316
1.50107E6	-0.38896	-39.61211
1.513E6	0.22193	-40.11647
1.52493E6	-0.10898	-39.3423
1.53686E6	-0.67151	-38.38865
1.54879E6	-0.28026	-38.19201
1.56072E6	0.68501	-38.71534
1.57265E6	-0.07501	-39.07964
1.58458E6	0.05241	-36.38993
1.59651E6	-0.14102	-37.60984
1.60844E6	-0.31381	-36.43971
1.62037E6	0.30101	-37.21976
1.6323E6	0.41738	-36.27328
1.64423E6	-0.04002	-35.29516
1.65616E6	0.33129	-36.12622
1.66809E6	-0.82235	-34.57971
1.68002E6	-0.36305	-35.51681
1.69195E6	0.17947	-35.02834
1.70388E6	0.37504	-34.99766
1.71582E6	0.51725	-34.1186
1.72775E6	0.41193	-34.53391
1.73968E6	-0.13991	-34.37043
1.75161E6	-0.7461	-34.48458
1.76354E6	0.26934	-33.72119
1.77547E6	0.04437	-33.56031
1.7874E6	0.24038	-32.77492
1.79933E6	0.14496	-32.43885
1.81126E6	-0.19205	-32.61476
1.82319E6	0.41241	-32.16994
1.83512E6	0.12536	-33.28001
1.84705E6	-0.05507	-31.48412
1.85898E6	-0.30854	-32.44069
1.87091E6	-0.23466	-31.20996
1.88284E6	0.36169	-31.65126
1.89477E6	-0.25663	-31.17479
1.9067E6	0.031	-30.26013
1.91863E6	0.08828	-30.52573
1.93056E6	-0.60324	-30.57169
1.94249E6	-0.01631	-30.31592
1.95442E6	0.67746	-29.97369
1.96635E6	-0.53922	-29.77314
1.97828E6	0.25067	-29.75017
1.99021E6	-0.25318	-28.67194
2.00214E6	-0.10242	-29.17846
2.01407E6	0.04769	-29.27061
2.026E6	0.37103	-28.27478
2.03793E6	0.372	-29.09877
2.04986E6	-0.23933	-28.13738
2.06179E6	-0.33726	-28.89684
2.07372E6	0.13755	-28.01616
2.08565E6	0.28493	-27.63888
2.09758E6	0.37295	-27.80492
2.10951E6	0.26265	-27.09366
2.12144E6	0.06872	-26.89761
2.13337E6	0.00604	-27.17123
2.1453E6	-0.04448	-27.08156
2.15723E6	0.10269	-26.71745
2.16916E6	-0.13487	-27.00527
2.1811E6	0.20507	-26.57758
2.19303E6	-0.47678	-25.92438
2.20496E6	0.2828	-26.28871
2.21689E6	-0.1717	-25.70929
2.22882E6	0.05551	-25.85327
2.24075E6	0.29761	-25.30321
2.25268E6	-0.1265	-25.77182
2.26461E6	0.33129	-25.53397
2.27654E6	0.01834	-25.57324
2.28847E6	0.63874	-25.05323
2.3004E6	-0.10375	-24.97917
2.31233E6	-0.28627	-24.72513
2.32426E6	0.50144	-24.73778
2.33619E6	0.32482	-24.02537
2.34812E6	0.23557	-24.35408
2.36005E6	-0.00337	-24.69302
2.37198E6	0.24265	-23.9703
2.38391E6	-0.41345	-24.03474
2.39584E6	-0.0547	-23.65851
2.40777E6	-0.15493	-23.50107
2.4197E6	0.44603	-23.78122
2.43163E6	0.3378	-23.26622
2.44356E6	0.27274	-23.54064
2.45549E6	0.28912	-23.09183
2.46742E6	0.58881	-23.55689
2.47935E6	-0.09843	-22.66505
2.49128E6	-0.02155	-22.62219
2.50321E6	0.64957	-22.96514
2.51514E6	-0.04344	-23.00855
2.52707E6	-0.14936	-22.46123
2.539E6	0.15854	-22.38956
2.55093E6	0.02103	-22.13292
2.56286E6	-0.12737	-22.11207
2.57479E6	0.17864	-22.34651
2.58672E6	-0.12894	-21.98037
2.59865E6	0.12715	-21.70148
2.61058E6	0.06875	-22.09906
2.62251E6	-0.05397	-21.2751
2.63444E6	0.35638	-21.23077
2.64638E6	-0.06014	-21.01652
2.65831E6	-0.03707	-21.35471
2.67024E6	-0.06	-20.93317
2.68217E6	-0.11684	-20.65118
2.6941E6	0.02919	-20.59108
2.70603E6	0.3034	-20.73959
2.71796E6	0.17258	-21.00736
2.72989E6	0.23647	-20.13262
2.74182E6	-0.14979	-20.20802
2.75375E6	0.37456	-20.43763
2.76568E6	-0.03753	-20.08557
2.77761E6	-0.11439	-19.81737
2.78954E6	0.05275	-20.28159
2.80147E6	0.20755	-20.16269
2.8134E6	0.14586	-19.78598
2.82533E6	0.02557	-19.66966
2.83726E6	-0.26003	-19.75674
2.84919E6	-0.03745	-19.39086
2.86112E6	-0.14741	-19.29668
2.87305E6	0.2544	-19.03977
2.88498E6	0.08208	-19.01566
2.89691E6	0.05899	-19.16243
2.90884E6	0.12026	-18.7947
2.92077E6	-0.25236	-19.07379
2.9327E6	0.36298	-19.23697
2.94463E6	-0.00736	-18.96843
2.95656E6	-0.14197	-18.73443
2.96849E6	-0.05635	-18.19621
2.98042E6	-0.23833	-18.40628
2.99235E6	0.27917	-18.68257
3.00428E6	0.31911	-18.5684
3.01621E6	0.30596	-18.30336
3.02814E6	-0.22538	-17.77733
3.04007E6	0.14062	-17.66087
3.052E6	0.01839	-18.41608
3.06393E6	-0.02026	-18.37739
3.07586E6	0.06637	-17.59684
3.08779E6	-0.17407	-17.315
3.09972E6	0.25334	-17.5476
3.11165E6	0.14619	-17.3471
3.12359E6	0.17655	-17.25081
3.13552E6	-0.30206	-17.68699
3.14745E6	0.46253	-17.07865
3.15938E6	-0.23558	-17.60377
3.17131E6	0.0554	-17.09192
3.18324E6	-0.13506	-16.4502
3.19517E6	0.09143	-17.0714
3.2071E6	-0.23692	-16.75996
3.21903E6	0.2152	-17.36809
3.23096E6	0.12755	-16.87398
3.24289E6	0.21698	-16.90336
3.25482E6	0.02586	-16.4471
3.26675E6	-0.10355	-16.85548
3.27868E6	-0.09193	-16.39881
3.29061E6	-0.26692	-16.31524
3.30254E6	0.193	-16.19069
3.31447E6	0.18025	-15.92583
3.3264E6	0.09057	-16.0299
3.33833E6	0.34162	-16.21166
3.35026E6	0.34688	-16.06244
3.36219E6	-0.13245	-16.15666
3.37412E6	-0.19644	-15.84435
3.38605E6	-0.10169	-15.50073
3.39798E6	0.00544	-15.50767
3.40991E6	0.08077	-15.81947
3.42184E6	0.05698	-15.61904
3.43377E6	0.25923	-15.66346
3.4457E6	0.12561	-15.42369
3.45763E6	-0.08408	-15.24263
3.46956E6	-0.01487	-15.38155
3.48149E6	0.10372	-14.99822
3.49342E6	0.04753	-15.10182
3.50535E6	0.06712	-14.73782
3.51728E6	-0.10391	-15.20395
3.52921E6	-0.11576	-15.3282
3.54114E6	0.16009	-14.97401
3.55307E6	-0.21104	-14.75288
3.565E6	0.30723	-14.98391
3.57693E6	0.31369	-14.86313
3.58887E6	-0.20535	-14.74305
3.6008E6	0.08574	-14.4317
3.61273E6	0.23997	-14.80836
3.62466E6	0.08664	-14.61732
3.63659E6	-0.00922	-14.51798
3.64852E6	0.05137	-14.25529
3.66045E6	0.36819	-14.25728
3.67238E6	0.04209	-14.37342
3.68431E6	0.22585	-14.15013
3.69624E6	-0.09388	-14.11949
3.70817E6	0.30674	-13.82462
3.7201E6	-0.04503	-13.97816
3.73203E6	0.22086	-13.91941
3.74396E6	-0.11739	-13.86992
3.75589E6	0.00235	-13.90687
3.76782E6	-0.04873	-13.25877
3.77975E6	-0.07377	-13.40684
3.79168E6	0.02318	-13.5458
3.80361E6	0.05773	-13.46015
3.81554E6	0.03051	-13.53292
3.82747E6	0.08259	-13.58112
3.8394E6	0.33497	-13.15366
3.85133E6	0.18765	-13.33438
3.86326E6	0.15741	-13.60762
3.87519E6	0.10667	-12.85141
3.88712E6	0.10665	-12.94715
3.89905E6	0.17625	-13.49521
3.91098E6	-0.00596	-12.76832
3.92291E6	0.01706	-12.92394
3.93484E6	0.11398	-12.97735
3.94677E6	0.34236	-12.95247
3.9587E6	0.28151	-12.52878
3.97063E6	-0.05704	-12.61892
3.98256E6	0.11929	-12.6595
3.99449E6	0.06178	-12.60874
4.00642E6	0.059	-12.38085
4.01835E6	0.07585	-12.50532
4.03028E6	0.285	-12.77604
4.04221E6	0.07855	-12.40248
4.05414E6	0.0253	-11.92161
4.06608E6	0.08231	-11.87844
4.07801E6	0.10908	-12.37706
4.08994E6	0.09789	-12.45745
4.10187E6	0.03546	-11.95503
4.1138E6	0.22963	-12.1564
4.12573E6	0.06011	-11.8652
4.13766E6	-0.10961	-11.85037
4.14959E6	-0.01256	-11.92166
4.16152E6	0.03483	-11.76297
4.17345E6	0.06988	-11.73331
4.18538E6	0.04428	-11.71082
4.19731E6	-0.1364	-11.48243
4.20924E6	-0.02806	-11.36952
4.22117E6	0.12421	-11.88632
4.2331E6	0.08828	-12.02586
4.24503E6	0.1774	-11.54686
4.25696E6	0.18932	-11.55411
4.26889E6	0.04216	-11.65177
4.28082E6	0.12437	-11.29989
4.29275E6	0.10622	-11.56716
4.30468E6	0.11797	-11.24491
4.31661E6	0.05092	-11.14267
4.32854E6	-0.00361	-10.9586
4.34047E6	0.10157	-11.22311
4.3524E6	0.00963	-11.13385
4.36433E6	-0.002	-11.22144
4.37626E6	0.13637	-11.19122
4.38819E6	0.01027	-10.69011
4.40012E6	0.01053	-11.01448
4.41205E6	-0.10622	-10.7057
4.42398E6	0.19681	-10.85971
4.43591E6	0.13246	-10.96687
4.44784E6	0.12418	-10.98872
4.45977E6	0.05474	-10.60671
4.4717E6	0.12888	-10.61363
4.48363E6	0.00978	-10.53232
4.49556E6	0.28154	-10.65598
4.50749E6	0.21343	-10.67866
4.51942E6	0.12578	-10.4409
4.53136E6	0.14004	-10.23226
4.54329E6	0.15437	-10.37514
4.55522E6	0.17465	-10.67593
4.56715E6	0.17253	-10.28947
4.57908E6	0.07285	-10.21419
4.59101E6	0.04448	-10.21237
4.60294E6	0.09038	-10.06725
4.61487E6	0.09386	-10.04921
4.6268E6	0.17952	-9.98395
4.63873E6	0.20487	-10.19266
4.65066E6	0.12428	-10.0458
4.66259E6	0.06773	-10.07071
4.67452E6	-0.11634	-9.77942
4.68645E6	-0.00949	-9.73951
4.69838E6	0.06353	-9.646
4.71031E6	0.02052	-9.58681
4.72224E6	0.1157	-9.79445
4.73417E6	0.17742	-9.68406
4.7461E6	0.13923	-9.79424
4.75803E6	0.05672	-9.83764
4.76996E6	0.134	-9.65059
4.78189E6	0.04455	-9.55459
4.79382E6	0.23345	-9.73846
4.80575E6	0.08084	-9.40881
4.81768E6	0.02062	-9.54256
4.82961E6	0.14759	-9.37081
4.84154E6	0.04257	-9.27718
4.85347E6	0.09595	-9.14012
4.8654E6	0.13503	-9.24594
4.87733E6	0.1033	-8.98484
4.88926E6	-0.04635	-9.02322
4.90119E6	-0.03211	-8.94275
4.91312E6	0.05352	-8.96767
4.92505E6	0.01697	-9.08703
4.93698E6	-0.01185	-9.10995
4.94891E6	0.06135	-8.93122
4.96084E6	0.0885	-8.83442
4.97277E6	0.04331	-8.81135
4.9847E6	0.08342	-8.52082
4.99664E6	0.14179	-8.93459
5.00857E6	0.06506	-8.71769
5.0205E6	0.03187	-8.61754
5.03243E6	0.08202	-8.57822
5.04436E6	0.06862	-8.57476
5.05629E6	-0.09747	-8.51345
5.06822E6	0.06489	-8.40166
5.08015E6	-0.07541	-8.32252
5.09208E6	0.04709	-8.53263
5.10401E6	0.08333	-8.28182
5.11594E6	0.04528	-8.41245
5.12787E6	0.22402	-8.33714
5.1398E6	0.11011	-8.02775
5.15173E6	0.04894	-8.40207
5.16366E6	0.08433	-8.19943
5.17559E6	0.05374	-8.37302
5.18752E6	0.07343	-8.12055
5.19945E6	0.19001	-8.40639
5.21138E6	-0.07674	-8.07352
5.22331E6	0.24612	-8.27666
5.23524E6	0.13751	-8.10544
5.24717E6	0.24295	-7.99347
5.2591E6	0.18284	-8.00594
5.27103E6	0.02557	-7.97604
5.28296E6	0.07406	-8.02254
5.29489E6	0.21732	-8.02034
5.30682E6	0.11794	-7.90812
5.31875E6	0.05463	-7.78341
5.33068E6	-0.03136	-7.37476
5.34261E6	0.02555	-7.7641
5.35454E6	0.15351	-7.80507
5.36647E6	0.01664	-7.70432
5.3784E6	0.1662	-7.66186
5.39033E6	0.04638	-7.43956
5.40226E6	0.14889	-7.49396
5.41419E6	0.10184	-7.35762
5.42612E6	0.16089	-7.53346
5.43805E6	0.07128	-7.35128
5.44998E6	0.19812	-7.40499
5.46191E6	0.17097	-7.37537
5.47385E6	0.08557	-7.46366
5.48578E6	0.13382	-7.56895
5.49771E6	0.06677	-7.02071
5.50964E6	0.15685	-7.48354
5.52157E6	0.05489	-7.15492
5.5335E6	0.07445	-7.28572
5.54543E6	-0.00133	-7.04691
5.55736E6	-0.04442	-7.16502
5.56929E6	0.04764	-6.92754
5.58122E6	-0.01179	-7.08424
5.59315E6	0.09738	-6.98482
5.60508E6	0.04683	-6.91633
5.61701E6	0.10764	-6.77399
5.62894E6	0.17221	-7.11686
5.64087E6	0.06722	-7.01306
5.6528E6	-0.08744	-6.55893
5.66473E6	0.07923	-6.95448
5.67666E6	0.05221	-6.87446
5.68859E6	0.05548	-6.57712
5.70052E6	0.01021	-6.55544
5.71245E6	0.17095	-6.87621
5.72438E6	0.04794	-6.78324
5.73631E6	0.05244	-6.57518
5.74824E6	0.02095	-6.58232
5.76017E6	-0.1213	-6.37612
5.7721E6	0.09672	-6.52042
5.78403E6	0.03768	-6.48687
5.79596E6	0.07188	-6.65087
5.80789E6	0.17407	-6.49067
5.81982E6	0.00468	-6.18916
5.83175E6	0.02947	-6.16875
5.84368E6	0.0397	-6.30642
5.85561E6	0.13033	-6.45302
5.86754E6	0.07467	-6.17608
5.87947E6	0.11261	-6.25565
5.8914E6	-0.05003	-6.03167
5.90333E6	0.22745	-6.44453
5.91526E6	0.00139	-6.11443
5.92719E6	0.12228	-6.21427
5.93913E6	0.0354	-5.99913
5.95106E6	-0.02223	-5.93579
5.96299E6	0.1225	-6.23899
5.97492E6	0.21522	-6.08945
5.98685E6	6.93945E-4	-5.90433
5.99878E6	0.1333	-5.98431
6.01071E6	0.0684	-5.74932
6.02264E6	0.066	-5.97066
6.03457E6	0.05302	-5.68887
6.0465E6	0.0573	-5.42694
6.05843E6	0.09917	-5.677
6.07036E6	0.05807	-5.67928
6.08229E6	0.09551	-5.60463
6.09422E6	0.08285	-5.67015
6.10615E6	9.58098E-4	-5.72993
6.11808E6	0.11071	-5.77993
6.13001E6	-0.00594	-5.54814
6.14194E6	-0.05847	-5.35729
6.15387E6	0.00987	-5.28307
6.1658E6	0.02677	-5.27179
6.17773E6	0.06287	-5.18106
6.18966E6	0.04305	-5.46069
6.20159E6	0.05909	-5.20748
6.21352E6	0.01583	-5.32722
6.22545E6	0.03691	-5.45214
6.23738E6	0.05458	-4.96024
6.24931E6	0.13713	-5.32914
6.26124E6	0.03101	-4.96629
6.27317E6	0.13679	-5.01934
6.2851E6	-0.01159	-4.75767
6.29703E6	0.03995	-4.95802
6.30896E6	0.06636	-5.16156
6.32089E6	0.078	-5.22676
6.33282E6	0.07229	-4.90051
6.34475E6	0.09176	-5.06116
6.35668E6	0.02949	-4.73043
6.36861E6	0.07245	-4.9265
6.38054E6	0.03543	-4.88129
6.39247E6	-0.06017	-4.5078
6.40441E6	0.04154	-4.60813
6.41634E6	-0.06594	-4.8409
6.42827E6	0.12253	-5.01746
6.4402E6	0.03729	-4.68494
6.45213E6	0.10231	-4.89808
6.46406E6	0.0578	-4.7758
6.47599E6	0.08479	-4.60306
6.48792E6	0.13724	-4.72705
6.49985E6	0.12562	-4.73114
6.51178E6	0.02319	-4.53343
6.52371E6	0.10764	-4.51502
6.53564E6	0.03386	-4.52597
6.54757E6	-0.00772	-4.47535
6.5595E6	0.09223	-4.40562
6.57143E6	-0.00754	-4.48361
6.58336E6	-0.11019	-4.33329
6.59529E6	0.01278	-4.12613
6.60722E6	0.05392	-4.28818
6.61915E6	-0.07942	-4.16269
6.63108E6	-0.02618	-4.06404
6.64301E6	0.09343	-4.19154
6.65494E6	0.03918	-3.92814
6.66687E6	0.07951	-3.97735
6.6788E6	0.1166	-4.15904
6.69073E6	0.03416	-4.04757
6.70266E6	-0.00215	-3.93515
6.71459E6	0.09085	-4.00992
6.72652E6	0.03636	-3.79906
6.73845E6	0.05383	-4.1262
6.75038E6	0.09129	-4.14402
6.76231E6	0.04551	-3.93659
6.77424E6	0.07345	-4.05401
6.78617E6	0.03141	-3.51389
6.7981E6	0.13335	-3.73622
6.81003E6	0.06365	-3.95306
6.82196E6	0.02561	-3.53225
6.83389E6	0.09559	-3.60263
6.84582E6	-0.0508	-3.69437
6.85775E6	0.06841	-3.40252
6.86968E6	0.02468	-3.49547
6.88162E6	0.0104	-3.63691
6.89355E6	-0.00791	-3.57639
6.90548E6	0.06095	-3.24246
6.91741E6	0.05764	-3.45937
6.92934E6	0.1096	-3.36225
6.94127E6	0.00865	-3.41971
6.9532E6	-0.02907	-3.23529
6.96513E6	-0.00507	-3.37961
6.97706E6	-0.01258	-3.10232
6.98899E6	-0.01329	-3.33004
7.00092E6	0.09014	-3.32674
7.01285E6	0.00325	-2.98348
7.02478E6	0.09005	-3.34228
7.03671E6	0.07858	-3.07711
7.04864E6	0.06529	-3.02646
7.06057E6	0.00839	-3.08356
7.0725E6	0.0818	-2.8681
7.08443E6	0.0669	-3.23006
7.09636E6	0.04874	-2.83392
7.10829E6	0.07861	-3.00967
7.12022E6	0.03788	-2.93543
7.13215E6	0.05463	-2.9229
7.14408E6	-0.00598	-2.75275
7.15601E6	0.10036	-2.79409
7.16794E6	-0.0308	-2.58218
7.17987E6	0.12436	-2.89269
7.1918E6	0.10468	-2.65235
7.20373E6	0.11226	-2.51667
7.21566E6	-0.03291	-2.27767
7.22759E6	0.00921	-2.47132
7.23952E6	0.03106	-2.51034
7.25145E6	0.00385	-2.61583
7.26338E6	0.00528	-2.57947
7.27531E6	-0.01617	-2.4357
7.28724E6	0.06371	-2.28585
7.29917E6	0.0072	-2.24713
7.3111E6	0.02952	-2.57897
7.32303E6	0.01739	-2.27056
7.33496E6	0.05673	-2.44952
7.3469E6	0.03352	-2.28575
7.35883E6	0.02778	-2.06798
7.37076E6	0.01538	-2.18296
7.38269E6	0.14266	-2.24463
7.39462E6	0.05743	-1.9882
7.40655E6	0.12929	-1.88005
7.41848E6	0.03024	-1.86639
7.43041E6	0.04486	-2.00994
7.44234E6	0.02473	-2.07462
7.45427E6	0.05461	-1.80965
7.4662E6	0.04576	-1.75785
7.47813E6	-0.03351	-1.69605
7.49006E6	-0.02528	-1.70565
7.50199E6	-0.00613	-1.70523
7.51392E6	0.04639	-1.85294
7.52585E6	-0.02306	-1.42123
7.53778E6	0.05265	-1.59819
7.54971E6	0.03797	-1.49629
7.56164E6	0.01865	-1.40783
7.57357E6	0.01011	-1.44269
7.5855E6	0.03612	-1.5933
7.59743E6	-0.04202	-1.40516
7.60936E6	0.11548	-1.49883
7.62129E6	0.10056	-1.35923
7.63322E6	-0.05986	-0.96241
7.64515E6	0.00948	-1.21488
7.65708E6	0.0212	-1.02589
7.66901E6	-0.00192	-1.31818
7.68094E6	-0.04666	-1.20211
7.69287E6	0.06635	-1.21456
7.7048E6	0.05466	-1.1267
7.71673E6	0.06511	-1.17907
7.72866E6	-0.01748	-0.95994
7.74059E6	0.01468	-1.01422
7.75252E6	0.08354	-0.95003
7.76445E6	0.06828	-0.82884
7.77638E6	0.08429	-1.02497
7.78831E6	0.00451	-0.45399
7.80024E6	0.03822	-0.59898
7.81217E6	0.03262	-0.87899
7.82411E6	0.01221	-0.38612
7.83604E6	0.0959	-0.72655
7.84797E6	0.07021	-0.72135
7.8599E6	-0.01761	-0.40825
7.87183E6	0.12404	-0.57077
7.88376E6	0.04878	-0.22047
7.89569E6	0.07049	-0.34159
7.90762E6	0.05015	-0.24341
7.91955E6	0.04219	0.00119
7.93148E6	0.00174	-0.10914
7.94341E6	0.04357	-0.1101
7.95534E6	0.08254	0.17512
7.96727E6	0.02157	0.3676
7.9792E6	0.014	-0.10481
7.99113E6	0.06389	0.3348
8.00306E6	0.07166	0.48498
8.01499E6	0.02809	0.18774
8.02692E6	-0.00351	0.45924
8.03885E6	0.06942	0.54365
8.05078E6	0.08134	0.42649
8.06271E6	0.05778	0.5283
8.07464E6	0.06738	0.63313
8.08657E6	0.06138	0.68305
8.0985E6	0.09959	0.66752
8.11043E6	0.0861	0.66925
8.12236E6	0.05838	1.02812
8.13429E6	-0.00263	1.02996
8.14622E6	0.02358	1.17774
8.15815E6	0.03103	1.35644
8.17008E6	0.07272	1.17403
8.18201E6	0.07801	1.3643
8.19394E6	0.10984	1.08827
8.20587E6	0.13949	1.51465
8.2178E6	0.13021	1.74055
8.22973E6	0.05128	1.5545
8.24166E6	0.05933	1.6676
8.25359E6	0.09212	1.76563
8.26552E6	0.11866	2.2241
8.27745E6	0.02617	2.25625
8.28939E6	0.09334	2.07111
8.30132E6	0.05416	2.36437
8.31325E6	0.07192	2.33135
8.32518E6	0.09127	2.50502
8.33711E6	0.0793	2.45601
8.34904E6	0.14494	2.69457
8.36097E6	0.17476	2.75057
8.3729E6	0.1043	2.87193
8.38483E6	0.12523	3.17626
8.39676E6	0.17842	3.13978
8.40869E6	0.08987	3.52332
8.42062E6	0.13867	3.53888
8.43255E6	0.17908	4.02239
8.44448E6	0.192	3.91115
8.45641E6	0.15983	3.85073
8.46834E6	0.21545	4.18291
8.48027E6	0.23313	4.39917
8.4922E6	0.1965	4.58975
8.50413E6	0.33754	4.70762
8.51606E6	0.26855	5.11092
8.52799E6	0.3197	5.61871
8.53992E6	0.3436	5.88068
8.55185E6	0.38136	6.076
8.56378E6	0.46595	6.65617
8.57571E6	0.74107	6.77366
8.58764E6	0.92531	7.08791
8.59957E6	0.89709	7.40461
8.6115E6	0.83249	7.76113
8.62343E6	0.92846	8.403
8.63536E6	1.12721	9.27714
8.64729E6	1.37219	9.55632
8.65922E6	1.63675	10.61139
8.67115E6	1.87937	11.70072
8.68308E6	2.49616	13.07504
8.69501E6	3.88756	14.82153
8.70694E6	6.74265	17.3874
8.71887E6	13.22125	17.87298
8.7308E6	20.14443	9.30852
8.74273E6	13.4525	1.12224
8.75467E6	7.23093	2.3063
8.7666E6	4.80668	5.10558
8.77853E6	3.73975	7.58396
8.79046E6	3.45918	10.15655
8.80239E6	3.81553	12.61809
8.81432E6	4.31688	15.74025
8.82625E6	5.73712	19.29107
8.83818E6	8.33001	23.9462
8.85011E6	12.97867	29.91533
8.86204E6	23.45863	37.5035
8.87397E6	47.52143	41.27785
8.8859E6	81.15592	10.88901
8.89783E6	59.38211	-34.62308
8.90976E6	29.45242	-36.91627
8.92169E6	15.68237	-29.36311
8.93362E6	9.67224	-22.83954
8.94555E6	6.69682	-18.22059
8.95748E6	4.77541	-14.14099
8.96941E6	3.71776	-11.41248
8.98134E6	3.12112	-9.2769
8.99327E6	2.67613	-7.32083
9.0052E6	2.53335	-5.7422
9.01713E6	2.31713	-3.85917
9.02906E6	2.30038	-2.72799
9.04099E6	2.2036	-0.51494
9.05292E6	2.394	1.00978
9.06485E6	2.71019	2.69086
9.07678E6	3.17553	4.95766
9.08871E6	4.09251	7.44404
9.10064E6	5.59565	10.77533
9.11257E6	8.40384	15.03052
9.1245E6	14.15209	20.78763
9.13643E6	27.24756	26.81752
9.14836E6	54.96658	19.64965
9.16029E6	61.70233	-22.31897
9.17222E6	32.9666	-37.51627
9.18415E6	16.57849	-32.66277
9.19608E6	9.51344	-26.83616
9.20801E6	6.31956	-22.08019
9.21994E6	4.75363	-19.07115
9.23188E6	3.96846	-16.08391
9.24381E6	4.099	-13.87731
9.25574E6	4.9433	-13.74512
9.26767E6	4.0108	-14.16873
9.2796E6	2.55339	-13.4757
9.29153E6	1.70778	-12.14348
9.30346E6	1.36403	-10.87615
9.31539E6	1.26296	-10.47782
9.32732E6	1.17353	-9.80512
9.33925E6	0.91642	-8.87743
9.35118E6	0.83121	-8.41819
9.36311E6	0.83752	-8.01697
9.37504E6	0.71967	-7.54144
9.38697E6	0.6393	-6.92859
9.3989E6	0.66842	-6.57731
9.41083E6	0.63163	-5.94923
9.42276E6	0.67615	-5.47759
9.43469E6	0.69317	-4.96653
9.44662E6	0.77246	-4.7873
9.45855E6	0.7973	-3.90008
9.47048E6	0.94087	-3.40061
9.48241E6	1.317	-2.43556
9.49434E6	1.7943	-1.49418
9.50627E6	2.87594	-0.25398
9.5182E6	5.4072	1.19325
9.53013E6	11.02416	0.31789
9.54206E6	13.49673	-7.88117
9.55399E6	7.49627	-12.03252
9.56592E6	3.69823	-10.98023
9.57785E6	2.25497	-9.62511
9.58978E6	1.48089	-8.44794
9.60171E6	1.03033	-7.98721
9.61364E6	0.73679	-7.43675
9.62557E6	0.58956	-6.85467
9.6375E6	0.47041	-6.33467
9.64943E6	0.42426	-6.32003
9.66136E6	0.37275	-5.80997
9.67329E6	0.24544	-5.31142
9.68522E6	0.24391	-5.19453
9.69716E6	0.25251	-4.98786
9.70909E6	0.21515	-4.79116
9.72102E6	0.31476	-4.99721
9.73295E6	0.23976	-4.76253
9.74488E6	0.19223	-4.47644
9.75681E6	0.1598	-4.1641
9.76874E6	0.09803	-3.92656
9.78067E6	0.15494	-3.82836
9.7926E6	0.14795	-3.60483
9.80453E6	0.16761	-3.90428
9.81646E6	0.07201	-3.62288
9.82839E6	0.13271	-3.62083
9.84032E6	0.05618	-3.20793
9.85225E6	0.14107	-3.20603
9.86418E6	0.04786	-3.02371
9.87611E6	0.05026	-3.22823
9.88804E6	0.1167	-3.06347
9.89997E6	0.00483	-2.93995
9.9119E6	0.09116	-2.94123
9.92383E6	0.02193	-2.52569
9.93576E6	0.01748	-2.64676
9.94769E6	-0.03188	-2.48321
9.95962E6	-0.00918	-2.29577
9.97155E6	0.07577	-2.43793
9.98348E6	0.06031	-2.31954
9.99541E6	0.1357	-2.70063
1.00073E7	0.09281	-2.34716
1.00193E7	0.02824	-2.21907
1.00312E7	0.04969	-2.14483
1.00431E7	0.10508	-2.08565
1.00551E7	0.04968	-1.6254
1.0067E7	0.07447	-1.77493
1.00789E7	0.04828	-1.87383
1.00909E7	0.03339	-1.72166
1.01028E7	0.0437	-1.94061
1.01147E7	0.06296	-1.65997
1.01266E7	-0.00806	-1.27253
1.01386E7	0.01084	-1.37904
1.01505E7	0.06969	-1.41407
1.01624E7	0.09604	-1.36083
1.01744E7	0.05355	-1.26958
1.01863E7	0.02763	-0.98214
1.01982E7	1.69975E-4	-1.03811
1.02102E7	0.05865	-1.15821
1.02221E7	-0.03532	-1.19359
1.0234E7	-0.01669	-0.9303
1.02459E7	0.01177	-0.74147
1.02579E7	0.01632	-0.84316
1.02698E7	0.02451	-1.02981
1.02817E7	-0.01014	-0.55856
1.02937E7	0.07396	-0.81152
1.03056E7	0.02014	-0.85979
1.03175E7	0.01979	-0.51449
1.03295E7	0.04151	-0.46172
1.03414E7	-0.01544	-0.48913
1.03533E7	0.06966	-0.34535
1.03652E7	0.01304	-0.34313
1.03772E7	0.03428	-0.20325
1.03891E7	0.05728	-0.10154
1.0401E7	8.25996E-4	-0.20794
1.0413E7	0.06252	-0.07997
1.04249E7	-0.04874	0.04013
1.04368E7	-0.06507	-0.02943
1.04488E7	0.00734	0.14949
1.04607E7	-0.07825	0.15823
1.04726E7	0.07426	0.50504
1.04846E7	0.04599	0.42909
1.04965E7	0.06567	0.20005
1.05084E7	0.06803	0.22107
1.05203E7	-0.13672	0.32202
1.05323E7	0.02568	0.5225
1.05442E7	-0.00393	0.67693
1.05561E7	-0.02122	0.43444
1.05681E7	-0.06594	1.0215
1.058E7	0.00893	1.11149
1.05919E7	-0.06345	0.84964
1.06039E7	0.01063	0.83541
1.06158E7	0.03551	1.0982
1.06277E7	-6.54413E-4	1.23188
1.06396E7	0.06206	1.35664
1.06516E7	0.08902	1.33625
1.06635E7	0.10205	1.68915
1.06754E7	0.03723	1.40542
1.06874E7	0.06413	1.90468
1.06993E7	0.09641	1.74159
1.07112E7	0.1636	2.22111
1.07232E7	0.25198	2.2068
1.07351E7	0.38498	2.49698
1.0747E7	0.63672	2.89867
1.07589E7	0.99105	3.28089
1.07709E7	1.91667	3.65502
1.07828E7	3.99191	3.86226
1.07947E7	5.41214	0.89348
1.08067E7	3.21115	-1.39681
1.08186E7	1.59194	-1.0721
1.08305E7	0.84532	-0.31992
1.08425E7	0.48226	0.02529
1.08544E7	0.37474	0.2834
1.08663E7	0.29197	0.3406
1.08783E7	0.14114	0.86649
1.08902E7	0.13771	0.77154
1.09021E7	0.14465	0.85749
1.0914E7	0.11757	1.37279
1.0926E7	0.09615	1.41097
1.09379E7	-0.00485	1.31762
1.09498E7	0.05167	1.67215
1.09618E7	0.02734	1.5632
1.09737E7	0.01076	1.79897
1.09856E7	0.00261	1.64368
1.09976E7	-0.00398	1.89887
1.10095E7	0.04606	2.05908
1.10214E7	-0.03989	2.15495
1.10333E7	0.04654	2.1651
1.10453E7	0.0442	2.04646
1.10572E7	-0.04828	2.0964
1.10691E7	0.00522	2.65722
1.10811E7	-0.03678	2.80997
1.1093E7	0.01387	2.73168
1.11049E7	-0.02658	2.67296
1.11169E7	0.02724	2.79789
1.11288E7	-0.01011	2.9855
1.11407E7	-0.03538	2.63504
1.11526E7	0.04505	3.18412
1.11646E7	-0.05102	2.86052
1.11765E7	0.03349	3.34205
1.11884E7	-0.02494	3.28457
1.12004E7	0.03353	3.54195
1.12123E7	0.02713	3.39732
1.12242E7	-0.02495	3.54512
1.12362E7	0.02182	3.73237
1.12481E7	0.00681	4.03442
1.126E7	-0.03333	3.91679
1.12719E7	0.04309	4.13534
1.12839E7	0.04864	4.12914
1.12958E7	0.03087	4.26691
1.13077E7	0.04895	4.10853
1.13197E7	0.04808	4.47407
1.13316E7	0.02851	4.3855
1.13435E7	0.09946	4.63834
1.13555E7	0.04644	4.62768
1.13674E7	0.02176	4.99061
1.13793E7	0.02604	4.7139
1.13913E7	0.02921	5.20893
1.14032E7	0.08097	5.0667
1.14151E7	0.04063	5.52778
1.1427E7	0.06506	5.43714
1.1439E7	0.05519	5.73605
1.14509E7	0.05669	5.99126
1.14628E7	0.14458	6.25045
1.14748E7	0.12979	6.41171
1.14867E7	0.1746	6.79079
1.14986E7	0.19767	6.77579
1.15106E7	0.16911	6.87725
1.15225E7	0.10954	7.37561
1.15344E7	0.20354	7.49684
1.15463E7	0.24747	7.92534
1.15583E7	0.32205	8.29682
1.15702E7	0.20042	8.12932
1.15821E7	0.2659	8.46647
1.15941E7	0.35629	9.24963
1.1606E7	0.29059	9.32293
1.16179E7	0.47896	9.86754
1.16299E7	0.51185	10.28181
1.16418E7	0.55738	10.7015
1.16537E7	0.53039	11.09157
1.16656E7	0.72448	11.92809
1.16776E7	0.81175	12.49862
1.16895E7	0.97525	13.44852
1.17014E7	1.1239	14.30474
1.17134E7	1.3747	15.45661
1.17253E7	1.72744	16.66438
1.17372E7	2.21796	18.22048
1.17492E7	2.72178	19.99997
1.17611E7	3.46751	22.14473
1.1773E7	4.46982	24.93062
1.17849E7	6.28128	28.54505
1.17969E7	8.94472	32.97845
1.18088E7	14.37238	40.01626
1.18207E7	24.4271	48.29391
1.18327E7	46.13663	56.48246
1.18446E7	89.06524	43.70421
1.18565E7	101.97867	-20.15182
1.18685E7	57.83611	-50.14601
1.18804E7	30.19711	-44.69083
1.18923E7	17.38809	-36.25776
1.19043E7	11.00378	-29.04692
1.19162E7	7.35934	-23.72296
1.19281E7	5.56027	-20.08311
1.194E7	4.22191	-17.12435
1.1952E7	3.16998	-14.65635
1.19639E7	2.71638	-13.05133
1.19758E7	2.152	-11.17333
1.19878E7	1.83166	-10.19044
1.19997E7	1.47698	-8.82279
1.20116E7	1.27873	-8.09086
1.20236E7	1.07402	-7.15471
1.20355E7	1.02567	-6.41208
1.20474E7	0.84286	-5.81978
1.20593E7	0.71878	-5.14819
1.20713E7	0.70965	-4.60024
1.20832E7	0.59515	-4.07554
1.20951E7	0.56215	-3.94039
1.21071E7	0.52486	-3.38055
1.2119E7	0.39936	-2.70155
1.21309E7	0.383	-2.54842
1.21429E7	0.34739	-2.29433
1.21548E7	0.32988	-1.86606
1.21667E7	0.35043	-1.88746
1.21786E7	0.30894	-1.57495
1.21906E7	0.22811	-1.0423
1.22025E7	0.22565	-0.9069
1.22144E7	0.23976	-0.62283
1.22264E7	0.22233	-0.4398
1.22383E7	0.20057	-0.55506
1.22502E7	0.13896	-0.13605
1.22622E7	0.179	-0.01549
1.22741E7	0.14241	0.47994
1.2286E7	0.14805	0.6286
1.2298E7	0.18511	0.69468
1.23099E7	0.24119	1.13926
1.23218E7	0.11525	0.79704
1.23337E7	0.12149	1.29679
1.23457E7	0.12539	1.35846
1.23576E7	0.11047	1.46763
1.23695E7	0.11641	1.72141
1.23815E7	0.12348	2.0328
1.23934E7	0.10348	2.17445
1.24053E7	0.10084	1.95865
1.24173E7	0.20427	2.24988
1.24292E7	0.22752	2.76936
1.24411E7	0.19361	2.42637
1.2453E7	0.14655	2.55077
1.2465E7	0.05514	2.8104
1.24769E7	0.06626	3.15584
1.24888E7	0.09877	3.15806
1.25008E7	0.01162	3.18627
1.25127E7	0.102	3.55476
1.25246E7	0.08768	3.64279
1.25366E7	0.10061	3.77415
1.25485E7	0.06733	4.1248
1.25604E7	0.11801	4.23378
1.25723E7	0.08741	4.52336
1.25843E7	0.02502	4.32708
1.25962E7	0.06926	4.64155
1.26081E7	0.11332	4.82079
1.26201E7	0.10246	4.89107
1.2632E7	0.03971	4.96786
1.26439E7	0.13451	5.45742
1.26559E7	0.07722	5.32186
1.26678E7	0.1312	5.52848
1.26797E7	0.01857	5.78152
1.26916E7	0.05082	5.9065
1.27036E7	0.07169	6.06777
1.27155E7	0.08601	6.17308
1.27274E7	0.11545	6.64294
1.27394E7	0.12416	6.48554
1.27513E7	0.16599	6.82486
1.27632E7	0.08822	6.78579
1.27752E7	0.1341	7.13813
1.27871E7	0.03786	7.1473
1.2799E7	0.11447	7.66758
1.2811E7	0.13827	7.77229
1.28229E7	0.1451	8.01738
1.28348E7	0.16214	8.20266
1.28467E7	0.21911	8.61375
1.28587E7	0.09877	8.49483
1.28706E7	0.23856	9.0441
1.28825E7	0.19998	9.35731
1.28945E7	0.16459	9.63403
1.29064E7	0.10373	9.63409
1.29183E7	0.18977	9.84217
1.29303E7	0.1967	10.1918
1.29422E7	0.1987	10.77226
1.29541E7	0.36304	10.83127
1.2966E7	0.29882	11.15197
1.2978E7	0.58098	11.66229
1.29899E7	0.52196	11.83172
1.30018E7	0.27974	12.29796
1.30138E7	0.43017	12.89453
1.30257E7	0.27256	12.75291
1.30376E7	0.47481	13.6058
1.30496E7	0.53181	14.35525
1.30615E7	0.56699	14.90022
1.30734E7	0.58026	15.17876
1.30853E7	0.79271	16.09919
1.30973E7	0.68684	16.55085
1.31092E7	0.85585	17.15131
1.31211E7	0.81088	17.91221
1.31331E7	1.04686	18.79011
1.3145E7	1.06473	19.45947
1.31569E7	1.13913	20.46814
1.31689E7	1.38805	21.51022
1.31808E7	1.57338	22.56725
1.31927E7	1.69775	23.72881
1.32046E7	1.82447	25.22769
1.32166E7	2.06027	26.35475
1.32285E7	2.21539	27.99401
1.32404E7	2.82582	29.98757
1.32524E7	3.33423	32.01899
1.32643E7	3.96926	34.61803
1.32762E7	4.26816	37.04057
1.32882E7	5.44649	40.14059
1.33001E7	6.3709	44.05804
1.3312E7	7.7849	48.84306
1.3324E7	9.97278	54.39103
1.33359E7	12.88801	61.07177
1.33478E7	17.39051	70.32442
1.33597E7	25.08235	81.78887
1.33717E7	36.43472	96.3716
1.33836E7	57.75433	116.02993
1.33955E7	102.79794	137.25565
1.34075E7	187.86972	134.03925
1.34194E7	278.62778	24.63692
1.34313E7	219.82854	-112.63873
1.34433E7	122.15644	-137.3107
1.34552E7	68.95071	-118.69562
1.34671E7	41.93415	-98.14421
1.3479E7	28.9726	-83.35633
1.3491E7	20.71327	-71.17716
1.35029E7	15.66431	-62.03126
1.35148E7	11.76673	-54.23473
1.35268E7	9.48897	-48.59536
1.35387E7	7.71279	-43.88889
1.35506E7	6.64906	-40.05663
1.35626E7	5.48017	-36.50826
1.35745E7	4.55715	-33.67448
1.35864E7	3.95402	-31.19833
1.35983E7	3.45259	-29.11527
1.36103E7	3.10173	-27.25198
1.36222E7	2.60612	-25.57088
1.36341E7	2.4205	-24.14208
1.36461E7	2.22973	-22.76721
1.3658E7	1.9812	-21.57145
1.36699E7	1.73625	-20.58149
1.36819E7	1.65422	-19.32895
1.36938E7	1.42888	-18.42842
1.37057E7	1.33238	-17.69069
1.37177E7	1.27885	-16.80271
1.37296E7	1.13563	-15.99271
1.37415E7	1.03512	-15.62131
1.37534E7	0.95004	-14.85079
1.37654E7	0.97817	-14.23986
1.37773E7	0.89933	-14.10338
1.37892E7	0.68213	-13.01937
1.38012E7	0.80643	-12.97137
1.38131E7	0.68956	-12.19804
1.3825E7	0.62278	-11.82668
1.3837E7	0.61091	-11.27679
1.38489E7	0.60793	-11.00249
1.38608E7	0.57621	-10.79888
1.38727E7	0.48909	-10.28546
1.38847E7	0.50821	-10.01499
1.38966E7	0.50421	-9.69476
1.39085E7	0.49319	-9.54375
1.39205E7	0.38111	-9.06099
1.39324E7	0.37821	-8.65645
1.39443E7	0.35887	-8.24987
1.39563E7	0.42974	-8.3049
1.39682E7	0.33042	-7.65655
1.39801E7	0.26598	-7.74947
1.3992E7	0.35316	-7.45431
1.4004E7	0.25819	-7.10485
1.40159E7	0.29128	-7.25191
1.40278E7	0.34448	-6.99959
1.40398E7	0.30143	-6.75636
1.40517E7	0.28804	-6.49052
1.40636E7	0.21157	-6.11791
1.40756E7	0.19699	-5.9245
1.40875E7	0.25639	-6.22136
1.40994E7	0.20359	-5.59055
1.41113E7	0.2064	-5.87583
1.41233E7	0.15826	-5.43374
1.41352E7	0.18153	-5.2884
1.41471E7	0.15091	-5.18462
1.41591E7	0.15093	-4.87811
1.4171E7	0.11132	-4.99071
1.41829E7	0.19566	-4.68624
1.41949E7	0.16707	-4.48138
1.42068E7	0.16335	-4.42013
1.42187E7	0.1313	-4.28393
1.42307E7	0.10252	-4.10114
1.42426E7	0.08955	-4.17585
1.42545E7	0.11011	-3.67945
1.42664E7	0.10057	-3.72921
1.42784E7	0.13563	-3.63379
1.42903E7	0.12802	-3.35255
1.43022E7	0.1257	-3.51639
1.43142E7	0.09918	-3.47963
1.43261E7	0.1072	-3.1531
1.4338E7	0.08225	-2.90612
1.435E7	0.07212	-2.78126
1.43619E7	0.09781	-2.87089
1.43738E7	0.03812	-2.65618
1.43857E7	0.09782	-2.60439
1.43977E7	0.0831	-2.51761
1.44096E7	0.01038	-2.42583
1.44215E7	0.0772	-2.30431
1.44335E7	0.05578	-1.99485
1.44454E7	0.08051	-2.02737
1.44573E7	0.04095	-2.05017
1.44693E7	0.04181	-2.07664
1.44812E7	0.03252	-1.50385
1.44931E7	0.04365	-1.50459
1.4505E7	0.00665	-1.49891
1.4517E7	0.03169	-1.56936
1.45289E7	0.01208	-1.38726
1.45408E7	-0.00543	-1.22631
1.45528E7	-0.03116	-1.33816
1.45647E7	0.02783	-0.99098
1.45766E7	0.01739	-0.98121
1.45886E7	-0.00623	-0.75068
1.46005E7	0.00106	-0.89357
1.46124E7	0.02512	-1.00239
1.46243E7	-0.01541	-0.6575
1.46363E7	0.00682	-0.69991
1.46482E7	0.00949	-0.27968
1.46601E7	-0.01777	-0.41931
1.46721E7	0.01041	-0.51182
1.4684E7	0.01058	-0.22298
1.46959E7	-0.05845	-0.12107
1.47079E7	0.00506	0.16535
1.47198E7	-0.01737	-0.06262
1.47317E7	0.03656	0.26587
1.47437E7	0.00539	0.22744
1.47556E7	-0.01436	0.19645
1.47675E7	0.007	0.28066
1.47794E7	-0.00631	0.46037
1.47914E7	0.0275	0.56826
1.48033E7	0.00405	0.75193
1.48152E7	0.03781	0.65233
1.48272E7	-0.02597	0.8141
1.48391E7	0.03597	0.88006
1.4851E7	-0.00242	0.95175
1.4863E7	-0.03632	1.16046
1.48749E7	0.02515	1.29272
1.48868E7	-0.01415	1.38252
1.48987E7	-0.00745	1.45782
1.49107E7	-0.02521	1.39832
1.49226E7	0.02132	1.47072
1.49345E7	-0.02541	1.59404
1.49465E7	0.00605	1.71406
1.49584E7	-0.03215	1.80646
1.49703E7	0.00567	1.87839
1.49823E7	0.01179	1.89527
1.49942E7	0.02362	2.06633
1.50061E7	-0.09089	2.16674
1.5018E7	0.01107	2.21436
1.503E7	0.04034	2.23556
1.50419E7	-0.03092	2.44128
1.50538E7	0.0459	2.73999
1.50658E7	0.00837	2.70208
1.50777E7	0.03187	2.70521
1.50896E7	0.00142	2.82782
1.51016E7	0.06398	3.07959
1.51135E7	0.02825	2.97192
1.51254E7	0.04124	3.17485
1.51374E7	0.02809	3.25598
1.51493E7	0.06352	3.56092
1.51612E7	0.04241	3.66043
1.51731E7	0.0304	3.66514
1.51851E7	0.05583	3.9183
1.5197E7	0.02555	3.96691
1.52089E7	0.10643	4.22237
1.52209E7	0.00525	4.0684
1.52328E7	0.02962	4.37391
1.52447E7	0.05118	4.34076
1.52567E7	0.02244	4.48932
1.52686E7	0.02058	4.50801
1.52805E7	0.04197	4.66034
1.52924E7	0.08157	5.20067
1.53044E7	0.16752	5.33594
1.53163E7	0.15881	5.6465
1.53282E7	0.02222	5.213
1.53402E7	0.06745	5.43929
1.53521E7	0.10618	5.75891
1.5364E7	0.05185	5.87078
1.5376E7	0.19417	6.27351
1.53879E7	0.13264	6.35358
1.53998E7	0.171	6.65132
1.54117E7	0.13763	6.56438
1.54237E7	0.27221	7.18039
1.54356E7	0.21396	7.09126
1.54475E7	0.20168	7.47478
1.54595E7	0.21508	7.6804
1.54714E7	0.31137	8.06227
1.54833E7	0.2547	7.94868
1.54953E7	0.27035	8.15875
1.55072E7	0.32751	8.44365
1.55191E7	0.30937	8.85284
1.5531E7	0.33351	9.0577
1.5543E7	0.36995	9.57936
1.55549E7	0.42257	9.85973
1.55668E7	0.45215	9.99257
1.55788E7	0.4772	10.35197
1.55907E7	0.53604	10.87421
1.56026E7	0.46977	11.05364
1.56146E7	0.60225	11.45128
1.56265E7	0.73241	12.2533
1.56384E7	0.69556	12.3751
1.56504E7	0.71197	12.80954
1.56623E7	0.9023	13.52792
1.56742E7	0.95169	14.2158
1.56861E7	1.06067	14.8906
1.56981E7	1.20001	15.72265
1.571E7	1.31486	16.28097
1.57219E7	1.43402	17.06313
1.57339E7	1.43481	17.69446
1.57458E7	1.81861	19.03778
1.57577E7	2.0079	19.84051
1.57697E7	2.14017	20.94314
1.57816E7	2.4846	22.4018
1.57935E7	2.83864	23.71704
1.58054E7	3.20557	25.45522
1.58174E7	3.92968	27.47075
1.58293E7	4.34516	29.5491
1.58412E7	5.2022	32.08052
1.58532E7	6.41772	35.02145
1.58651E7	7.42363	38.24967
1.5877E7	9.54657	42.48488
1.5889E7	12.41275	47.21215
1.59009E7	15.9194	53.10512
1.59128E7	21.22827	60.93369
1.59247E7	30.0481	70.07251
1.59367E7	44.62863	81.11354
1.59486E7	70.22694	92.74905
1.59605E7	114.97142	93.69614
1.59725E7	171.76396	56.59699
1.59844E7	186.13548	-28.93305
1.59963E7	133.82524	-86.45427
1.60083E7	84.08847	-94.08105
1.60202E7	53.1486	-85.13658
1.60321E7	35.61458	-73.41312
1.60441E7	25.36947	-63.59593
1.6056E7	18.48357	-56.02012
1.60679E7	14.18727	-49.42684
1.60798E7	11.2275	-44.40019
1.60918E7	9.23765	-40.07082
1.61037E7	7.55565	-36.36749
1.61156E7	6.31788	-34.06845
1.61276E7	5.44603	-31.04352
1.61395E7	4.46322	-28.88151
1.61514E7	4.15658	-26.98294
1.61634E7	3.57127	-25.23007
1.61753E7	3.07304	-23.43353
1.61872E7	2.93496	-22.36134
1.61991E7	2.48403	-21.12036
1.62111E7	2.23893	-19.93283
1.6223E7	1.91158	-19.03485
1.62349E7	1.81592	-18.10468
1.62469E7	1.64103	-16.95928
1.62588E7	1.48273	-16.70484
1.62707E7	1.40954	-15.67288
1.62827E7	1.3434	-15.31263
1.62946E7	1.27856	-14.70295
1.63065E7	1.07327	-14.10703
1.63184E7	1.05094	-13.69972
1.63304E7	0.9524	-12.97014
1.63423E7	0.86797	-12.56216
1.63542E7	0.83761	-12.10799
1.63662E7	0.81079	-11.97483
1.63781E7	0.7676	-11.43448
1.639E7	0.69964	-11.10753
1.6402E7	0.68373	-10.93795
1.64139E7	0.64388	-10.71728
1.64258E7	0.59285	-10.10488
1.64377E7	0.56289	-9.872
1.64497E7	0.54778	-9.67835
1.64616E7	0.43334	-9.15263
1.64735E7	0.41678	-9.11776
1.64855E7	0.42386	-8.71135
1.64974E7	0.36469	-8.66313
1.65093E7	0.35998	-8.3844
1.65213E7	0.36487	-8.24861
1.65332E7	0.33108	-7.83662
1.65451E7	0.32729	-7.71553
1.65571E7	0.32625	-7.56686
1.6569E7	0.26968	-7.38689
1.65809E7	0.30486	-7.10582
1.65928E7	0.26917	-6.94917
1.66048E7	0.25161	-7.03635
1.66167E7	0.28116	-6.74547
1.66286E7	0.17536	-6.63788
1.66406E7	0.21271	-6.55655
1.66525E7	0.19894	-6.20107
1.66644E7	0.19791	-6.13457
1.66764E7	0.1602	-6.02391
1.66883E7	0.17509	-6.02847
1.67002E7	0.14082	-5.78242
1.67121E7	0.11139	-5.76747
1.67241E7	0.11739	-5.52423
1.6736E7	0.11608	-5.32641
1.67479E7	0.08387	-5.15441
1.67599E7	0.06943	-4.99152
1.67718E7	0.15617	-5.47106
1.67837E7	0.07694	-4.83532
1.67957E7	0.04683	-4.8781
1.68076E7	0.09078	-4.82477
1.68195E7	0.05874	-4.86295
1.68314E7	0.07167	-4.49697
1.68434E7	0.08599	-4.53974
1.68553E7	0.05337	-4.47971
1.68672E7	0.04936	-4.27837
1.68792E7	0.03678	-4.11243
1.68911E7	0.01392	-4.0771
1.6903E7	0.01996	-4.20974
1.6915E7	0.03356	-3.81399
1.69269E7	0.04512	-3.90076
1.69388E7	0.02858	-3.84103
1.69507E7	0.04456	-3.82103
1.69627E7	0.04737	-3.60317
1.69746E7	-0.00156	-3.67897
1.69865E7	-0.00975	-3.72647
1.69985E7	-0.02032	-3.42331
1.70104E7	-0.00945	-3.55004
1.70223E7	-2.39626E-4	-3.20232
1.70343E7	-0.00763	-3.17601
1.70462E7	-0.01709	-3.30586
1.70581E7	-0.05429	-3.27386
1.70701E7	0.01725	-2.84069
1.7082E7	0.01307	-2.98538
1.70939E7	-0.00834	-2.87856
1.71058E7	-0.0137	-2.77702
1.71178E7	-0.02718	-2.76063
1.71297E7	-0.01246	-2.9076
1.71416E7	-0.01758	-2.98527
1.71536E7	-0.03701	-2.52904
1.71655E7	-0.05072	-2.51927
1.71774E7	0.0096	-2.56798
1.71894E7	-0.00733	-2.41447
1.72013E7	-0.07671	-2.43321
1.72132E7	-0.01884	-2.40463
1.72251E7	0.00313	-2.44735
1.72371E7	-0.02844	-2.26118
1.7249E7	-0.02982	-2.0556
1.72609E7	-0.02401	-2.29468
1.72729E7	-0.03956	-2.09153
1.72848E7	-0.05089	-2.17554
1.72967E7	-0.03294	-2.06771
1.73087E7	-0.05119	-1.90899
1.73206E7	-0.10318	-2.12409
1.73325E7	-0.04605	-2.02227
1.73444E7	-0.0231	-1.78545
1.73564E7	-0.05619	-1.80943
1.73683E7	-0.03403	-2.01601
1.73802E7	-0.10456	-1.92478
1.73922E7	-0.03434	-1.92112
1.74041E7	-0.06353	-1.56912
1.7416E7	-0.07223	-1.77508
1.7428E7	-0.09339	-1.77707
1.74399E7	-0.09153	-1.50917
1.74518E7	-0.05232	-1.52294
1.74638E7	-0.04635	-1.55865
1.74757E7	-0.08275	-1.51119
1.74876E7	-0.0382	-1.17802
1.74995E7	-0.04416	-1.25328
1.75115E7	-0.08763	-1.56714
1.75234E7	-0.09602	-1.12274
1.75353E7	-0.08	-1.16278
1.75473E7	-0.07109	-1.16024
1.75592E7	-0.06945	-1.25404
1.75711E7	-0.06396	-1.30623
1.75831E7	-0.11466	-1.34267
1.7595E7	-0.099	-1.07036
1.76069E7	-0.07652	-1.07897
1.76188E7	-0.08855	-1.03285
1.76308E7	-0.11991	-0.94541
1.76427E7	-0.07499	-1.1078
1.76546E7	-0.09007	-0.90809
1.76666E7	-0.08982	-1.02423
1.76785E7	-0.07764	-0.88151
1.76904E7	-0.08562	-0.90765
1.77024E7	-0.0752	-0.73868
1.77143E7	-0.09462	-0.75837
1.77262E7	-0.10633	-0.88701
1.77381E7	-0.12241	-0.72638
1.77501E7	-0.09713	-0.90792
1.7762E7	-0.05436	-0.58952
1.77739E7	-0.09029	-0.68268
1.77859E7	-0.06355	-0.57819
1.77978E7	-0.05862	-0.31888
1.78097E7	-0.06499	-0.29659
1.78217E7	-0.07129	-0.53792
1.78336E7	-0.10942	-0.60183
1.78455E7	-0.07567	-0.34356
1.78574E7	-0.10191	-0.49268
1.78694E7	-0.08869	-0.29712
1.78813E7	-0.08226	-0.34264
1.78932E7	-0.10906	-0.26297
1.79052E7	-0.0777	-0.3446
1.79171E7	-0.08464	-0.08321
1.7929E7	-0.09531	-0.01535
1.7941E7	-0.11014	-0.17915
1.79529E7	-0.0932	-0.25227
1.79648E7	-0.08423	-0.17008
1.79768E7	-0.1072	-0.06883
1.79887E7	-0.09686	-0.23474
1.80006E7	-0.09648	-0.09724
1.80125E7	-0.09606	-0.1568
1.80245E7	-0.10677	-0.00393
1.80364E7	-0.10326	0.02073
1.80483E7	-0.1003	0.05879
1.80603E7	-0.05982	0.14922
1.80722E7	-0.10412	0.08372
1.80841E7	-0.06218	0.19959
1.80961E7	-0.07387	0.35109
1.8108E7	-0.10074	0.22925
1.81199E7	-0.09873	0.23241
1.81318E7	-0.0925	0.31377
1.81438E7	-0.09349	0.17676
1.81557E7	-0.12558	0.13647
1.81676E7	-0.11532	0.32361
1.81796E7	-0.11969	0.32609
1.81915E7	-0.1255	0.23816
1.82034E7	-0.09596	0.486
1.82154E7	-0.1003	0.49423
1.82273E7	-0.13642	0.43854
1.82392E7	-0.11855	0.18798
1.82511E7	-0.09313	0.39698
1.82631E7	-0.09001	0.63734
1.8275E7	-0.12474	0.46779
1.82869E7	-0.08598	0.47208
1.82989E7	-0.12928	0.17661
1.83108E7	-0.1267	0.54859
1.83227E7	-0.10932	0.70204
1.83347E7	-0.11848	0.52605
1.83466E7	-0.11217	0.63625
1.83585E7	-0.1182	0.84159
1.83704E7	-0.13568	0.63671
1.83824E7	-0.12305	0.83732
1.83943E7	-0.10126	0.68632
1.84062E7	-0.11451	0.58259
1.84182E7	-0.14326	0.67727
1.84301E7	-0.11404	0.84723
1.8442E7	-0.12499	0.88905
1.8454E7	-0.11988	0.70576
1.84659E7	-0.13251	0.74993
1.84778E7	-0.14162	1.03969
1.84898E7	-0.15712	0.64862
1.85017E7	-0.12554	0.85565
1.85136E7	-0.12012	1.10027
1.85255E7	-0.11147	1.20493
1.85375E7	-0.12966	0.82369
1.85494E7	-0.12982	0.93092
1.85613E7	-0.09498	1.17411
1.85733E7	-0.13579	0.97688
1.85852E7	-0.12563	0.95281
1.85971E7	-0.16035	0.87243
1.86091E7	-0.11526	1.26965
1.8621E7	-0.11439	1.11207
1.86329E7	-0.12355	1.16438
1.86448E7	-0.14467	1.10798
1.86568E7	-0.09404	1.07883
1.86687E7	-0.12429	1.23418
1.86806E7	-0.14734	1.3057
1.86926E7	-0.11616	1.38941
1.87045E7	-0.14288	1.23975
1.87164E7	-0.14251	1.30329
1.87284E7	-0.16206	1.42433
1.87403E7	-0.15162	1.3121
1.87522E7	-0.12407	1.39461
1.87641E7	-0.13364	1.2895
1.87761E7	-0.09883	1.35149
1.8788E7	-0.14345	1.47956
1.87999E7	-0.14232	1.2027
1.88119E7	-0.12419	1.54789
1.88238E7	-0.13111	1.35013
1.88357E7	-0.10088	1.67245
1.88477E7	-0.15041	1.47654
1.88596E7	-0.11552	1.67796
1.88715E7	-0.10491	1.63474
1.88835E7	-0.11571	1.56881
1.88954E7	-0.13889	1.59353
1.89073E7	-0.15154	1.5773
1.89192E7	-0.11241	1.77413
1.89312E7	-0.11902	1.74735
1.89431E7	-0.12222	1.58922
1.8955E7	-0.11723	1.55343
1.8967E7	-0.10375	1.85495
1.89789E7	-0.1162	1.94393
1.89908E7	-0.13803	1.7115
1.90028E7	-0.16708	1.6016
1.90147E7	-0.12819	1.54812
1.90266E7	-0.13616	1.97141
1.90385E7	-0.07539	2.16587
1.90505E7	-0.09523	1.99406
1.90624E7	-0.11228	1.762
1.90743E7	-0.11656	1.95741
1.90863E7	-0.13216	1.93245
1.90982E7	-0.11647	2.00736
1.91101E7	-0.099	2.13747
1.91221E7	-0.12766	2.07237
1.9134E7	-0.11527	1.98934
1.91459E7	-0.14347	1.8936
1.91578E7	-0.09675	2.14368
1.91698E7	-0.14756	1.87561
1.91817E7	-0.13437	2.03132
1.91936E7	-0.12389	1.97113
1.92056E7	-0.10875	2.18851
1.92175E7	-0.14385	2.02864
1.92294E7	-0.12523	2.06676
1.92414E7	-0.12121	2.16034
1.92533E7	-0.14847	2.01586
1.92652E7	-0.10961	2.26192
1.92771E7	-0.11223	2.24082
1.92891E7	-0.11871	2.24873
1.9301E7	-0.1517	2.17126
1.93129E7	-0.1338	2.34599
1.93249E7	-0.16291	2.24226
1.93368E7	-0.14024	2.24438
1.93487E7	-0.13083	2.26409
1.93607E7	-0.12708	2.38162
1.93726E7	-0.11223	2.55836
1.93845E7	-0.11383	2.69807
1.93965E7	-0.10704	2.37234
1.94084E7	-0.13256	2.62866
1.94203E7	-0.10828	2.56977
1.94322E7	-0.15187	2.43425
1.94442E7	-0.12323	2.58223
1.94561E7	-0.14105	2.63374
1.9468E7	-0.11502	2.67223
1.948E7	-0.09414	2.62138
1.94919E7	-0.10371	2.62879
1.95038E7	-0.11692	2.6711
1.95158E7	-0.13932	2.79534
1.95277E7	-0.07987	2.77146
1.95396E7	-0.11088	2.67221
1.95515E7	-0.13076	2.6725
1.95635E7	-0.11899	2.73281
1.95754E7	-0.12913	2.77984
1.95873E7	-0.09526	2.91786
1.95993E7	-0.12621	2.94336
1.96112E7	-0.09891	2.80356
1.96231E7	-0.11536	2.92811
1.96351E7	-0.09489	3.06376
1.9647E7	-0.13167	2.96284
1.96589E7	-0.0843	3.05757
1.96708E7	-0.08231	2.95947
1.96828E7	-0.06755	3.19914
1.96947E7	-0.09701	2.99584
1.97066E7	-0.09609	3.25175
1.97186E7	-0.06161	3.41033
1.97305E7	-0.08826	2.96236
1.97424E7	-0.10773	3.20792
1.97544E7	-0.06784	3.42788
1.97663E7	-0.10791	3.13655
1.97782E7	-0.11232	3.26671
1.97901E7	-0.11396	3.10232
1.98021E7	-0.10887	3.22301
1.9814E7	-0.0806	3.30356
1.98259E7	-0.07666	3.4204
1.98379E7	-0.02041	3.72189
1.98498E7	-0.08917	3.34654
1.98617E7	-0.05527	3.64219
1.98737E7	-0.06435	3.54223
1.98856E7	-0.01698	3.69554
1.98975E7	-0.09106	3.5759
1.99095E7	-0.06076	3.73181
1.99214E7	-0.0557	3.72932
1.99333E7	-0.03401	3.73634
1.99452E7	-0.04274	3.65048
1.99572E7	-0.01446	3.95599
1.99691E7	-0.01983	3.84974
1.9981E7	-0.03674	3.83311
1.9993E7	-0.0189	4.08428
2.00049E7	0.01459	4.04139
2.00168E7	0.03924	4.23596
2.00288E7	0.04684	4.32755
2.00407E7	0.04441	4.27783
2.00526E7	0.10932	4.56791
2.00645E7	0.08502	4.6848
2.00765E7	0.07328	4.4089
2.00884E7	0.10253	4.46922
2.01003E7	0.15855	4.67019
2.01123E7	0.16684	4.88565
2.01242E7	0.21534	5.17644
2.01361E7	0.29039	5.09764
2.01481E7	0.34229	5.35648
2.016E7	0.34552	5.42409
2.01719E7	0.40436	5.52954
2.01838E7	0.54208	5.86953
2.01958E7	0.59897	5.92319
2.02077E7	0.72999	6.24844
2.02196E7	0.85888	6.5601
2.02316E7	1.10361	6.81803
2.02435E7	1.32476	7.0365
2.02554E7	1.71053	7.74055
2.02674E7	2.10744	7.96798
2.02793E7	2.80832	8.61209
2.02912E7	3.69837	9.14635
2.03032E7	5.06506	9.85737
2.03151E7	6.94002	9.93124
2.0327E7	9.42115	9.42214
2.03389E7	12.10944	7.55418
2.03509E7	13.75984	3.60476
2.03628E7	12.82102	-0.46238
2.03747E7	10.27103	-2.98334
2.03867E7	7.64574	-3.77238
2.03986E7	5.55216	-3.63859
2.04105E7	4.11168	-2.96106
2.04225E7	3.13581	-2.78193
2.04344E7	2.39295	-2.19594
2.04463E7	1.9241	-1.86107
2.04582E7	1.50657	-1.37085
2.04702E7	1.20229	-0.84139
2.04821E7	1.02326	-0.56708
2.0494E7	0.88246	-0.32888
2.0506E7	0.71781	-0.17226
2.05179E7	0.61867	-0.03952
2.05298E7	0.53288	0.2699
2.05418E7	0.44751	0.57644
2.05537E7	0.3867	0.60913
2.05656E7	0.37012	0.78812
2.05775E7	0.32578	0.938
2.05895E7	0.31293	0.9966
2.06014E7	0.3046	1.10967
2.06133E7	0.31225	1.23052
2.06253E7	0.27266	1.26227
2.06372E7	0.23303	1.42495
2.06491E7	0.20563	1.51391
2.06611E7	0.16125	1.49118
2.0673E7	0.11359	1.48342
2.06849E7	0.1203	1.53493
2.06968E7	0.0693	1.78174
2.07088E7	0.07289	1.74016
2.07207E7	0.04839	1.93833
2.07326E7	0.03009	2.05738
2.07446E7	0.0299	2.19231
2.07565E7	0.02699	1.99179
2.07684E7	0.03566	2.32101
2.07804E7	-0.03495	1.96685
2.07923E7	-0.03449	2.08994
2.08042E7	-0.02839	2.07145
2.08162E7	-0.03309	2.05185
2.08281E7	-0.03292	2.06926
2.084E7	-0.06265	2.22873
2.08519E7	-0.04755	2.46465
2.08639E7	-0.08762	2.38289
2.08758E7	-0.06359	2.444
2.08877E7	-0.09865	2.48282
2.08997E7	-0.05999	2.56857
2.09116E7	-0.08636	2.38343
2.09235E7	-0.05868	2.65349
2.09355E7	-0.06444	2.52457
2.09474E7	-0.08176	2.36576
2.09593E7	-0.08824	2.60522
2.09712E7	-0.11624	2.53656
2.09832E7	-0.09088	2.67748
2.09951E7	-0.07842	2.67267
2.1007E7	-0.06984	2.79079
2.1019E7	-0.08032	2.7696
2.10309E7	-0.11035	2.71518
2.10428E7	-0.07903	2.83797
2.10548E7	-0.09824	2.94384
2.10667E7	-0.10809	2.69812
2.10786E7	-0.11486	3.00995
2.10905E7	-0.06212	3.02438
2.11025E7	-0.07791	3.01302
2.11144E7	-0.08876	3.07621
2.11263E7	-0.12195	2.9575
2.11383E7	-0.109	3.05387
2.11502E7	-0.07499	3.14942
2.11621E7	-0.08791	3.06177
2.11741E7	-0.09428	3.18387
2.1186E7	-0.0717	3.22095
2.11979E7	-0.10678	3.34124
2.12099E7	-0.07552	3.26641
2.12218E7	-0.09414	3.28057
2.12337E7	-0.09248	3.31162
2.12456E7	-0.07799	3.36972
2.12576E7	-0.12123	3.14361
2.12695E7	-0.10508	3.16138
2.12814E7	-0.11378	3.35883
2.12934E7	-0.09844	3.14748
2.13053E7	-0.12034	3.28135
2.13172E7	-0.11737	3.29755
2.13292E7	-0.09564	3.40717
2.13411E7	-0.10724	3.26407
2.1353E7	-0.13684	3.45184
2.13649E7	-0.11047	3.4103
2.13769E7	-0.11381	3.34301
2.13888E7	-0.10719	3.55324
2.14007E7	-0.10989	3.38762
2.14127E7	-0.13132	3.30153
2.14246E7	-0.10805	3.45833
2.14365E7	-0.14197	3.33627
2.14485E7	-0.13547	3.4157
2.14604E7	-0.08444	3.50054
2.14723E7	-0.10903	3.58811
2.14842E7	-0.12261	3.54331
2.14962E7	-0.10732	3.67292
2.15081E7	-0.11862	3.6721
2.152E7	-0.12172	3.50183
2.1532E7	-0.14101	3.33132
2.15439E7	-0.11559	3.51695
2.15558E7	-0.12474	3.51684
2.15678E7	-0.13191	3.4138
2.15797E7	-0.09731	3.78066
2.15916E7	-0.12764	3.70682
2.16035E7	-0.09753	3.87465
2.16155E7	-0.11094	3.81203
2.16274E7	-0.1187	3.5625
2.16393E7	-0.12638	3.8167
2.16513E7	-0.12691	3.78077
2.16632E7	-0.12945	3.69778
2.16751E7	-0.10897	3.90466
2.16871E7	-0.12638	3.76124
2.1699E7	-0.12887	3.93961
2.17109E7	-0.12312	3.85051
2.17229E7	-0.14962	3.5716
2.17348E7	-0.14087	3.78846
2.17467E7	-0.09428	3.83725
2.17586E7	-0.1004	3.80242
2.17706E7	-0.09264	3.99275
2.17825E7	-0.12699	3.8888
2.17944E7	-0.12164	3.91603
2.18064E7	-0.11783	3.80446
2.18183E7	-0.12114	3.98549
2.18302E7	-0.12453	3.87568
2.18422E7	-0.09986	3.90563
2.18541E7	-0.13096	3.82293
2.1866E7	-0.13035	3.95129
2.18779E7	-0.09937	3.97171
2.18899E7	-0.10814	3.96284
2.19018E7	-0.14661	3.93616
2.19137E7	-0.11628	4.10417
2.19257E7	-0.15444	3.87434
2.19376E7	-0.11536	3.92006
2.19495E7	-0.08168	4.20182
2.19615E7	-0.11833	4.20537
2.19734E7	-0.12224	4.0318
2.19853E7	-0.14376	4.10532
2.19972E7	-0.1049	4.22584
2.20092E7	-0.12364	4.12591
2.20211E7	-0.11451	4.21778
2.2033E7	-0.12449	4.12403
2.2045E7	-0.10403	4.26749
2.20569E7	-0.12209	4.2806
2.20688E7	-0.08703	4.33055
2.20808E7	-0.10029	4.21108
2.20927E7	-0.13516	4.05703
2.21046E7	-0.11659	4.21629
2.21165E7	-0.13779	4.11615
2.21285E7	-0.13204	4.21592
2.21404E7	-0.13176	4.32221
2.21523E7	-0.10511	4.16676
2.21643E7	-0.11575	4.23952
2.21762E7	-0.16912	3.99295
2.21881E7	-0.14732	4.11631
2.22001E7	-0.11357	4.43138
2.2212E7	-0.11416	4.45626
2.22239E7	-0.10399	4.37138
2.22359E7	-0.12797	4.2689
2.22478E7	-0.13644	4.23611
2.22597E7	-0.14115	4.12584
2.22716E7	-0.14187	4.33665
2.22836E7	-0.13664	4.38268
2.22955E7	-0.13706	4.48116
2.23074E7	-0.10975	4.39804
2.23194E7	-0.10806	4.35641
2.23313E7	-0.16035	4.3736
2.23432E7	-0.13869	4.40165
2.23552E7	-0.11857	4.42697
2.23671E7	-0.12649	4.51
2.2379E7	-0.11485	4.48632
2.23909E7	-0.12173	4.507
2.24029E7	-0.10193	4.52321
2.24148E7	-0.12118	4.62636
2.24267E7	-0.1336	4.47193
2.24387E7	-0.12145	4.56743
2.24506E7	-0.15577	4.48372
2.24625E7	-0.10117	4.49404
2.24745E7	-0.09135	4.57891
2.24864E7	-0.16375	4.63319
2.24983E7	-0.11974	4.57103
2.25102E7	-0.11748	4.48749
2.25222E7	-0.14139	4.75183
2.25341E7	-0.12565	4.36884
2.2546E7	-0.11016	4.78164
2.2558E7	-0.11231	4.75517
2.25699E7	-0.15215	4.56008
2.25818E7	-0.09349	4.86344
2.25938E7	-0.15123	4.50604
2.26057E7	-0.12495	4.62212
2.26176E7	-0.10111	4.75081
2.26296E7	-0.10049	4.75294
2.26415E7	-0.11915	4.73208
2.26534E7	-0.14092	4.59863
2.26653E7	-0.11531	4.70987
2.26773E7	-0.1466	4.6843
2.26892E7	-0.12652	4.57303
2.27011E7	-0.1378	4.83407
2.27131E7	-0.15074	4.63366
2.2725E7	-0.12541	4.88747
2.27369E7	-0.14183	4.67089
2.27489E7	-0.14459	4.82322
2.27608E7	-0.1216	4.75694
2.27727E7	-0.11421	4.7373
2.27846E7	-0.11981	4.68323
2.27966E7	-0.11445	4.80002
2.28085E7	-0.12327	4.88676
2.28204E7	-0.1096	4.78591
2.28324E7	-0.14335	4.85787
2.28443E7	-0.11698	4.78258
2.28562E7	-0.11013	5.0029
2.28682E7	-0.13247	4.86749
2.28801E7	-0.10755	4.88103
2.2892E7	-0.13596	4.90415
2.29039E7	-0.1227	4.80829
2.29159E7	-0.11344	4.81766
2.29278E7	-0.13166	4.84708
2.29397E7	-0.11014	5.01524
2.29517E7	-0.12046	4.824
2.29636E7	-0.14674	4.91196
2.29755E7	-0.14493	4.9197
2.29875E7	-0.12884	4.84676
2.29994E7	-0.13163	4.88552
2.30113E7	-0.12791	4.98331
2.30232E7	-0.11305	5.03413
2.30352E7	-0.12334	4.92822
2.30471E7	-0.10751	4.93797
2.3059E7	-0.14936	5.10623
2.3071E7	-0.1158	5.02589
2.30829E7	-0.14703	4.98026
2.30948E7	-0.12403	5.25342
2.31068E7	-0.11748	5.16143
2.31187E7	-0.11561	5.10914
2.31306E7	-0.11983	5.03924
2.31426E7	-0.11906	5.15052
2.31545E7	-0.09969	5.14498
2.31664E7	-0.15721	5.24443
2.31783E7	-0.15419	4.95427
2.31903E7	-0.11276	5.32622
2.32022E7	-0.10415	5.38542
2.32141E7	-0.1462	5.11928
2.32261E7	-0.12569	5.13136
2.3238E7	-0.09179	5.17798
2.32499E7	-0.1414	5.08781
2.32619E7	-0.10475	5.22607
2.32738E7	-0.11879	5.14551
2.32857E7	-0.12322	5.23076
2.32976E7	-0.13849	5.30155
2.33096E7	-0.12546	5.19238
2.33215E7	-0.11047	5.50527
2.33334E7	-0.08066	5.21985
2.33454E7	-0.1486	5.12569
2.33573E7	-0.10692	5.26908
2.33692E7	-0.11419	5.2892
2.33812E7	-0.13176	5.3104
2.33931E7	-0.14108	5.50105
2.3405E7	-0.10246	5.33588
2.34169E7	-0.12938	5.26758
2.34289E7	-0.11917	5.37585
2.34408E7	-0.12812	5.2988
2.34527E7	-0.11189	5.36644
2.34647E7	-0.10815	5.34926
2.34766E7	-0.11488	5.47635
2.34885E7	-0.12361	5.19875
2.35005E7	-0.12749	5.20161
2.35124E7	-0.09741	5.31346
2.35243E7	-0.08997	5.41646
2.35362E7	-0.12821	5.34268
2.35482E7	-0.12644	5.49518
2.35601E7	-0.12329	5.39493
2.3572E7	-0.11456	5.43543
2.3584E7	-0.10509	5.42788
2.35959E7	-0.10132	5.50873
2.36078E7	-0.11876	5.43693
2.36198E7	-0.13778	5.50412
2.36317E7	-0.09966	5.58191
2.36436E7	-0.1123	5.43503
2.36556E7	-0.12871	5.48517
2.36675E7	-0.13472	5.54676
2.36794E7	-0.13864	5.2653
2.36913E7	-0.13329	5.46455
2.37033E7	-0.12809	5.48643
2.37152E7	-0.11092	5.67057
2.37271E7	-0.10105	5.59791
2.37391E7	-0.1236	5.6514
2.3751E7	-0.10026	5.6017
2.37629E7	-0.1157	5.58199
2.37749E7	-0.10928	5.7301
2.37868E7	-0.061	5.73229
2.37987E7	-0.11776	5.7014
2.38106E7	-0.12204	5.52157
2.38226E7	-0.15953	5.65258
2.38345E7	-0.12554	5.70754
2.38464E7	-0.08934	5.65088
2.38584E7	-0.10944	5.63333
2.38703E7	-0.12747	5.76203
2.38822E7	-0.12008	5.63325
2.38942E7	-0.11559	5.73243
2.39061E7	-0.09364	5.84615
2.3918E7	-0.1116	5.74533
2.39299E7	-0.08934	5.61822
2.39419E7	-0.10455	5.77818
2.39538E7	-0.08626	5.68949
2.39657E7	-0.12825	5.59439
2.39777E7	-0.09714	5.6708
2.39896E7	-0.09702	5.90308
2.40015E7	-0.15227	5.78789
2.40135E7	-0.12315	5.82953
2.40254E7	-0.1139	5.75404
2.40373E7	-0.10428	5.82795
2.40493E7	-0.1533	5.76855
2.40612E7	-0.13881	5.81944
2.40731E7	-0.11644	5.78568
2.4085E7	-0.0969	5.96714
2.4097E7	-0.16318	5.78701
2.41089E7	-0.1154	5.86688
2.41208E7	-0.12287	5.7675
2.41328E7	-0.10477	5.80432
2.41447E7	-0.13883	5.76959
2.41566E7	-0.12076	6.09355
2.41686E7	-0.11395	5.86796
2.41805E7	-0.10243	5.97868
2.41924E7	-0.12551	5.75988
2.42043E7	-0.10348	5.90091
2.42163E7	-0.08213	5.93511
2.42282E7	-0.13806	5.68789
2.42401E7	-0.1228	6.00963
2.42521E7	-0.08571	6.01482
2.4264E7	-0.0997	5.96291
2.42759E7	-0.10625	5.93401
2.42879E7	-0.09488	6.05548
2.42998E7	-0.11539	5.88139
2.43117E7	-0.10943	5.9002
2.43236E7	-0.115	5.98248
2.43356E7	-0.11903	5.84013
2.43475E7	-0.15042	5.865
2.43594E7	-0.08833	6.13069
2.43714E7	-0.11861	5.92373
2.43833E7	-0.14055	6.02026
2.43952E7	-0.10088	6.03562
2.44072E7	-0.10312	6.0686
2.44191E7	-0.11609	6.24839
2.4431E7	-0.12103	6.01726
2.44429E7	-0.08043	6.07177
2.44549E7	-0.12485	6.2463
2.44668E7	-0.11738	6.01867
2.44787E7	-0.10714	6.16177
2.44907E7	-0.11085	6.01493
2.45026E7	-0.10953	6.02224
2.45145E7	-0.08759	6.18105
2.45265E7	-0.12168	6.12822
2.45384E7	-0.09594	6.06832
2.45503E7	-0.06291	6.26866
2.45623E7	-0.08303	6.03655
2.45742E7	-0.10065	6.19436
2.45861E7	-0.13201	6.1081
2.4598E7	-0.10237	6.32367
2.461E7	-0.09339	6.16239
2.46219E7	-0.10397	6.19506
2.46338E7	-0.1027	6.30745
2.46458E7	-0.08138	6.3333
2.46577E7	-0.07113	6.21159
2.46696E7	-0.10682	6.16434
2.46816E7	-0.10074	6.1908
2.46935E7	-0.10733	6.16617
2.47054E7	-0.08933	6.03109
2.47173E7	-0.07256	6.29093
2.47293E7	-0.11121	6.19341
2.47412E7	-0.0775	6.5436
2.47531E7	-0.06981	6.29736
2.47651E7	-0.10247	6.25517
2.4777E7	-0.11047	6.28414
2.47889E7	-0.0919	6.26952
2.48009E7	-0.11576	6.31079
2.48128E7	-0.11434	6.48628
2.48247E7	-0.14567	6.30894
2.48366E7	-0.08893	6.52594
2.48486E7	-0.14298	6.40763
2.48605E7	-0.11512	6.34757
2.48724E7	-0.12832	6.40318
2.48844E7	-0.10859	6.15534
2.48963E7	-0.12373	6.46244
2.49082E7	-0.07507	6.40801
2.49202E7	-0.10616	6.6047
2.49321E7	-0.09658	6.36453
2.4944E7	-0.08585	6.46148
2.49559E7	-0.0804	6.41696
2.49679E7	-0.10991	6.52981
2.49798E7	-0.08767	6.42731
2.49917E7	-0.09459	6.67341
2.50037E7	-0.10811	6.53122
2.50156E7	-0.07974	6.4965
2.50275E7	-0.08449	6.41277
2.50395E7	-0.11037	6.67477
2.50514E7	-0.08675	6.44317
2.50633E7	-0.09851	6.62086
2.50753E7	-0.12054	6.35655
2.50872E7	-0.10141	6.5392
2.50991E7	-0.08407	6.54771
2.5111E7	-0.13552	6.4983
2.5123E7	-0.0913	6.53621
2.51349E7	-0.13069	6.4325
2.51468E7	-0.05974	6.60831
2.51588E7	-0.09682	6.51851
2.51707E7	-0.08905	6.5673
2.51826E7	-0.08514	6.51889
2.51946E7	-0.0868	6.48631
2.52065E7	-0.0972	6.64399
2.52184E7	-0.08228	6.79531
2.52303E7	-0.03657	6.55999
2.52423E7	-0.08375	6.59399
2.52542E7	-0.09749	6.61939
2.52661E7	-0.08618	6.60559
2.52781E7	-0.0853	6.8425
2.529E7	-0.11696	6.60858
2.53019E7	-0.0959	6.69304
2.53139E7	-0.09224	6.65271
2.53258E7	-0.10338	6.70873
2.53377E7	-0.10651	6.71617
2.53496E7	-0.11314	6.86148
2.53616E7	-0.05928	6.50641
2.53735E7	-0.07112	6.78209
2.53854E7	-0.12123	6.70746
2.53974E7	-0.09637	6.76408
2.54093E7	-0.10253	6.75183
2.54212E7	-0.10472	6.8888
2.54332E7	-0.07911	6.63491
2.54451E7	-0.10785	6.72687
2.5457E7	-0.0618	6.74495
2.5469E7	-0.08773	6.67477
2.54809E7	-0.12704	6.84958
2.54928E7	-0.10774	7.00276
2.55047E7	-0.12713	6.73738
2.55167E7	-0.09578	6.97523
2.55286E7	-0.05652	6.73811
2.55405E7	-0.08304	6.74436
2.55525E7	-0.0883	6.93333
2.55644E7	-0.07208	6.83979
2.55763E7	-0.09289	6.90403
2.55883E7	-0.14323	6.81455
2.56002E7	-0.06883	6.79418
2.56121E7	-0.09501	6.77201
2.5624E7	-0.09965	6.70393
2.5636E7	-0.07636	6.91467
2.56479E7	-0.10614	6.85739
2.56598E7	-0.12118	6.73775
2.56718E7	-0.11627	6.81977
2.56837E7	-0.07467	7.00213
2.56956E7	-0.08706	7.03228
2.57076E7	-0.10783	6.86445
2.57195E7	-0.1071	6.90596
2.57314E7	-0.13716	7.04411
2.57433E7	-0.03695	7.06688
2.57553E7	-0.099	6.8597
2.57672E7	-0.07296	6.82146
2.57791E7	-0.09592	7.12472
2.57911E7	-0.05488	6.73516
2.5803E7	-0.11684	7.05429
2.58149E7	-0.10904	7.02478
2.58269E7	-0.06319	7.0075
2.58388E7	-0.08649	7.14451
2.58507E7	-0.10188	6.92007
2.58626E7	-0.14905	6.98202
2.58746E7	-0.08801	7.0969
2.58865E7	-0.07113	7.01302
2.58984E7	-0.09167	6.97774
2.59104E7	-0.08736	7.14013
2.59223E7	-0.08023	7.07041
2.59342E7	-0.12095	7.05924
2.59462E7	-0.09392	6.99485
2.59581E7	-0.06781	7.11703
2.597E7	-0.11014	7.18132
2.5982E7	-0.05915	7.09006
2.59939E7	-0.10205	7.13846
2.60058E7	-0.09428	7.11597
2.60177E7	-0.06153	6.81921
2.60297E7	-0.04142	6.9938
2.60416E7	-0.09394	7.20387
2.60535E7	-0.02758	7.026
2.60655E7	-0.09332	7.11748
2.60774E7	-0.11136	7.13357
2.60893E7	-0.06213	7.15842
2.61013E7	-0.08584	7.50664
2.61132E7	-0.06815	7.08514
2.61251E7	-0.0862	7.41089
2.6137E7	-0.05344	7.28676
2.6149E7	-0.12583	7.27771
2.61609E7	-0.09067	7.18659
2.61728E7	-0.09649	7.19445
2.61848E7	-0.05523	7.23022
2.61967E7	-0.05865	7.28004
2.62086E7	-0.09978	7.28644
2.62206E7	-0.04074	7.25889
2.62325E7	-0.10543	7.3401
2.62444E7	-0.04499	7.26365
2.62563E7	-0.09928	7.43356
2.62683E7	-0.07713	7.17415
2.62802E7	-0.08217	7.25548
2.62921E7	-0.04555	7.24427
2.63041E7	-0.0389	7.41256
2.6316E7	-0.08108	7.29669
2.63279E7	-0.05519	7.30956
2.63399E7	-0.09681	7.4059
2.63518E7	-0.09657	7.20194
2.63637E7	-0.08607	7.2354
2.63757E7	-0.11385	7.39458
2.63876E7	-0.09968	7.26648
2.63995E7	-0.11658	7.21533
2.64114E7	-0.09901	7.47588
2.64234E7	-0.1049	7.45308
2.64353E7	-0.05058	7.35298
2.64472E7	-0.0613	7.22467
2.64592E7	-0.06872	7.31469
2.64711E7	-0.075	7.31906
2.6483E7	-0.10018	7.44673
2.6495E7	-0.08686	7.49958
2.65069E7	-0.09418	7.49166
2.65188E7	-0.0359	7.62698
2.65307E7	-0.07748	7.56897
2.65427E7	-0.10241	7.43222
2.65546E7	-0.07352	7.35651
2.65665E7	-0.08941	7.21583
2.65785E7	-0.10923	7.43735
2.65904E7	-0.08561	7.46128
2.66023E7	-0.07354	7.48874
2.66143E7	-0.08919	7.47373
2.66262E7	-0.11978	7.63318
2.66381E7	-0.06358	7.59084
2.665E7	-0.1233	7.68583
2.6662E7	-0.10952	7.60094
2.66739E7	-0.06519	7.63258
2.66858E7	-0.11595	7.66193
2.66978E7	-0.06144	7.68226
2.67097E7	-0.07315	7.80336
2.67216E7	-0.04505	7.40823
2.67336E7	-0.06194	7.6088
2.67455E7	-0.06006	7.62266
2.67574E7	-0.06934	7.6207
2.67693E7	-0.03935	7.73025
2.67813E7	-0.1156	7.85602
2.67932E7	-0.11608	7.66316
2.68051E7	-0.06747	7.61933
2.68171E7	-0.14071	7.70483
2.6829E7	-0.06166	7.67071
2.68409E7	-0.08427	7.77598
2.68529E7	-0.08578	7.64705
2.68648E7	-0.06216	7.56695
2.68767E7	-0.11443	7.684
2.68887E7	-0.08153	7.62141
2.69006E7	-0.0884	7.73102
2.69125E7	-0.07112	7.8007
2.69244E7	-0.08053	7.82272
2.69364E7	-0.05972	8.0428
2.69483E7	-0.09017	7.6823
2.69602E7	-0.11318	7.81102
2.69722E7	-0.09386	7.66689
2.69841E7	-0.06257	7.70103
2.6996E7	-0.08819	7.73135
2.7008E7	-0.11923	7.86856
2.70199E7	-0.08179	7.86777
2.70318E7	-0.05456	7.76765
2.70437E7	-0.04421	7.85348
2.70557E7	-0.07115	7.85082
2.70676E7	-0.1017	7.81081
2.70795E7	-0.07826	7.85908
2.70915E7	-0.07916	7.91188
2.71034E7	-0.06329	7.93609
2.71153E7	-0.10916	7.60504
2.71273E7	-0.10615	7.80601
2.71392E7	-0.06926	7.81328
2.71511E7	-0.06358	7.65486
2.7163E7	-0.05686	7.80262
2.7175E7	-0.10404	7.9097
2.71869E7	-0.07582	7.69477
2.71988E7	-0.05856	7.96698
2.72108E7	-0.08542	7.97832
2.72227E7	-0.04648	7.76248
2.72346E7	-0.04577	7.83106
2.72466E7	-0.09542	7.93348
2.72585E7	-0.06225	7.88891
2.72704E7	-0.06057	7.98719
2.72823E7	-0.07263	7.91277
2.72943E7	-0.04424	8.01217
2.73062E7	-0.05287	7.95873
2.73181E7	-0.07761	7.88486
2.73301E7	-0.10401	7.9047
2.7342E7	-0.09586	8.04523
2.73539E7	-0.09006	8.01554
2.73659E7	-0.09206	7.75873
2.73778E7	-0.0575	7.96113
2.73897E7	-0.04902	8.02671
2.74017E7	-0.08483	7.92223
2.74136E7	-0.10096	8.18173
2.74255E7	-0.08152	8.08518
2.74374E7	-0.1067	8.0966
2.74494E7	-0.04432	8.09183
2.74613E7	-0.08485	7.89291
2.74732E7	-0.04029	8.04736
2.74852E7	-0.06627	8.09674
2.74971E7	-0.10192	8.21832
2.7509E7	-0.08364	8.02888
2.7521E7	-0.04114	8.23743
2.75329E7	-0.06295	8.04068
2.75448E7	0.00478	8.39937
2.75567E7	-0.0335	7.9938
2.75687E7	-0.07768	8.27023
2.75806E7	-0.05518	8.09913
2.75925E7	-0.10644	7.98431
2.76045E7	-0.13185	8.16512
2.76164E7	-0.06016	8.13228
2.76283E7	-0.04979	8.29479
2.76403E7	-0.0631	8.15109
2.76522E7	-0.0338	8.19565
2.76641E7	-0.06216	8.10795
2.7676E7	-0.02059	8.13816
2.7688E7	-0.06596	8.21107
2.76999E7	-0.06095	8.12717
2.77118E7	-0.08502	8.29991
2.77238E7	-0.01746	8.09413
2.77357E7	-0.05024	8.1286
2.77476E7	-0.05655	8.19583
2.77596E7	-0.0334	8.1683
2.77715E7	-0.07765	8.16601
2.77834E7	-0.11134	8.02821
2.77954E7	-0.08549	8.2376
2.78073E7	-0.05265	8.17472
2.78192E7	-0.07715	8.28943
2.78311E7	-0.0897	8.35483
2.78431E7	-0.00343	8.40281
2.7855E7	-0.04247	8.22691
2.78669E7	-0.08377	8.19734
2.78789E7	-0.03875	8.51977
2.78908E7	-0.07558	8.35062
2.79027E7	-0.05332	8.39083
2.79147E7	-0.06459	8.31013
2.79266E7	-0.07439	8.34791
2.79385E7	-0.03184	8.40678
2.79504E7	-0.0452	8.20005
2.79624E7	-0.05627	8.31622
2.79743E7	-0.10807	8.54276
2.79862E7	-0.04044	8.26061
2.79982E7	-0.02425	8.29306
2.80101E7	-0.08653	8.46596
2.8022E7	-0.05808	8.30835
2.8034E7	-0.04295	8.25292
2.80459E7	-0.04729	8.47002
2.80578E7	-0.04056	8.36776
2.80697E7	-0.05243	8.42739
2.80817E7	-0.07044	8.55866
2.80936E7	-0.05691	8.36664
2.81055E7	-0.08058	8.51922
2.81175E7	-0.07535	8.42082
2.81294E7	-0.06065	8.38954
2.81413E7	-0.10211	8.47904
2.81533E7	-0.08044	8.70003
2.81652E7	-0.07314	8.46613
2.81771E7	-0.06289	8.37813
2.8189E7	-0.08917	8.61717
2.8201E7	-0.03387	8.6205
2.82129E7	-0.04656	8.31703
2.82248E7	-0.03355	8.35376
2.82368E7	-0.02713	8.38599
2.82487E7	-0.11504	8.49785
2.82606E7	-0.01109	8.58451
2.82726E7	-0.03572	8.44002
2.82845E7	-0.08823	8.64204
2.82964E7	-0.08228	8.65441
2.83084E7	-0.03529	8.52881
2.83203E7	-0.037	8.52607
2.83322E7	-0.05812	8.64617
2.83441E7	-0.0537	8.57251
2.83561E7	-0.04627	8.70709
2.8368E7	-0.05475	8.69443
2.83799E7	-0.04444	8.33044
2.83919E7	-0.03661	8.66704
2.84038E7	-0.06113	8.76436
2.84157E7	-0.08995	8.74309
2.84277E7	-0.04587	8.74679
2.84396E7	-0.07001	8.58368
2.84515E7	-0.05176	8.60821
2.84634E7	-0.07511	8.79171
2.84754E7	-0.10642	8.75294
2.84873E7	-0.07755	8.49971
2.84992E7	-0.08254	8.64925
2.85112E7	-0.07088	8.7376
2.85231E7	-0.03301	8.58573
2.8535E7	-0.01919	8.73935
2.8547E7	-0.00578	8.60265
2.85589E7	-0.01417	8.69784
2.85708E7	-0.08276	8.79279
2.85827E7	-0.06202	8.73428
2.85947E7	-0.04323	8.50944
2.86066E7	-0.04363	8.9004
2.86185E7	-0.03037	8.77339
2.86305E7	-0.11617	8.93626
2.86424E7	-0.07443	8.72889
2.86543E7	-0.03519	8.78556
2.86663E7	-0.07549	8.68291
2.86782E7	-0.09028	8.82204
2.86901E7	-0.01277	8.72822
2.8702E7	-0.06667	8.75051
2.8714E7	-0.04448	8.82257
2.87259E7	-0.08463	8.80268
2.87378E7	-0.07055	8.88907
2.87498E7	-0.08417	9.05213
2.87617E7	-0.10282	8.73852
2.87736E7	-0.0801	8.95484
2.87856E7	-0.03764	8.96476
2.87975E7	-0.0846	8.93818
2.88094E7	-0.07312	8.94014
2.88214E7	-0.06222	8.9662
2.88333E7	-0.08643	8.81114
2.88452E7	-0.08781	8.85124
2.88571E7	-0.0238	8.83375
2.88691E7	-0.01068	8.6906
2.8881E7	-0.07238	8.9679
2.88929E7	-0.07118	9.01111
2.89049E7	-0.02746	8.78098
2.89168E7	-0.05699	9.04724
2.89287E7	-0.08323	9.16716
2.89407E7	-0.04273	8.78266
2.89526E7	-0.03326	8.87492
2.89645E7	-0.01743	9.01411
2.89764E7	-0.08992	8.90241
2.89884E7	-0.02564	9.05005
2.90003E7	-0.15977	8.93652
2.90122E7	-0.0498	8.97892
2.90242E7	-0.05209	8.99571
2.90361E7	-0.07152	9.04525
2.9048E7	-0.03587	9.17508
2.906E7	-0.06156	8.97123
2.90719E7	-0.08861	8.81178
2.90838E7	-0.04298	9.10287
2.90957E7	-0.08557	9.05371
2.91077E7	-0.03738	9.1709
2.91196E7	-0.06022	8.98934
2.91315E7	-0.00104	9.15636
2.91435E7	-0.04246	9.06903
2.91554E7	-0.0849	9.26224
2.91673E7	-0.05695	9.01324
2.91793E7	-0.06361	9.07573
2.91912E7	-0.07394	9.18391
2.92031E7	-0.06427	9.12352
2.92151E7	-0.06482	9.10498
2.9227E7	-0.06341	9.20162
2.92389E7	-0.02465	9.31039
2.92508E7	-0.02537	8.94089
2.92628E7	-0.05555	9.19432
2.92747E7	-0.08062	9.15189
2.92866E7	-0.03171	9.19628
2.92986E7	-0.05566	9.1021
2.93105E7	0.00516	9.29564
2.93224E7	-0.06041	9.17595
2.93344E7	-0.01589	8.99111
2.93463E7	-0.04802	9.27821
2.93582E7	-0.03048	9.15946
2.93701E7	-0.05532	9.1543
2.93821E7	-0.07286	9.10465
2.9394E7	-0.02802	9.28296
2.94059E7	-0.06749	9.43846
2.94179E7	-0.0877	9.26647
2.94298E7	-0.01154	9.23458
2.94417E7	-0.09031	9.23536
2.94537E7	-0.06252	9.28903
2.94656E7	-0.07254	9.44599
2.94775E7	-0.08128	9.217
2.94894E7	-0.07052	9.10941
2.95014E7	-0.0244	9.37663
2.95133E7	-0.05415	9.36938
2.95252E7	-0.02896	9.24262
2.95372E7	-0.07133	9.36732
2.95491E7	-0.0167	9.19413
2.9561E7	-0.00788	9.25789
2.9573E7	-0.00932	9.24284
2.95849E7	-0.05456	9.52832
2.95968E7	-0.0866	9.31825
2.96087E7	-0.03048	9.46871
2.96207E7	-0.05856	9.29763
2.96326E7	-0.03279	9.40508
2.96445E7	-0.04113	9.28259
2.96565E7	-0.03136	9.54197
2.96684E7	-0.02865	9.25566
2.96803E7	-0.07079	9.34471
2.96923E7	-0.05031	9.37068
2.97042E7	-0.05243	9.26563
2.97161E7	-0.01251	9.48435
2.97281E7	-0.07983	9.48676
2.974E7	-0.03648	9.38947
2.97519E7	-0.04653	9.42608
2.97638E7	-0.04321	9.40872
2.97758E7	0.00782	9.50023
2.97877E7	-0.02415	9.37086
2.97996E7	-0.06821	9.65569
2.98116E7	-0.02616	9.34554
2.98235E7	-0.00427	9.57389
2.98354E7	-0.04824	9.55268
2.98474E7	-0.03719	9.56972
2.98593E7	-0.03674	9.51357
2.98712E7	-0.0634	9.5575
2.98831E7	-0.02539	9.48136
2.98951E7	-0.05435	9.52168
2.9907E7	-0.10205	9.5236
2.99189E7	-0.05902	9.5779
2.99309E7	-0.03557	9.58029
2.99428E7	-0.03925	9.3097
2.99547E7	-0.0119	9.68087
2.99667E7	-0.07658	9.59057
2.99786E7	-0.067	9.57188
2.99905E7	-0.02676	9.45681
3.00024E7	-0.05257	9.56862
3.00144E7	-0.03356	9.62671
3.00263E7	-0.06889	9.69918
3.00382E7	-0.03263	9.51004
3.00502E7	-0.02983	9.74822
3.00621E7	-0.02282	9.41603
3.0074E7	-0.00785	9.61372
3.0086E7	-0.06822	9.4828
3.00979E7	-0.02952	9.75583
3.01098E7	-0.04619	9.63069
3.01217E7	-0.0498	9.59892
3.01337E7	-0.02421	9.60804
3.01456E7	-0.02865	9.76818
3.01575E7	-0.06962	9.47254
3.01695E7	-0.05225	9.62665
3.01814E7	-0.02188	9.79532
3.01933E7	-0.02825	9.64966
3.02053E7	-0.11029	9.76682
3.02172E7	-0.10739	9.8513
3.02291E7	-0.06083	9.69023
3.02411E7	-0.07603	9.82479
3.0253E7	-0.04231	9.74729
3.02649E7	0.03374	9.58771
3.02768E7	-0.04926	9.83752
3.02888E7	-0.08474	9.78264
3.03007E7	-0.04286	9.81463
3.03126E7	-0.04734	9.73854
3.03246E7	-0.09066	9.73641
3.03365E7	-0.02976	9.78383
3.03484E7	-0.03965	9.80486
3.03604E7	-0.00172	9.84802
3.03723E7	-0.03655	9.69407
3.03842E7	-0.04161	9.73817
3.03961E7	-0.10131	9.81675
3.04081E7	-0.07225	9.85379
3.042E7	0.03175	9.76008
3.04319E7	-0.07501	9.73794
3.04439E7	-0.01604	9.72197
3.04558E7	-0.03099	9.66928
3.04677E7	-0.08322	9.6839
3.04797E7	-0.07744	9.88476
3.04916E7	0.00962	9.88297
3.05035E7	-0.03671	9.93665
3.05154E7	-0.01972	9.90179
3.05274E7	-0.0197	9.92996
3.05393E7	-0.04205	9.99127
3.05512E7	-0.03855	9.84503
3.05632E7	-0.03848	9.78787
3.05751E7	-0.02549	9.7895
3.0587E7	-0.04312	10.08461
3.0599E7	-0.01257	9.9927
3.06109E7	-0.05447	9.96783
3.06228E7	-0.02936	9.90756
3.06348E7	-0.0107	10.00601
3.06467E7	-0.06769	9.84433
3.06586E7	-0.01718	10.14195
3.06705E7	-0.06512	9.79315
3.06825E7	-0.07094	9.92826
3.06944E7	-0.04776	9.98198
3.07063E7	-0.05232	10.06596
3.07183E7	-0.04911	9.7999
3.07302E7	-0.08986	9.86315
3.07421E7	0.00165	10.02882
3.07541E7	-0.00671	9.90569
3.0766E7	-0.01054	9.91982
3.07779E7	-0.09459	10.28627
3.07898E7	-0.05299	10.09563
3.08018E7	-0.06699	10.25523
3.08137E7	-0.02431	9.95412
3.08256E7	-0.0252	9.82454
3.08376E7	-0.03573	10.02454
3.08495E7	-0.08477	9.97051
3.08614E7	-0.00685	9.92212
3.08734E7	-0.01957	10.24892
3.08853E7	-0.02987	10.09133
3.08972E7	-0.04875	10.0757
3.09091E7	-0.07847	10.09472
3.09211E7	-0.0501	10.10102
3.0933E7	0.0039	10.12367
3.09449E7	-0.04273	10.14747
3.09569E7	-0.0292	10.22063
3.09688E7	-0.00838	9.99103
3.09807E7	-0.01897	10.06165
3.09927E7	-0.04113	10.19599
3.10046E7	-0.0281	10.08105
3.10165E7	-0.08775	10.24837
3.10284E7	-0.05574	10.21557
3.10404E7	0.0055	10.22308
3.10523E7	-0.03944	10.06066
3.10642E7	-0.02593	10.10135
3.10762E7	-0.04976	10.24628
3.10881E7	0.00207	10.09313
3.11E7	-0.0669	10.32534
3.1112E7	-0.0523	10.36559
3.11239E7	-0.0191	10.49332
3.11358E7	-0.05961	10.14685
3.11478E7	-0.02782	10.24114
3.11597E7	-0.00925	10.16185
3.11716E7	-0.05921	10.16672
3.11835E7	-0.05502	10.3994
3.11955E7	-0.02287	10.17933
3.12074E7	-0.03174	10.16424
3.12193E7	-0.03897	10.15907
3.12313E7	-0.03354	10.38074
3.12432E7	-0.01199	10.2835
3.12551E7	-0.00433	10.40041
3.12671E7	0.03764	10.25968
3.1279E7	-0.01208	10.42022
3.12909E7	-0.03769	10.15079
3.13028E7	-0.00859	10.23696
3.13148E7	-0.09905	10.31803
3.13267E7	-0.04261	10.2688
3.13386E7	-0.03547	10.37767
3.13506E7	-0.03599	10.33164
3.13625E7	-0.07132	10.37031
3.13744E7	-0.06492	10.41275
3.13864E7	0.04733	10.32741
3.13983E7	-0.04074	10.29591
3.14102E7	-0.03584	10.3138
3.14221E7	-0.03548	10.27045
3.14341E7	-0.04446	10.27204
3.1446E7	-0.05732	10.57452
3.14579E7	0.00697	10.35257
3.14699E7	-0.04455	10.52101
3.14818E7	-0.09202	10.23987
3.14937E7	-0.06103	10.35486
3.15057E7	-0.01714	10.55687
3.15176E7	-0.00998	10.58512
3.15295E7	-0.04397	10.29644
3.15414E7	-0.05409	10.39864
3.15534E7	0.00761	10.41325
3.15653E7	-0.04248	10.28047
3.15772E7	-0.02669	10.53083
3.15892E7	-0.08328	10.51273
3.16011E7	-0.03274	10.18358
3.1613E7	-0.05372	10.48665
3.1625E7	-0.05986	10.59172
3.16369E7	-0.08663	10.41362
3.16488E7	-0.01934	10.719
3.16608E7	-0.00657	10.56433
3.16727E7	-0.03377	10.73089
3.16846E7	0.00906	10.61265
3.16965E7	-0.0214	10.48826
3.17085E7	0.00586	10.41482
3.17204E7	-0.08922	10.76117
3.17323E7	-0.04086	10.7626
3.17443E7	-0.04083	10.52434
3.17562E7	-0.03508	10.47817
3.17681E7	-0.01702	10.59191
3.17801E7	-0.01113	10.7582
3.1792E7	0.02945	10.53662
3.18039E7	-0.04486	10.57401
3.18158E7	-0.03418	10.52304
3.18278E7	-0.04913	10.64335
3.18397E7	0.02723	10.54469
3.18516E7	-0.08365	10.67159
3.18636E7	-0.07183	10.59401
3.18755E7	-0.02013	10.72483
3.18874E7	-0.06357	10.61684
3.18994E7	-0.06561	10.50476
3.19113E7	-0.04033	10.4831
3.19232E7	0.01201	10.59993
3.19351E7	-0.07156	10.59937
3.19471E7	0.0261	10.59085
3.1959E7	-0.0466	10.73241
3.19709E7	0.00985	10.56198
3.19829E7	-0.08892	10.95325
3.19948E7	-0.00155	10.70926
3.20067E7	-0.10995	10.82305
3.20187E7	-0.06165	10.82832
3.20306E7	-0.07306	10.66369
3.20425E7	-0.0149	10.63865
3.20545E7	-0.03232	10.65705
3.20664E7	0.00672	10.65915
3.20783E7	0.03254	10.85518
3.20902E7	-0.04823	10.7008
3.21022E7	0.02002	10.73299
3.21141E7	-0.01791	10.71371
3.2126E7	-0.04023	10.78753
3.2138E7	-0.05764	10.66937
3.21499E7	-0.01808	10.802
3.21618E7	-0.08923	10.89255
3.21738E7	-0.0113	10.82565
3.21857E7	-0.03605	10.82294
3.21976E7	-0.03651	10.7817
3.22095E7	0.01691	10.83455
3.22215E7	-0.01554	10.89449
3.22334E7	-0.00717	10.70037
3.22453E7	-0.04245	10.97114
3.22573E7	0.02484	10.90656
3.22692E7	-0.01708	10.90477
3.22811E7	0.00791	10.9213
3.22931E7	-0.06622	10.84821
3.2305E7	-0.09447	11.11049
3.23169E7	-0.03127	10.92454
3.23288E7	-0.0019	10.80727
3.23408E7	-0.01326	10.91115
3.23527E7	-0.04277	10.92805
3.23646E7	-0.05255	10.81168
3.23766E7	-0.05408	10.81897
3.23885E7	-0.04783	10.93097
3.24004E7	-0.00543	10.77604
3.24124E7	0.03348	10.88162
3.24243E7	-0.0273	10.85191
3.24362E7	-0.01554	10.78342
3.24481E7	-0.01495	10.97696
3.24601E7	-0.02911	10.98757
3.2472E7	-0.07525	10.86814
3.24839E7	-0.00918	11.04001
3.24959E7	-0.05069	10.95565
3.25078E7	-0.01109	11.03392
3.25197E7	-0.02978	11.22356
3.25317E7	-0.04548	10.99467
3.25436E7	-0.0311	10.85237
3.25555E7	-0.031	10.78552
3.25675E7	0.01682	11.16388
3.25794E7	-0.03628	11.12235
3.25913E7	-0.0466	11.18046
3.26032E7	-0.02996	11.04042
3.26152E7	0.00764	11.10011
3.26271E7	-0.07273	11.11891
3.2639E7	0.01306	11.35027
3.2651E7	-0.00991	10.94504
3.26629E7	-0.04925	11.02365
3.26748E7	-0.01746	10.98405
3.26868E7	-0.05172	11.17049
3.26987E7	-0.03533	11.18726
3.27106E7	-0.09157	11.20123
3.27225E7	-0.02968	11.00416
3.27345E7	-0.08164	11.03502
3.27464E7	-0.07284	11.238
3.27583E7	0.00322	11.09843
3.27703E7	0.01732	11.20657
3.27822E7	-0.08561	11.15182
3.27941E7	-0.00781	11.15025
3.28061E7	-0.05137	11.03528
3.2818E7	-0.09571	10.94694
3.28299E7	-0.0051	10.97899
3.28418E7	-0.07202	11.01398
3.28538E7	-0.03675	11.36272
3.28657E7	-0.04636	11.07487
3.28776E7	0.01526	11.30592
3.28896E7	-0.12635	11.03281
3.29015E7	-0.03933	11.15555
3.29134E7	-0.08169	11.34048
3.29254E7	-0.04443	11.31995
3.29373E7	-0.06897	11.11944
3.29492E7	-0.04289	10.9119
3.29612E7	-0.10885	11.15839
3.29731E7	-0.07281	11.20715
3.2985E7	-0.03484	11.36155
3.29969E7	-0.08847	11.31013
3.30089E7	-0.01719	11.24406
3.30208E7	-0.03423	11.19686
3.30327E7	-0.05569	11.04314
3.30447E7	-0.0612	11.31628
3.30566E7	-0.0012	11.35419
3.30685E7	-0.00451	11.33342
3.30805E7	-0.05133	11.17562
3.30924E7	-0.07392	11.27617
3.31043E7	-0.0399	11.44365
3.31162E7	-0.06378	11.22874
3.31282E7	-0.06277	11.38177
3.31401E7	-0.07528	11.48253
3.3152E7	-0.0528	11.26413
3.3164E7	-0.02883	11.34654
3.31759E7	-0.05773	11.53116
3.31878E7	-0.04596	11.56508
3.31998E7	-0.04789	11.3266
3.32117E7	0.00521	11.18976
3.32236E7	-0.08103	11.18532
3.32355E7	-0.07157	11.47045
3.32475E7	-0.05601	11.55147
3.32594E7	-0.0864	11.56499
3.32713E7	-0.00169	11.33957
3.32833E7	-0.08776	11.3797
3.32952E7	-0.04293	11.6719
3.33071E7	-0.05278	11.5501
3.33191E7	-0.05543	11.40039
3.3331E7	-0.02759	11.37793
3.33429E7	-0.04845	11.50405
3.33548E7	-0.0927	11.29265
3.33668E7	-0.05489	11.56403
3.33787E7	0.00685	11.44398
3.33906E7	-0.03276	11.3883
3.34026E7	-0.07101	11.40444
3.34145E7	-0.04234	11.45269
3.34264E7	4.04631E-4	11.50291
3.34384E7	-0.07681	11.6172
3.34503E7	-0.07976	11.58418
3.34622E7	-0.06153	11.50535
3.34742E7	-0.03314	11.47815
3.34861E7	-0.00824	11.60827
3.3498E7	0.05941	11.44587
3.35099E7	0.05245	11.47166
3.35219E7	-0.0688	11.58647
3.35338E7	0.03065	11.69001
3.35457E7	-0.06193	11.56484
3.35577E7	-0.03048	11.44195
3.35696E7	0.0362	11.32966
3.35815E7	-0.07185	11.55754
3.35935E7	-0.01008	11.43951
3.36054E7	-0.05455	11.48003
3.36173E7	-0.0645	11.46231
3.36292E7	0.011	11.59128
3.36412E7	0.03862	11.73979
3.36531E7	-0.02936	11.55166
3.3665E7	-0.04496	11.68759
3.3677E7	-0.08285	11.58261
3.36889E7	-0.01576	11.65825
3.37008E7	0.02573	11.67056
3.37128E7	0.03905	11.56759
3.37247E7	-0.0467	11.63862
3.37366E7	-0.04969	11.64146
3.37485E7	-0.04957	11.74773
3.37605E7	-0.01774	11.58567
3.37724E7	-0.0045	11.60722
3.37843E7	-0.00347	11.70009
3.37963E7	-0.02879	11.59391
3.38082E7	-0.03499	11.52921
3.38201E7	0.00561	11.67151
3.38321E7	-0.06713	11.5845
3.3844E7	-0.03516	11.74953
3.38559E7	-0.05292	11.6419
3.38678E7	-0.05882	11.63757
3.38798E7	0.01082	11.84795
3.38917E7	-0.02854	11.87636
3.39036E7	-0.03305	11.5656
3.39156E7	0.03994	11.87863
3.39275E7	0.02096	11.75968
3.39394E7	-0.01427	11.72928
3.39514E7	-0.02783	11.91433
3.39633E7	-0.01086	11.89143
3.39752E7	0.01825	12.01299
3.39872E7	0.0117	11.66925
3.39991E7	-0.01829	11.72027
3.4011E7	-0.06575	11.66082
3.40229E7	-0.02973	11.89606
3.40349E7	-0.01873	11.63668
3.40468E7	-0.0346	11.63594
3.40587E7	0.02656	12.03393
3.40707E7	-0.01321	11.6493
3.40826E7	-0.05243	11.90129
3.40945E7	-0.04554	11.65581
3.41065E7	0.03126	11.84419
3.41184E7	-0.01843	11.81649
3.41303E7	0.00371	12.10088
3.41422E7	-0.03285	11.82966
3.41542E7	0.00352	11.92204
3.41661E7	-0.07166	11.98323
3.4178E7	0.01887	11.93313
3.419E7	0.00934	12.04172
3.42019E7	0.02845	12.13944
3.42138E7	0.05968	11.86103
3.42258E7	-0.01752	11.79454
3.42377E7	-0.06263	12.13343
3.42496E7	-0.08502	11.9022
3.42615E7	-0.03328	11.99498
3.42735E7	-0.03239	12.05569
3.42854E7	-0.04174	11.94523
3.42973E7	-0.02743	12.06998
3.43093E7	-0.02875	11.96705
3.43212E7	3.93298E-4	11.98156
3.43331E7	-0.02891	12.03414
3.43451E7	-0.05105	11.95452
3.4357E7	-0.03335	11.81585
3.43689E7	-0.01387	12.13856
3.43809E7	-0.03132	12.14505
3.43928E7	-0.02685	11.95875
3.44047E7	-0.06182	11.93574
3.44166E7	-0.03105	11.91406
3.44286E7	0.0854	11.98704
3.44405E7	-0.00728	11.92678
3.44524E7	-0.0128	12.06428
3.44644E7	-0.0494	12.24551
3.44763E7	-0.03374	11.94922
3.44882E7	2.54769E-4	12.01869
3.45002E7	0.00306	12.15027
3.45121E7	0.01759	12.03415
3.4524E7	-0.0411	12.17272
3.45359E7	1.1972E-4	12.11754
3.45479E7	-0.04929	12.21973
3.45598E7	-0.01166	12.02286
3.45717E7	-0.05643	11.97626
3.45837E7	-0.05097	12.17941
3.45956E7	-0.00193	12.27011
3.46075E7	-3.42278E-4	12.12584
3.46195E7	-0.09898	12.09766
3.46314E7	-0.05494	12.03498
3.46433E7	-0.03935	12.21338
3.46552E7	-0.00441	12.03104
3.46672E7	-0.02237	12.02609
3.46791E7	-0.02474	11.97646
3.4691E7	0.0063	12.18669
3.4703E7	-0.00571	12.47414
3.47149E7	-0.03021	12.1975
3.47268E7	0.01436	12.22783
3.47388E7	-0.05222	12.17523
3.47507E7	-0.04091	12.30132
3.47626E7	-0.00717	12.2724
3.47745E7	-0.05963	12.33791
3.47865E7	0.00808	12.32599
3.47984E7	-0.03264	12.16837
3.48103E7	-0.09363	12.06017
3.48223E7	-0.01689	12.28575
3.48342E7	-0.05158	12.19479
3.48461E7	-0.02164	12.18264
3.48581E7	0.00735	12.27444
3.487E7	-0.05203	12.19484
3.48819E7	-0.02923	12.25171
3.48939E7	0.00986	12.33829
3.49058E7	-0.0537	12.05416
3.49177E7	-0.08644	12.08707
3.49296E7	-0.03557	12.06589
3.49416E7	-0.02838	12.30471
3.49535E7	-0.0305	12.18828
3.49654E7	0.01081	12.242
3.49774E7	-0.00974	12.4217
3.49893E7	-0.09485	12.28625
3.50012E7	-0.02502	12.47314
3.50132E7	-0.0141	12.46192
3.50251E7	-0.02105	12.13335
3.5037E7	-9.30263E-4	12.34581
3.50489E7	0.0219	12.20808
3.50609E7	-0.01603	12.14181
3.50728E7	-0.07109	12.42019
3.50847E7	-0.00684	12.23933
3.50967E7	0.01844	12.34501
3.51086E7	-0.0254	12.3397
3.51205E7	-0.06046	12.5112
3.51325E7	-0.02598	12.24817
3.51444E7	-0.02587	12.35023
3.51563E7	-0.04017	12.48559
3.51682E7	-0.03117	12.51688
3.51802E7	-0.0132	12.34651
3.51921E7	-0.06774	12.7164
3.5204E7	-0.13917	12.44671
3.5216E7	-0.10003	12.54516
3.52279E7	-0.02972	12.42643
3.52398E7	-0.06707	12.39167
3.52518E7	-0.03846	12.60205
3.52637E7	-0.08322	12.45556
3.52756E7	-0.04466	12.44274
3.52875E7	-0.06905	12.56039
3.52995E7	-0.06456	12.46671
3.53114E7	-0.09093	12.45914
3.53233E7	-0.01573	12.50637
3.53353E7	-0.05473	12.50354
3.53472E7	-0.06242	12.39736
3.53591E7	-0.01494	12.76086
3.53711E7	-0.03164	12.58579
3.5383E7	-0.02309	12.56103
3.53949E7	-0.089	12.65963
3.54069E7	-0.01285	12.63575
3.54188E7	-0.04132	12.5265
3.54307E7	-0.03824	12.6131
3.54426E7	-0.0814	12.5378
3.54546E7	-0.04902	12.50144
3.54665E7	-0.09316	12.70084
3.54784E7	-0.03106	12.58402
3.54904E7	-0.03095	12.56252
3.55023E7	-0.02498	12.51144
3.55142E7	-0.06171	12.53951
3.55262E7	-0.07614	12.42572
3.55381E7	-0.04009	12.81111
3.555E7	-0.00999	12.87581
3.55619E7	-0.03606	12.74522
3.55739E7	-0.03601	12.71387
3.55858E7	-0.03085	12.8389
3.55977E7	-0.09069	12.6396
3.56097E7	-0.07951	12.83234
3.56216E7	-0.0414	12.69566
3.56335E7	-0.08619	12.38117
3.56455E7	-0.02696	12.75766
3.56574E7	-0.07181	12.86682
3.56693E7	-0.02655	12.64427
3.56812E7	-0.0673	12.73951
3.56932E7	0.00184	12.8006
3.57051E7	-0.04007	12.76888
3.5717E7	-0.06111	12.7995
3.5729E7	-0.13487	12.68454
3.57409E7	-0.04394	12.64275
3.57528E7	-0.06969	12.92551
3.57648E7	-0.07687	12.85922
3.57767E7	0.00571	12.85347
3.57886E7	-0.1056	12.81714
3.58006E7	-0.03804	12.70878
3.58125E7	-0.04595	12.77026
3.58244E7	-0.05478	12.86017
3.58363E7	-0.08733	12.67362
3.58483E7	-0.02365	12.87452
3.58602E7	-0.03894	12.80629
3.58721E7	-0.04916	12.74348
3.58841E7	-0.08462	12.89424
3.5896E7	-0.05129	12.82733
3.59079E7	-0.07797	12.69428
3.59199E7	-0.0393	12.85011
3.59318E7	-0.03129	12.8149
3.59437E7	-0.11191	12.65563
3.59556E7	-0.13771	12.8376
3.59676E7	0.01334	12.89673
3.59795E7	-0.07962	12.79172
3.59914E7	-0.0119	13.03194
3.60034E7	-0.10861	13.12215
3.60153E7	-0.01804	12.89774
3.60272E7	-0.06941	13.05914
3.60392E7	-0.05002	12.90889
3.60511E7	-0.04206	12.83036
3.6063E7	-0.02456	12.89448
3.60749E7	-0.03759	13.13955
3.60869E7	-0.05691	12.92126
3.60988E7	0.02264	13.13575
3.61107E7	-0.09694	12.80796
3.61227E7	-0.08147	12.7937
3.61346E7	-0.05054	12.98143
3.61465E7	-0.05113	12.95414
3.61585E7	-0.11533	12.76151
3.61704E7	-0.03167	12.9211
3.61823E7	-0.04227	12.79246
3.61942E7	-0.08597	12.87025
3.62062E7	-0.01832	13.10609
3.62181E7	-0.05262	12.88538
3.623E7	-0.1204	12.79689
3.6242E7	-0.06598	12.91777
3.62539E7	-0.04943	12.87414
3.62658E7	-0.0049	13.12644
3.62778E7	-0.04747	12.90428
3.62897E7	-0.05737	12.89506
3.63016E7	-0.06068	12.94687
3.63136E7	-0.05295	13.27354
3.63255E7	-0.0372	12.89672
3.63374E7	-0.06692	13.26545
3.63493E7	-0.06844	13.09268
3.63613E7	-0.01173	13.29412
3.63732E7	-0.05905	13.07932
3.63851E7	-0.04012	13.14072
3.63971E7	-0.0286	13.15856
3.6409E7	-0.06895	12.98121
3.64209E7	-0.05707	13.02592
3.64329E7	-0.09783	13.16785
3.64448E7	-0.00379	13.1866
3.64567E7	-0.02698	13.10887
3.64686E7	-0.07421	13.14416
3.64806E7	-0.07623	12.90989
3.64925E7	-0.08281	13.10784
3.65044E7	-0.11769	12.99153
3.65164E7	-0.09209	13.20597
3.65283E7	-0.08178	13.10157
3.65402E7	-0.10702	13.1234
3.65522E7	-0.05487	13.39822
3.65641E7	-0.03736	13.06313
3.6576E7	-0.07124	13.06481
3.65879E7	-0.05313	13.26042
3.65999E7	-0.03335	13.30569
3.66118E7	-0.08773	13.23804
3.66237E7	-0.12667	13.14883
3.66357E7	-0.07143	13.2008
3.66476E7	-0.01518	13.48066
3.66595E7	-0.10356	13.30445
3.66715E7	-0.06942	13.13752
3.66834E7	-0.09672	13.24531
3.66953E7	-0.06713	13.47938
3.67072E7	-0.08477	13.26726
3.67192E7	0.0175	13.47168
3.67311E7	-0.04326	13.13635
3.6743E7	-0.07687	13.19833
3.6755E7	-0.06526	13.3325
3.67669E7	-0.15503	13.30629
3.67788E7	-0.13651	13.18821
3.67908E7	-0.11683	13.20768
3.68027E7	-0.0992	13.2511
3.68146E7	-0.02791	13.48341
3.68266E7	-0.11313	13.4311
3.68385E7	-0.0103	13.44974
3.68504E7	0.00884	13.26685
3.68623E7	-0.15206	13.18362
3.68743E7	-0.02365	13.46259
3.68862E7	-0.05295	13.28584
3.68981E7	-0.06063	13.40433
3.69101E7	0.04017	13.62478
3.6922E7	-0.01984	13.69074
3.69339E7	-0.02966	13.54834
3.69459E7	-0.07647	13.316
3.69578E7	-0.08173	13.48249
3.69697E7	-0.09463	13.44793
3.69816E7	-0.07544	13.18017
3.69936E7	-0.06737	13.27143
3.70055E7	-0.12237	13.45563
3.70174E7	-0.08828	13.29056
3.70294E7	0.01766	13.77936
3.70413E7	-0.07734	13.58647
3.70532E7	-0.07705	13.26795
3.70652E7	-0.01615	13.50305
3.70771E7	-0.01741	13.58271
3.7089E7	-0.08615	13.45989
3.71009E7	-0.11339	13.40607
3.71129E7	0.02923	13.63706
3.71248E7	0.02768	13.51803
3.71367E7	-0.01524	13.52319
3.71487E7	0.00717	13.62981
3.71606E7	-0.14453	13.30733
3.71725E7	-0.10437	13.4145
3.71845E7	-0.04517	13.43629
3.71964E7	-0.14896	13.41392
3.72083E7	-0.04608	13.56292
3.72203E7	-0.02164	13.4453
3.72322E7	-0.00863	13.5903
3.72441E7	-0.11524	13.54565
3.7256E7	-0.01093	13.58663
3.7268E7	-0.072	13.44768
3.72799E7	-0.05269	13.55137
3.72918E7	-0.03721	13.4635
3.73038E7	-0.14304	13.22465
3.73157E7	-0.06384	13.60997
3.73276E7	-0.08731	13.5318
3.73396E7	-0.03823	13.67153
3.73515E7	-0.09577	13.72796
3.73634E7	-0.08128	13.64372
3.73753E7	-0.04133	13.69807
3.73873E7	-0.07887	13.84841
3.73992E7	-0.05339	13.62937
3.74111E7	0.01116	13.70987
3.74231E7	-0.08896	13.6404
3.7435E7	0.00729	13.60828
3.74469E7	-0.09798	13.6803
3.74589E7	-0.07002	13.58772
3.74708E7	-0.08793	13.67569
3.74827E7	-0.08666	13.74285
3.74946E7	-0.07928	13.70537
3.75066E7	-0.02382	13.82782
3.75185E7	-0.09959	13.90746
3.75304E7	-0.05243	13.6838
3.75424E7	-0.05609	13.85625
3.75543E7	-0.02898	13.65296
3.75662E7	-0.06497	13.76708
3.75782E7	-0.03068	13.64634
3.75901E7	-0.06225	13.79207
3.7602E7	-0.05029	13.80986
3.76139E7	0.01471	13.79164
3.76259E7	-0.05461	13.77775
3.76378E7	0.00246	13.89971
3.76497E7	-0.0068	13.79906
3.76617E7	-0.08329	13.65818
3.76736E7	-0.06908	13.90697
3.76855E7	-0.09513	13.70946
3.76975E7	-0.09801	13.77108
3.77094E7	-0.0428	14.06302
3.77213E7	-0.10573	13.80109
3.77333E7	-0.07296	13.82121
3.77452E7	-0.05161	13.83928
3.77571E7	-0.14074	13.62942
3.7769E7	-0.09792	13.96559
3.7781E7	-0.0761	13.78523
3.77929E7	-0.10377	13.78245
3.78048E7	-0.0648	13.74207
3.78168E7	-0.03931	13.80016
3.78287E7	-0.02792	13.83891
3.78406E7	-0.03113	14.00905
3.78526E7	-0.12673	13.86395
3.78645E7	-0.05861	14.12302
3.78764E7	-0.13778	13.83498
3.78883E7	-0.05292	13.74333
3.79003E7	0.0032	14.01728
3.79122E7	-0.09208	13.90301
3.79241E7	-0.15987	13.78362
3.79361E7	-0.06046	14.00882
3.7948E7	-0.12022	13.87464
3.79599E7	-0.07984	13.79761
3.79719E7	-0.04716	13.83028
3.79838E7	-0.08335	14.01753
3.79957E7	-0.10884	13.86455
3.80076E7	-0.16215	13.88286
3.80196E7	-0.05156	13.99708
3.80315E7	-0.13336	14.12409
3.80434E7	-0.07525	13.9559
3.80554E7	-0.0209	14.0429
3.80673E7	-0.13366	13.85727
3.80792E7	-0.04264	13.83809
3.80912E7	-0.09181	13.86968
3.81031E7	-0.02144	14.21382
3.8115E7	-0.06649	14.10252
3.8127E7	-0.16957	13.9234
3.81389E7	-0.01655	14.02728
3.81508E7	-0.06413	14.10398
3.81627E7	-0.04412	14.07016
3.81747E7	-0.05045	14.07925
3.81866E7	-0.10539	14.04309
3.81985E7	-0.06955	14.13808
3.82105E7	-0.113	14.03415
3.82224E7	-0.05172	14.13711
3.82343E7	0.01038	14.30606
3.82463E7	-0.10009	14.05855
3.82582E7	-0.07753	14.10925
3.82701E7	-0.03811	14.11813
3.8282E7	-0.06582	14.17075
3.8294E7	-0.0365	14.03002
3.83059E7	-0.13238	13.98134
3.83178E7	0.02274	14.23531
3.83298E7	-0.12398	13.96801
3.83417E7	-0.03735	14.3419
3.83536E7	-0.11278	14.20193
3.83656E7	-0.05475	14.27023
3.83775E7	-0.08529	14.22448
3.83894E7	-0.08085	14.38556
3.84013E7	-0.1076	14.26943
3.84133E7	-0.02916	14.16299
3.84252E7	-0.0507	14.31514
3.84371E7	-0.06128	14.22829
3.84491E7	-0.09657	14.20148
3.8461E7	-0.07743	14.14997
3.84729E7	0.00399	14.12932
3.84849E7	-0.09248	14.18042
3.84968E7	-0.148	14.20784
3.85087E7	-0.11024	14.26507
3.85206E7	-0.03814	14.26208
3.85326E7	-0.11212	14.19099
3.85445E7	-0.04268	14.30964
3.85564E7	-0.05056	14.41939
3.85684E7	0.04157	14.50849
3.85803E7	-0.05201	14.43787
3.85922E7	-0.09328	14.29793
3.86042E7	-0.09461	14.28262
3.86161E7	-0.07214	14.11839
3.8628E7	-0.00597	14.37244
3.864E7	-0.05579	14.44055
3.86519E7	-0.05425	14.30974
3.86638E7	-0.01527	14.44546
3.86757E7	-0.04756	14.34174
3.86877E7	-0.105	14.37468
3.86996E7	-0.09245	14.30919
3.87115E7	0.01884	14.48423
3.87235E7	-0.06294	14.38191
3.87354E7	-0.0637	14.1566
3.87473E7	-0.07948	14.47572
3.87593E7	-0.1009	14.03126
3.87712E7	-0.17718	14.35615
3.87831E7	-0.09874	14.15456
3.8795E7	-0.00291	14.61468
3.8807E7	-0.02653	14.37255
3.88189E7	-0.09614	14.33832
3.88308E7	-0.08535	14.3737
3.88428E7	-0.03913	14.39504
3.88547E7	-0.0771	14.43811
3.88666E7	-0.10371	14.36988
3.88786E7	-0.04707	14.53307
3.88905E7	-0.02086	14.561
3.89024E7	-0.02299	14.76238
3.89143E7	0.00206	14.52709
3.89263E7	-0.09619	14.36446
3.89382E7	-0.11683	14.2589
3.89501E7	-0.08538	14.50217
3.89621E7	-0.0803	14.64026
3.8974E7	-0.09098	14.35574
3.89859E7	-0.06055	14.54008
3.89979E7	-0.02555	14.58513
3.90098E7	-0.05656	14.73527
3.90217E7	-0.10541	14.31938
3.90336E7	-0.09162	14.6077
3.90456E7	-0.1496	14.31693
3.90575E7	-0.0431	14.58966
3.90694E7	-0.0351	14.61795
3.90814E7	-0.07222	14.75075
3.90933E7	-0.08833	14.51345
3.91052E7	-0.07708	14.60293
3.91172E7	-0.20395	14.46066
3.91291E7	-0.04829	14.56879
3.9141E7	-0.05262	14.87388
3.9153E7	-0.07607	14.54469
3.91649E7	-0.11846	14.56973
3.91768E7	-0.03132	14.65124
3.91887E7	-0.19179	14.40148
3.92007E7	-0.07877	14.90482
3.92126E7	-0.12553	14.57063
3.92245E7	-0.02465	14.79227
3.92365E7	-0.01535	14.87512
3.92484E7	-0.10733	14.69454
3.92603E7	-0.07319	14.42969
3.92723E7	-0.05011	14.78975
3.92842E7	-0.01016	14.77306
3.92961E7	-0.05875	14.58228
3.9308E7	0.02233	14.57986
3.932E7	-0.02755	14.84335
3.93319E7	-0.13205	14.59405
3.93438E7	-0.01101	14.79604
3.93558E7	-0.11161	14.71822
3.93677E7	-0.09317	14.67991
3.93796E7	-0.05261	14.80049
3.93916E7	-0.14554	14.63609
3.94035E7	-0.07899	14.82288
3.94154E7	-0.09314	14.70185
3.94273E7	-0.02896	14.98584
3.94393E7	-0.05426	14.72736
3.94512E7	-0.02901	14.76044
3.94631E7	-0.09507	14.65442
3.94751E7	0.03241	14.98296
3.9487E7	-0.09058	14.65138
3.94989E7	-0.06136	14.80979
3.95109E7	-0.13062	14.73676
3.95228E7	-0.08033	14.86256
3.95347E7	-0.17204	14.70997
3.95467E7	-0.08275	14.76327
3.95586E7	-0.04051	14.66906
3.95705E7	-0.12865	14.59
3.95824E7	-0.03563	14.92022
3.95944E7	-0.04084	14.84785
3.96063E7	-0.06344	14.89588
3.96182E7	-0.12424	14.94633
3.96302E7	-0.07899	14.86771
3.96421E7	-0.09381	14.76513
3.9654E7	-0.17407	14.77956
3.9666E7	0.05117	15.20801
3.96779E7	-0.0521	15.0531
3.96898E7	-0.02676	14.91815
3.97017E7	-0.03257	14.99674
3.97137E7	-0.09795	14.97706
3.97256E7	-0.17369	14.78185
3.97375E7	-0.10686	14.92309
3.97495E7	-0.13353	14.88596
3.97614E7	-0.13537	14.8703
3.97733E7	-0.16853	14.84223
3.97853E7	-0.02135	15.10241
3.97972E7	-0.05425	15.17581
3.98091E7	-0.10224	14.85523
3.9821E7	-0.14363	14.90103
3.9833E7	-0.06341	15.12478
3.98449E7	-0.17411	14.8101
3.98568E7	-0.04818	15.06159
3.98688E7	-0.14944	14.82708
3.98807E7	-0.0527	15.20256
3.98926E7	-0.07163	15.03763
3.99046E7	-0.15305	15.03405
3.99165E7	-0.01958	15.24163
3.99284E7	0.06534	15.27054
3.99403E7	-0.12076	15.03289
3.99523E7	-0.09048	15.08138
3.99642E7	-0.01903	15.3143
3.99761E7	-0.12412	15.20857
3.99881E7	-0.15624	14.93341
4E7	-0.08778	14.99975
