1000000	1.931	-116.12684
1.01193E6	1.85114	-119.54324
1.02386E6	-0.07269	-119.04876
1.03579E6	2.73901	-113.67507
1.04772E6	-0.21283	-113.89113
1.05965E6	-1.42931	-115.58622
1.07158E6	5.40051	-113.34807
1.08351E6	2.72768	-111.1685
1.09544E6	1.56819	-106.01274
1.10737E6	-1.79682	-105.19522
1.1193E6	-2.92422	-103.38765
1.13123E6	2.44329	-104.56005
1.14316E6	2.5432	-104.2667
1.15509E6	-2.20909	-105.45458
1.16702E6	1.86733	-100.2447
1.17895E6	-0.93541	-99.1855
1.19088E6	2.1568	-102.60782
1.20281E6	-1.71505	-97.16849
1.21474E6	-0.77094	-98.73035
1.22667E6	-1.97579	-97.85288
1.23861E6	0.69834	-94.44017
1.25054E6	-2.09811	-93.61486
1.26247E6	1.28557	-90.39915
1.2744E6	2.01587	-95.46695
1.28633E6	3.05331	-90.39827
1.29826E6	0.73308	-90.06651
1.31019E6	-2.45354	-88.51535
1.32212E6	3.30807	-90.11697
1.33405E6	-1.50976	-90.5133
1.34598E6	3.3148	-86.59707
1.35791E6	0.96577	-85.14329
1.36984E6	-0.97439	-83.39778
1.38177E6	1.93347	-85.00577
1.3937E6	0.36365	-84.46068
1.40563E6	1.29131	-84.93469
1.41756E6	1.22069	-83.31005
1.42949E6	-2.04835	-84.05491
1.44142E6	-0.25284	-81.88804
1.45335E6	1.27735	-80.59087
1.46528E6	-0.00939	-78.72993
1.47721E6	-2.91735	-79.04868
1.48914E6	0.97369	-77.04384
1.50107E6	-0.45577	-77.75104
1.513E6	0.61137	-78.4698
1.52493E6	0.12694	-77.46526
1.53686E6	-1.19409	-75.68241
1.54879E6	-0.41287	-75.27009
1.56072E6	1.38182	-76.45952
1.57265E6	0.38087	-76.96245
1.58458E6	-0.41322	-71.98111
1.59651E6	-0.19479	-74.56478
1.60844E6	-0.65829	-72.39039
1.62037E6	0.57519	-73.84245
1.6323E6	0.78531	-71.74701
1.64423E6	-0.39789	-70.01102
1.65616E6	0.3336	-71.49593
1.66809E6	-1.77621	-68.26092
1.68002E6	-1.22516	-69.83129
1.69195E6	0.51881	-69.53519
1.70388E6	0.90264	-69.1879
1.71582E6	0.67577	-67.15375
1.72775E6	0.71109	-67.81474
1.73968E6	-0.53807	-68.04958
1.75161E6	-1.75262	-67.99199
1.76354E6	0.68411	-66.51204
1.77547E6	0.12389	-65.87902
1.7874E6	0.57455	-64.3524
1.79933E6	0.21105	-64.01506
1.81126E6	-0.46052	-64.68389
1.82319E6	0.92653	-63.61077
1.83512E6	0.56979	-65.75286
1.84705E6	0.24974	-62.29238
1.85898E6	-0.58415	-63.8042
1.87091E6	-0.69936	-61.72081
1.88284E6	0.43649	-62.35283
1.89477E6	-0.42165	-61.8216
1.9067E6	0.03103	-59.67428
1.91863E6	0.21078	-60.14984
1.93056E6	-1.13711	-60.54797
1.94249E6	-0.09215	-59.86787
1.95442E6	1.35852	-58.97133
1.96635E6	-1.2472	-58.9869
1.97828E6	0.44252	-58.98134
1.99021E6	-0.58225	-57.12934
2.00214E6	-0.37739	-58.12506
2.01407E6	-0.11257	-58.10791
2.026E6	0.78314	-56.03447
2.03793E6	0.66917	-57.67039
2.04986E6	-0.48446	-55.8541
2.06179E6	-0.56124	-57.46933
2.07372E6	0.28752	-55.37571
2.08565E6	0.4745	-54.60384
2.09758E6	0.68624	-55.17451
2.10951E6	0.31862	-54.05518
2.12144E6	0.23132	-53.61427
2.13337E6	-0.11025	-53.75698
2.1453E6	-0.23999	-53.57286
2.15723E6	0.19212	-52.79505
2.16916E6	-0.28003	-53.58027
2.1811E6	0.23493	-52.85224
2.19303E6	-1.11594	-51.66258
2.20496E6	0.61533	-52.04014
2.21689E6	-0.2054	-51.19263
2.22882E6	0.17214	-51.5567
2.24075E6	0.43809	-50.56812
2.25268E6	-0.21752	-50.93495
2.26461E6	0.77093	-50.41716
2.27654E6	0.05861	-50.72434
2.28847E6	1.14876	-49.7885
2.3004E6	-0.23523	-49.70307
2.31233E6	-0.45716	-49.31115
2.32426E6	0.90415	-49.12765
2.33619E6	0.62325	-47.84114
2.34812E6	0.52413	-48.11551
2.36005E6	0.03338	-48.8536
2.37198E6	0.2911	-47.74488
2.38391E6	-0.87045	-47.88623
2.39584E6	-0.03601	-47.65656
2.40777E6	-0.28236	-46.89169
2.4197E6	0.76319	-47.21057
2.43163E6	0.68274	-46.60848
2.44356E6	0.68461	-46.86184
2.45549E6	0.69755	-45.79888
2.46742E6	1.07514	-46.83037
2.47935E6	-0.32311	-45.44287
2.49128E6	-0.12288	-45.38743
2.50321E6	1.23145	-45.7119
2.51514E6	-0.23511	-45.76897
2.52707E6	-0.28714	-44.85869
2.539E6	0.07105	-44.97839
2.55093E6	0.04931	-44.31486
2.56286E6	-0.17041	-44.26071
2.57479E6	0.40564	-44.36598
2.58672E6	-0.55848	-44.04573
2.59865E6	0.15522	-43.24074
2.61058E6	0.03813	-43.97393
2.62251E6	-0.0693	-42.64761
2.63444E6	0.65658	-42.62857
2.64638E6	-0.11173	-41.99896
2.65831E6	-0.16171	-42.8574
2.67024E6	-0.31288	-41.87378
2.68217E6	-0.41759	-41.34124
2.6941E6	-0.07227	-41.22184
2.70603E6	0.51402	-41.44316
2.71796E6	0.41404	-41.54846
2.72989E6	0.42003	-40.2217
2.74182E6	-0.21476	-40.63978
2.75375E6	0.63571	-40.80506
2.76568E6	-0.15331	-40.40461
2.77761E6	-0.04954	-39.87902
2.78954E6	0.09896	-40.81015
2.80147E6	0.32973	-40.31136
2.8134E6	0.31354	-39.5517
2.82533E6	-0.00108	-39.50249
2.83726E6	-0.4115	-39.83789
2.84919E6	-0.15282	-39.08292
2.86112E6	-0.29449	-38.60895
2.87305E6	0.42408	-38.42768
2.88498E6	-0.15681	-38.26626
2.89691E6	0.19397	-38.58198
2.90884E6	0.15391	-37.99098
2.92077E6	-0.39721	-38.62273
2.9327E6	0.6129	-38.75343
2.94463E6	-0.18765	-38.4331
2.95656E6	-0.21186	-37.68411
2.96849E6	-0.30201	-36.98883
2.98042E6	-0.37921	-37.37128
2.99235E6	0.47281	-37.31053
3.00428E6	0.52571	-37.15092
3.01621E6	0.44629	-36.72109
3.02814E6	-0.38586	-36.0346
3.04007E6	0.16474	-35.83819
3.052E6	0.00307	-36.89615
3.06393E6	-0.04012	-36.6836
3.07586E6	0.1067	-35.60637
3.08779E6	-0.30126	-35.25822
3.09972E6	0.40617	-35.41895
3.11165E6	0.232	-34.98309
3.12359E6	0.28778	-35.01222
3.13552E6	-0.52392	-35.89675
3.14745E6	0.66176	-34.70107
3.15938E6	-0.27362	-35.30849
3.17131E6	0.02107	-34.56745
3.18324E6	-0.34401	-33.57174
3.19517E6	0.15824	-34.46811
3.2071E6	-0.40903	-34.1585
3.21903E6	0.41321	-34.74976
3.23096E6	0.32606	-34.24878
3.24289E6	0.24473	-34.36021
3.25482E6	0.03033	-33.49714
3.26675E6	-0.19801	-34.08157
3.27868E6	-0.10988	-33.4178
3.29061E6	-0.56087	-33.07262
3.30254E6	0.31422	-32.82649
3.31447E6	0.08645	-32.31189
3.3264E6	0.22151	-32.78924
3.33833E6	0.50167	-32.95515
3.35026E6	0.56343	-32.78169
3.36219E6	-0.28208	-32.80732
3.37412E6	-0.38158	-32.35807
3.38605E6	-0.27656	-31.68524
3.39798E6	0.05124	-31.73357
3.40991E6	0.0379	-31.98911
3.42184E6	0.1342	-31.73638
3.43377E6	0.57303	-31.83142
3.4457E6	0.11672	-31.29721
3.45763E6	-0.22468	-31.23376
3.46956E6	-0.09562	-31.3571
3.48149E6	0.08919	-30.71329
3.49342E6	0.047	-30.92369
3.50535E6	0.14489	-30.30467
3.51728E6	-0.23741	-30.98892
3.52921E6	-0.11736	-31.16291
3.54114E6	0.48411	-30.63171
3.55307E6	-0.43857	-30.50654
3.565E6	0.49406	-30.42692
3.57693E6	0.54717	-30.18084
3.58887E6	-0.39379	-30.21792
3.6008E6	0.02264	-29.62753
3.61273E6	0.36647	-30.04976
3.62466E6	0.00788	-29.71766
3.63659E6	0.00823	-29.56988
3.64852E6	0.10978	-29.17333
3.66045E6	0.54566	-29.09755
3.67238E6	0.02086	-29.09213
3.68431E6	0.49014	-28.93949
3.69624E6	-0.02824	-29.08903
3.70817E6	0.55514	-28.49703
3.7201E6	-0.09826	-28.59187
3.73203E6	0.35413	-28.40734
3.74396E6	-0.174	-28.46031
3.75589E6	0.12595	-28.42865
3.76782E6	-0.11667	-27.45483
3.77975E6	-0.12038	-27.8823
3.79168E6	-0.01684	-28.0234
3.80361E6	0.18114	-27.74431
3.81554E6	0.12641	-27.79544
3.82747E6	0.19767	-27.84088
3.8394E6	0.7184	-27.31109
3.85133E6	0.27097	-27.42533
3.86326E6	0.46131	-27.64778
3.87519E6	0.09772	-26.80485
3.88712E6	0.12448	-26.88858
3.89905E6	0.44898	-27.56918
3.91098E6	0.05087	-26.57155
3.92291E6	0.06361	-26.71197
3.93484E6	0.24809	-26.71965
3.94677E6	0.43884	-26.62528
3.9587E6	0.45639	-26.02482
3.97063E6	-0.03204	-26.39212
3.98256E6	0.14126	-26.2575
3.99449E6	0.14091	-26.22568
4.00642E6	0.01305	-25.91738
4.01835E6	0.22647	-25.90921
4.03028E6	0.49004	-26.31606
4.04221E6	-0.01364	-25.85192
4.05414E6	0.03227	-25.17136
4.06608E6	0.15379	-24.9532
4.07801E6	0.26407	-25.45574
4.08994E6	0.2449	-25.78083
4.10187E6	-0.00723	-25.00453
4.1138E6	0.3721	-25.20278
4.12573E6	0.12512	-24.85554
4.13766E6	-0.21549	-24.93074
4.14959E6	-0.05003	-24.79142
4.16152E6	0.05954	-24.74246
4.17345E6	-0.01417	-24.56098
4.18538E6	0.09337	-24.5056
4.19731E6	-0.15432	-24.3253
4.20924E6	-0.01969	-24.17205
4.22117E6	0.09842	-24.62618
4.2331E6	0.22528	-24.73523
4.24503E6	0.24954	-24.06103
4.25696E6	0.27109	-24.1419
4.26889E6	0.11002	-24.30185
4.28082E6	0.11689	-23.82129
4.29275E6	0.13793	-24.0044
4.30468E6	0.23742	-23.68314
4.31661E6	0.11942	-23.48862
4.32854E6	-0.08618	-23.29466
4.34047E6	0.25162	-23.53989
4.3524E6	0.07287	-23.3373
4.36433E6	0.11681	-23.60257
4.37626E6	0.23798	-23.31475
4.38819E6	0.03078	-22.5967
4.40012E6	0.0394	-23.11454
4.41205E6	-0.19137	-22.84909
4.42398E6	0.33182	-22.83653
4.43591E6	0.31311	-22.98911
4.44784E6	0.22392	-23.00086
4.45977E6	0.03916	-22.51111
4.4717E6	0.0999	-22.33467
4.48363E6	0.07499	-22.35144
4.49556E6	0.42986	-22.36978
4.50749E6	0.29286	-22.42588
4.51942E6	0.14153	-22.22544
4.53136E6	0.12713	-21.91747
4.54329E6	0.25806	-22.04127
4.55522E6	0.23346	-22.21437
4.56715E6	0.22608	-21.70865
4.57908E6	0.20695	-21.77283
4.59101E6	-0.00578	-21.70368
4.60294E6	0.08228	-21.48139
4.61487E6	0.1743	-21.39964
4.6268E6	0.3008	-21.32553
4.63873E6	0.26169	-21.53233
4.65066E6	0.24204	-21.25958
4.66259E6	0.11025	-21.25908
4.67452E6	-0.2743	-21.09059
4.68645E6	0.04784	-21.01855
4.69838E6	0.12717	-20.85149
4.71031E6	0.05104	-20.74692
4.72224E6	0.23421	-20.83669
4.73417E6	0.30329	-20.7691
4.7461E6	0.17698	-20.8304
4.75803E6	0.1408	-20.83477
4.76996E6	0.20096	-20.60853
4.78189E6	-0.02837	-20.46854
4.79382E6	0.37201	-20.74608
4.80575E6	0.05695	-20.2131
4.81768E6	-0.01819	-20.42258
4.82961E6	0.23147	-20.1454
4.84154E6	0.11056	-20.13667
4.85347E6	0.10179	-19.89608
4.8654E6	0.20946	-19.99553
4.87733E6	0.14845	-19.58562
4.88926E6	-0.07087	-19.60703
4.90119E6	-0.05669	-19.60336
4.91312E6	0.15316	-19.48422
4.92505E6	0.06512	-19.55319
4.93698E6	0.03473	-19.68216
4.94891E6	0.15098	-19.4219
4.96084E6	0.08594	-19.27165
4.97277E6	0.13903	-19.15449
4.9847E6	0.19045	-18.85262
4.99664E6	0.23433	-19.37157
5.00857E6	0.05017	-19.04097
5.0205E6	0.12726	-18.90826
5.03243E6	0.09564	-18.74032
5.04436E6	0.12315	-18.77871
5.05629E6	-0.1837	-18.68646
5.06822E6	0.12099	-18.50773
5.08015E6	-0.08693	-18.49142
5.09208E6	0.07829	-18.66371
5.10401E6	0.10835	-18.32382
5.11594E6	0.12892	-18.57892
5.12787E6	0.30172	-18.3195
5.1398E6	0.11024	-17.88877
5.15173E6	0.12576	-18.35923
5.16366E6	0.07804	-18.01458
5.17559E6	0.06222	-18.32528
5.18752E6	0.13408	-17.87994
5.19945E6	0.29002	-18.18342
5.21138E6	-0.0852	-17.91327
5.22331E6	0.40899	-18.00321
5.23524E6	0.21108	-17.85037
5.24717E6	0.34519	-17.67755
5.2591E6	0.26821	-17.78498
5.27103E6	0.08116	-17.60371
5.28296E6	0.10212	-17.73437
5.29489E6	0.33773	-17.62999
5.30682E6	0.20401	-17.41776
5.31875E6	0.05885	-17.374
5.33068E6	-0.01102	-16.86556
5.34261E6	0.11904	-17.26607
5.35454E6	0.27717	-17.27474
5.36647E6	0.02952	-17.12813
5.3784E6	0.25841	-17.05154
5.39033E6	0.06654	-16.76821
5.40226E6	0.19073	-16.90086
5.41419E6	0.07652	-16.678
5.42612E6	0.22365	-16.81423
5.43805E6	0.06759	-16.56156
5.44998E6	0.24583	-16.64359
5.46191E6	0.26459	-16.57788
5.47385E6	0.12014	-16.74229
5.48578E6	0.28298	-16.71215
5.49771E6	0.04974	-16.09502
5.50964E6	0.32915	-16.51917
5.52157E6	0.02757	-16.1999
5.5335E6	0.17966	-16.32518
5.54543E6	0.07985	-16.05711
5.55736E6	9.25307E-4	-16.24609
5.56929E6	0.09492	-15.89375
5.58122E6	0.03534	-16.07963
5.59315E6	0.15519	-15.88795
5.60508E6	0.09802	-15.82671
5.61701E6	0.22227	-15.62168
5.62894E6	0.32136	-15.95996
5.64087E6	0.15911	-15.77808
5.6528E6	-0.11894	-15.35811
5.66473E6	0.13282	-15.75136
5.67666E6	0.12164	-15.64983
5.68859E6	0.09784	-15.26868
5.70052E6	-0.02722	-15.28847
5.71245E6	0.22979	-15.44828
5.72438E6	0.10337	-15.4736
5.73631E6	0.15273	-15.12853
5.74824E6	0.09624	-15.2412
5.76017E6	-0.13105	-14.9404
5.7721E6	0.17468	-15.04178
5.78403E6	0.12398	-15.05981
5.79596E6	0.16823	-15.16598
5.80789E6	0.24937	-14.93601
5.81982E6	0.05067	-14.67089
5.83175E6	0.08108	-14.61933
5.84368E6	0.03242	-14.68106
5.85561E6	0.24117	-14.84419
5.86754E6	0.10627	-14.50591
5.87947E6	0.20099	-14.48221
5.8914E6	-0.01859	-14.31667
5.90333E6	0.38161	-14.65043
5.91526E6	0.02137	-14.38594
5.92719E6	0.27353	-14.43099
5.93913E6	0.0445	-14.17072
5.95106E6	-0.00298	-14.1111
5.96299E6	0.21323	-14.31625
5.97492E6	0.37955	-14.18296
5.98685E6	0.01603	-14.02176
5.99878E6	0.20608	-14.09991
6.01071E6	0.11663	-13.75199
6.02264E6	0.14753	-13.95552
6.03457E6	0.05633	-13.71069
6.0465E6	0.07034	-13.42918
6.05843E6	0.15458	-13.60003
6.07036E6	0.06684	-13.63204
6.08229E6	0.18549	-13.58061
6.09422E6	0.12081	-13.537
6.10615E6	0.01788	-13.66902
6.11808E6	0.16662	-13.67825
6.13001E6	0.00453	-13.35065
6.14194E6	-0.08226	-13.18986
6.15387E6	0.04427	-13.09252
6.1658E6	0.03056	-13.03705
6.17773E6	0.1504	-12.91863
6.18966E6	0.12677	-13.15784
6.20159E6	0.14011	-12.89315
6.21352E6	0.03293	-12.97233
6.22545E6	0.12886	-13.16552
6.23738E6	0.10004	-12.63371
6.24931E6	0.19671	-12.89149
6.26124E6	0.09083	-12.61341
6.27317E6	0.17374	-12.60062
6.2851E6	0.01336	-12.31111
6.29703E6	0.10771	-12.49487
6.30896E6	0.13368	-12.66732
6.32089E6	0.16239	-12.73791
6.33282E6	0.09074	-12.34138
6.34475E6	0.1559	-12.54862
6.35668E6	0.07424	-12.12786
6.36861E6	0.169	-12.2353
6.38054E6	0.03854	-12.23915
6.39247E6	-0.09652	-11.84816
6.40441E6	0.12092	-11.92567
6.41634E6	-0.05488	-12.18076
6.42827E6	0.19259	-12.17403
6.4402E6	0.03941	-11.96539
6.45213E6	0.17911	-12.20603
6.46406E6	0.11725	-11.93831
6.47599E6	0.19084	-11.80752
6.48792E6	0.17583	-11.89783
6.49985E6	0.21955	-11.9199
6.51178E6	0.0725	-11.68438
6.52371E6	0.21008	-11.575
6.53564E6	0.15661	-11.66505
6.54757E6	0.04603	-11.55189
6.5595E6	0.18662	-11.50592
6.57143E6	0.05508	-11.54244
6.58336E6	-0.06825	-11.41502
6.59529E6	0.05712	-11.09681
6.60722E6	0.114	-11.17087
6.61915E6	-0.08352	-11.16895
6.63108E6	0.00649	-10.92663
6.64301E6	0.16245	-11.06049
6.65494E6	0.0942	-10.8059
6.66687E6	0.10385	-10.87006
6.6788E6	0.20731	-10.95676
6.69073E6	0.06884	-10.89601
6.70266E6	0.05831	-10.75199
6.71459E6	0.19545	-10.83131
6.72652E6	0.00741	-10.55779
6.73845E6	0.11368	-10.87944
6.75038E6	0.15967	-10.86234
6.76231E6	0.09746	-10.54958
6.77424E6	0.13032	-10.74981
6.78617E6	0.08023	-10.20185
6.7981E6	0.19047	-10.31177
6.81003E6	0.19057	-10.56926
6.82196E6	0.07968	-10.18799
6.83389E6	0.13312	-10.19936
6.84582E6	-0.0145	-10.24593
6.85775E6	0.09744	-9.91518
6.86968E6	0.04665	-10.01558
6.88162E6	0.09982	-10.122
6.89355E6	0.06917	-10.07485
6.90548E6	0.08732	-9.69751
6.91741E6	0.07668	-9.8548
6.92934E6	0.19213	-9.73057
6.94127E6	0.04559	-9.78472
6.9532E6	0.04286	-9.53706
6.96513E6	0.02351	-9.69171
6.97706E6	0.04172	-9.44644
6.98899E6	0.04216	-9.68639
7.00092E6	0.16904	-9.62717
7.01285E6	0.03534	-9.27798
7.02478E6	0.16239	-9.55951
7.03671E6	0.1594	-9.2744
7.04864E6	0.06521	-9.21688
7.06057E6	0.09279	-9.28875
7.0725E6	0.14614	-8.96521
7.08443E6	0.17135	-9.34464
7.09636E6	0.08951	-8.92895
7.10829E6	0.16515	-9.12375
7.12022E6	0.07873	-9.02875
7.13215E6	0.1141	-8.94556
7.14408E6	0.0685	-8.85943
7.15601E6	0.11267	-8.80597
7.16794E6	0.00996	-8.59829
7.17987E6	0.22838	-8.86516
7.1918E6	0.14436	-8.6098
7.20373E6	0.19025	-8.42881
7.21566E6	-0.03272	-8.27732
7.22759E6	0.06745	-8.42903
7.23952E6	0.07187	-8.38769
7.25145E6	0.06617	-8.45974
7.26338E6	0.05394	-8.40292
7.27531E6	0.07639	-8.32133
7.28724E6	0.12233	-8.09654
7.29917E6	0.05433	-8.0683
7.3111E6	0.11195	-8.34759
7.32303E6	0.05449	-7.97492
7.33496E6	0.09737	-8.16264
7.3469E6	0.08381	-7.98083
7.35883E6	0.07497	-7.77234
7.37076E6	0.07717	-7.80376
7.38269E6	0.17414	-7.92246
7.39462E6	0.09859	-7.65301
7.40655E6	0.15763	-7.47759
7.41848E6	0.08033	-7.46979
7.43041E6	0.09536	-7.60003
7.44234E6	0.07634	-7.66343
7.45427E6	0.06974	-7.31237
7.4662E6	0.12166	-7.27091
7.47813E6	0.02255	-7.23056
7.49006E6	0.00687	-7.21753
7.50199E6	0.02735	-7.14126
7.51392E6	0.11537	-7.21497
7.52585E6	0.02041	-6.81314
7.53778E6	0.11061	-7.02813
7.54971E6	0.08638	-6.90175
7.56164E6	0.05224	-6.71448
7.57357E6	0.08913	-6.80523
7.5855E6	0.12191	-6.90531
7.59743E6	0.02045	-6.75223
7.60936E6	0.16279	-6.78483
7.62129E6	0.15301	-6.6092
7.63322E6	-0.02362	-6.20746
7.64515E6	0.07994	-6.43848
7.65708E6	0.08536	-6.2331
7.66901E6	0.06296	-6.4939
7.68094E6	0.02515	-6.29166
7.69287E6	0.13045	-6.35239
7.7048E6	0.11099	-6.22684
7.71673E6	0.10359	-6.24564
7.72866E6	0.03404	-6.03266
7.74059E6	0.06891	-6.08288
7.75252E6	0.15842	-5.99693
7.76445E6	0.13427	-5.85945
7.77638E6	0.14598	-5.99506
7.78831E6	0.02884	-5.42421
7.80024E6	0.08012	-5.52846
7.81217E6	0.09011	-5.80891
7.82411E6	0.0758	-5.29899
7.83604E6	0.19595	-5.62146
7.84797E6	0.14921	-5.56881
7.8599E6	0.02531	-5.22191
7.87183E6	0.22693	-5.3782
7.88376E6	0.07564	-4.97446
7.89569E6	0.11359	-5.12137
7.90762E6	0.09705	-4.95616
7.91955E6	0.08753	-4.70351
7.93148E6	0.06027	-4.79039
7.94341E6	0.11516	-4.7963
7.95534E6	0.08912	-4.42816
7.96727E6	0.08401	-4.31414
7.9792E6	0.11797	-4.66905
7.99113E6	0.11676	-4.2301
8.00306E6	0.10407	-4.04279
8.01499E6	0.07992	-4.33494
8.02692E6	0.05753	-3.97719
8.03885E6	0.13107	-3.92359
8.05078E6	0.1399	-3.97224
8.06271E6	0.13213	-3.84178
8.07464E6	0.12401	-3.74369
8.08657E6	0.10319	-3.67686
8.0985E6	0.15195	-3.64572
8.11043E6	0.1397	-3.59335
8.12236E6	0.09999	-3.17072
8.13429E6	0.06216	-3.18111
8.14622E6	0.07354	-3.04037
8.15815E6	0.08863	-2.86817
8.17008E6	0.16023	-2.97484
8.18201E6	0.10841	-2.70929
8.19394E6	0.18923	-2.95983
8.20587E6	0.23254	-2.57851
8.2178E6	0.17028	-2.21722
8.22973E6	0.12413	-2.42909
8.24166E6	0.14308	-2.25963
8.25359E6	0.14716	-2.12555
8.26552E6	0.17012	-1.66388
8.27745E6	0.08633	-1.56028
8.28939E6	0.14767	-1.69781
8.30132E6	0.11269	-1.33312
8.31325E6	0.16916	-1.37459
8.32518E6	0.15164	-1.14485
8.33711E6	0.16725	-1.14351
8.34904E6	0.21938	-0.87029
8.36097E6	0.29501	-0.75425
8.3729E6	0.18887	-0.56361
8.38483E6	0.21976	-0.25799
8.39676E6	0.26307	-0.20828
8.40869E6	0.18451	0.23059
8.42062E6	0.23703	0.33428
8.43255E6	0.25107	0.84309
8.44448E6	0.31247	0.85022
8.45641E6	0.27314	0.88449
8.46834E6	0.34828	1.2234
8.48027E6	0.38272	1.59594
8.4922E6	0.34624	1.80891
8.50413E6	0.48689	2.03542
8.51606E6	0.44883	2.61299
8.52799E6	0.52237	3.22851
8.53992E6	0.55541	3.62865
8.55185E6	0.59002	3.9978
8.56378E6	0.6609	4.7387
8.57571E6	0.85676	5.07183
8.58764E6	0.96543	5.93688
8.59957E6	1.24014	6.83171
8.6115E6	1.613	7.68719
8.62343E6	2.30224	8.88472
8.63536E6	3.58585	10.17474
8.64729E6	4.60004	10.25946
8.65922E6	5.94376	11.93128
8.67115E6	9.32189	12.50222
8.68308E6	10.97661	9.08962
8.69501E6	8.8743	9.10234
8.70694E6	9.97357	12.7504
8.71887E6	16.25078	14.52522
8.7308E6	23.77334	6.23761
8.74273E6	16.76968	-1.89428
8.75467E6	10.60202	0.57034
8.7666E6	9.71002	5.01074
8.77853E6	13.10069	8.28948
8.79046E6	18.1917	4.66429
8.80239E6	13.84016	-0.40054
8.81432E6	9.21485	2.59533
8.82625E6	8.16567	7.51551
8.83818E6	9.4309	12.95153
8.85011E6	13.18596	19.33259
8.86204E6	22.45739	26.99935
8.87397E6	44.3115	31.37699
8.8859E6	75.69286	4.25142
8.89783E6	56.21469	-38.09533
8.90976E6	28.14309	-40.33306
8.92169E6	15.06179	-33.00379
8.93362E6	9.40704	-26.79279
8.94555E6	6.62484	-22.26593
8.95748E6	4.7449	-18.17908
8.96941E6	3.7159	-15.521
8.98134E6	3.18383	-13.3439
8.99327E6	2.71764	-11.3496
9.0052E6	2.60582	-9.68624
9.01713E6	2.36691	-7.79145
9.02906E6	2.39645	-6.61848
9.04099E6	2.25433	-4.40546
9.05292E6	2.43449	-2.91372
9.06485E6	2.71305	-1.16035
9.07678E6	3.15355	1.00355
9.08871E6	3.96446	3.41828
9.10064E6	5.32367	6.69799
9.11257E6	7.84938	10.68894
9.1245E6	12.99158	16.16338
9.13643E6	24.51102	22.07463
9.14836E6	49.61879	17.17602
9.16029E6	58.89452	-20.77186
9.17222E6	32.33584	-36.91281
9.18415E6	16.36297	-32.5737
9.19608E6	9.44556	-26.80341
9.20801E6	6.34726	-22.0265
9.21994E6	4.77664	-18.93453
9.23188E6	3.81885	-15.76645
9.24381E6	3.29095	-13.2099
9.25574E6	3.14729	-11.12375
9.26767E6	3.3926	-8.69564
9.2796E6	4.02821	-6.34254
9.29153E6	5.29277	-3.34539
9.30346E6	8.35224	0.44672
9.31539E6	15.43239	3.60978
9.32732E6	29.86415	-0.42772
9.33925E6	31.69003	-21.91862
9.35118E6	16.82368	-28.45531
9.36311E6	9.01828	-25.58515
9.37504E6	5.38905	-22.4321
9.38697E6	3.57291	-19.8235
9.3989E6	2.71386	-17.96067
9.41083E6	2.05959	-16.31369
9.42276E6	1.80459	-15.02846
9.43469E6	1.50327	-13.96615
9.44662E6	1.43155	-13.24475
9.45855E6	1.26783	-12.01646
9.47048E6	1.24047	-11.26292
9.48241E6	1.45526	-10.19889
9.49434E6	1.66653	-9.28087
9.50627E6	2.25733	-8.13263
9.5182E6	3.68914	-6.84526
9.53013E6	7.2529	-6.84447
9.54206E6	9.55669	-11.57171
9.55399E6	5.77233	-14.7222
9.56592E6	2.93608	-13.87767
9.57785E6	1.94077	-12.73024
9.58978E6	1.36075	-11.69222
9.60171E6	1.071	-11.21979
9.61364E6	0.83374	-10.60885
9.62557E6	0.75316	-9.97084
9.6375E6	0.67148	-9.25162
9.64943E6	0.68732	-9.1628
9.66136E6	0.67953	-8.50209
9.67329E6	0.61169	-7.65877
9.68522E6	0.72389	-7.2333
9.69716E6	0.89018	-6.67262
9.70909E6	1.0912	-5.99905
9.72102E6	1.5744	-5.48132
9.73295E6	2.28437	-4.31028
9.74488E6	3.86757	-2.83717
9.75681E6	7.71836	-1.84194
9.76874E6	13.10213	-6.53339
9.78067E6	9.81974	-13.83969
9.7926E6	4.81572	-14.05814
9.80453E6	2.78552	-13.07374
9.81646E6	1.64593	-11.84577
9.82839E6	1.1951	-11.13442
9.84032E6	0.79923	-10.12377
9.85225E6	0.72831	-9.76722
9.86418E6	0.52574	-9.2346
9.87611E6	0.474	-9.2083
9.88804E6	0.46678	-8.76203
9.89997E6	0.31319	-8.45245
9.9119E6	0.36999	-8.26522
9.92383E6	0.23624	-7.67808
9.93576E6	0.23484	-7.70179
9.94769E6	0.15673	-7.46188
9.95962E6	0.10733	-7.14873
9.97155E6	0.24333	-7.16826
9.98348E6	0.19553	-6.97852
9.99541E6	0.33373	-7.25075
1.00073E7	0.25702	-6.88449
1.00193E7	0.1431	-6.63255
1.00312E7	0.18077	-6.46371
1.00431E7	0.22723	-6.34007
1.00551E7	0.12429	-5.83173
1.0067E7	0.14869	-5.96819
1.00789E7	0.16001	-5.99481
1.00909E7	0.14865	-5.72055
1.01028E7	0.18772	-5.93389
1.01147E7	0.16026	-5.53117
1.01266E7	0.05084	-5.08985
1.01386E7	0.10195	-5.12862
1.01505E7	0.17171	-5.12953
1.01624E7	0.19973	-5.03548
1.01744E7	0.13762	-4.87535
1.01863E7	0.10784	-4.57414
1.01982E7	0.12932	-4.54838
1.02102E7	0.15724	-4.57493
1.02221E7	0.09394	-4.59663
1.0234E7	0.1229	-4.21479
1.02459E7	0.10159	-3.96186
1.02579E7	0.13062	-3.98933
1.02698E7	0.16582	-4.16116
1.02817E7	0.14847	-3.53242
1.02937E7	0.25396	-3.69907
1.03056E7	0.24664	-3.71959
1.03175E7	0.24556	-3.18895
1.03295E7	0.34013	-2.96949
1.03414E7	0.382	-2.79392
1.03533E7	0.63082	-2.35731
1.03652E7	0.9606	-2.01703
1.03772E7	1.77478	-1.47065
1.03891E7	3.51325	-1.85911
1.0401E7	3.83508	-4.52718
1.0413E7	2.1513	-5.30627
1.04249E7	1.01697	-4.89537
1.04368E7	0.56959	-4.55651
1.04488E7	0.42692	-4.11882
1.04607E7	0.25421	-3.88313
1.04726E7	0.29079	-3.33613
1.04846E7	0.23954	-3.28002
1.04965E7	0.22058	-3.41948
1.05084E7	0.23309	-3.23853
1.05203E7	0.02015	-3.06645
1.05323E7	0.15333	-2.82794
1.05442E7	0.09881	-2.56847
1.05561E7	0.10125	-2.72126
1.05681E7	0.01345	-2.09381
1.058E7	0.08269	-1.94063
1.05919E7	0.03073	-2.12947
1.06039E7	0.09399	-2.12019
1.06158E7	0.12515	-1.79018
1.06277E7	0.08227	-1.59923
1.06396E7	0.11635	-1.47396
1.06516E7	0.14427	-1.38863
1.06635E7	0.16898	-0.99141
1.06754E7	0.12706	-1.25462
1.06874E7	0.13418	-0.66348
1.06993E7	0.19964	-0.80191
1.07112E7	0.2291	-0.22784
1.07232E7	0.34011	-0.25132
1.07351E7	0.4609	0.07457
1.0747E7	0.70687	0.52434
1.07589E7	1.0599	0.92162
1.07709E7	1.95178	1.41604
1.07828E7	3.93231	1.59862
1.07947E7	5.22681	-1.19352
1.08067E7	3.10417	-3.28876
1.08186E7	1.59611	-2.84272
1.08305E7	0.9014	-2.04205
1.08425E7	0.54878	-1.71813
1.08544E7	0.45349	-1.376
1.08663E7	0.38613	-1.19364
1.08783E7	0.24665	-0.68796
1.08902E7	0.2513	-0.65476
1.09021E7	0.26504	-0.46984
1.0914E7	0.24129	0.16265
1.0926E7	0.22238	0.25098
1.09379E7	0.14336	0.2642
1.09498E7	0.19772	0.70161
1.09618E7	0.18391	0.7053
1.09737E7	0.17743	1.0545
1.09856E7	0.18105	0.96515
1.09976E7	0.17976	1.4032
1.10095E7	0.23878	1.70625
1.10214E7	0.16288	1.90814
1.10333E7	0.2723	2.14037
1.10453E7	0.28671	2.23201
1.10572E7	0.23124	2.43854
1.10691E7	0.32199	3.23032
1.10811E7	0.32366	3.64141
1.1093E7	0.3965	3.8932
1.11049E7	0.41653	4.1061
1.11169E7	0.53301	4.57274
1.11288E7	0.61357	5.17837
1.11407E7	0.65547	5.31613
1.11526E7	0.88724	6.41592
1.11646E7	0.9633	6.78431
1.11765E7	1.35922	8.02739
1.11884E7	1.63882	9.06684
1.12004E7	2.30758	10.56724
1.12123E7	3.18091	12.15086
1.12242E7	4.64723	14.67371
1.12362E7	7.60004	18.02347
1.12481E7	13.8838	22.35677
1.126E7	27.66869	23.69551
1.12719E7	45.6587	5.74585
1.12839E7	33.65933	-18.83757
1.12958E7	16.97609	-20.50703
1.13077E7	9.37329	-16.70689
1.13197E7	5.61178	-13.04719
1.13316E7	3.81042	-10.55795
1.13435E7	2.74564	-8.53835
1.13555E7	2.08432	-7.13428
1.13674E7	1.50512	-5.67426
1.13793E7	1.33096	-5.11251
1.13913E7	1.05834	-3.86758
1.14032E7	0.96964	-3.42138
1.14151E7	0.80143	-2.44036
1.1427E7	0.7389	-2.08132
1.1439E7	0.62671	-1.47102
1.14509E7	0.56325	-0.91615
1.14628E7	0.59887	-0.30063
1.14748E7	0.52969	0.13797
1.14867E7	0.52312	0.70683
1.14986E7	0.53776	0.9373
1.15106E7	0.47445	1.22019
1.15225E7	0.41433	1.95176
1.15344E7	0.46751	2.17769
1.15463E7	0.49262	2.75164
1.15583E7	0.52806	3.25832
1.15702E7	0.46726	3.30942
1.15821E7	0.52145	3.75341
1.15941E7	0.54768	4.64855
1.1606E7	0.5127	4.88378
1.16179E7	0.67538	5.5584
1.16299E7	0.70368	6.12367
1.16418E7	0.74382	6.62439
1.16537E7	0.75859	7.10542
1.16656E7	0.9317	8.07817
1.16776E7	1.01593	8.78924
1.16895E7	1.18252	9.81528
1.17014E7	1.34632	10.82918
1.17134E7	1.60039	12.13683
1.17253E7	1.98138	13.52232
1.17372E7	2.46686	15.24485
1.17492E7	3.017	17.20209
1.17611E7	3.82588	19.57444
1.1773E7	4.92159	22.60879
1.17849E7	6.83664	26.5492
1.17969E7	9.72146	31.39011
1.18088E7	15.51527	38.92357
1.18207E7	26.29841	47.94831
1.18327E7	49.70996	56.9114
1.18446E7	95.86186	43.36396
1.18565E7	110.05128	-25.25151
1.18685E7	62.57703	-57.78909
1.18804E7	32.7501	-52.00258
1.18923E7	18.89926	-42.84783
1.19043E7	11.99912	-35.08948
1.19162E7	8.04325	-29.29606
1.19281E7	6.10757	-25.34265
1.194E7	4.66067	-22.10736
1.1952E7	3.50332	-19.42491
1.19639E7	3.01896	-17.62081
1.19758E7	2.37835	-15.62869
1.19878E7	2.08582	-14.44344
1.19997E7	1.66641	-12.98211
1.20116E7	1.46555	-12.11693
1.20236E7	1.26103	-11.11832
1.20355E7	1.20592	-10.27242
1.20474E7	1.01306	-9.59721
1.20593E7	0.85549	-8.87009
1.20713E7	0.86301	-8.23006
1.20832E7	0.72667	-7.61836
1.20951E7	0.69969	-7.42096
1.21071E7	0.65882	-6.80739
1.2119E7	0.49668	-6.11042
1.21309E7	0.5004	-5.83753
1.21429E7	0.46443	-5.51659
1.21548E7	0.44426	-5.06659
1.21667E7	0.45517	-4.93325
1.21786E7	0.43067	-4.59242
1.21906E7	0.33673	-3.98311
1.22025E7	0.34625	-3.86082
1.22144E7	0.35176	-3.43046
1.22264E7	0.33751	-3.19262
1.22383E7	0.32133	-3.18504
1.22502E7	0.25213	-2.77426
1.22622E7	0.31487	-2.56896
1.22741E7	0.26154	-2.02712
1.2286E7	0.25966	-1.82482
1.2298E7	0.31837	-1.58177
1.23099E7	0.35649	-1.0748
1.23218E7	0.28587	-1.39612
1.23337E7	0.28115	-0.72424
1.23457E7	0.29232	-0.60388
1.23576E7	0.28482	-0.33397
1.23695E7	0.31593	0.02595
1.23815E7	0.3333	0.46567
1.23934E7	0.32614	0.74952
1.24053E7	0.34986	0.71957
1.24173E7	0.44917	1.2119
1.24292E7	0.46543	2.00002
1.24411E7	0.53689	2.06672
1.2453E7	0.67751	2.57241
1.2465E7	0.79207	3.25241
1.24769E7	1.06081	4.11487
1.24888E7	1.50442	4.82929
1.25008E7	2.09701	5.80479
1.25127E7	3.45535	7.33584
1.25246E7	6.04463	8.88428
1.25366E7	11.53652	9.09382
1.25485E7	17.44858	2.28071
1.25604E7	13.14316	-6.37805
1.25723E7	7.01054	-7.00696
1.25843E7	3.92464	-5.88673
1.25962E7	2.4226	-4.26426
1.26081E7	1.71297	-3.14768
1.26201E7	1.27655	-2.28269
1.2632E7	0.92008	-1.64722
1.26439E7	0.79176	-0.78928
1.26559E7	0.64255	-0.57802
1.26678E7	0.56864	-0.02538
1.26797E7	0.42595	0.49821
1.26916E7	0.36631	0.8042
1.27036E7	0.34095	1.14787
1.27155E7	0.31604	1.40044
1.27274E7	0.33247	2.00687
1.27394E7	0.34027	1.93964
1.27513E7	0.31706	2.44595
1.27632E7	0.27155	2.42059
1.27752E7	0.30043	3.00292
1.27871E7	0.20784	2.96231
1.2799E7	0.23973	3.63496
1.2811E7	0.25528	3.77363
1.28229E7	0.25534	4.05112
1.28348E7	0.25856	4.32283
1.28467E7	0.29698	4.82346
1.28587E7	0.21419	4.73948
1.28706E7	0.30759	5.33495
1.28825E7	0.27467	5.66314
1.28945E7	0.24965	5.97406
1.29064E7	0.19351	6.08193
1.29183E7	0.27056	6.31125
1.29303E7	0.27076	6.72681
1.29422E7	0.2656	7.28063
1.29541E7	0.40554	7.42945
1.2966E7	0.38304	7.7412
1.2978E7	0.57698	8.32663
1.29899E7	0.54881	8.50646
1.30018E7	0.34524	8.99794
1.30138E7	0.48426	9.59498
1.30257E7	0.3628	9.53816
1.30376E7	0.5264	10.32639
1.30496E7	0.56477	11.10518
1.30615E7	0.5938	11.69697
1.30734E7	0.61604	12.02434
1.30853E7	0.7905	12.87646
1.30973E7	0.72375	13.41411
1.31092E7	0.87045	14.00672
1.31211E7	0.83833	14.74819
1.31331E7	1.05352	15.64665
1.3145E7	1.09244	16.32109
1.31569E7	1.15813	17.35079
1.31689E7	1.38528	18.36993
1.31808E7	1.57036	19.4935
1.31927E7	1.69421	20.63806
1.32046E7	1.82538	22.09203
1.32166E7	2.06613	23.27615
1.32285E7	2.22001	24.87441
1.32404E7	2.80417	26.86266
1.32524E7	3.30819	28.87217
1.32643E7	3.91597	31.45069
1.32762E7	4.23644	33.88141
1.32882E7	5.38796	36.91938
1.33001E7	6.30582	40.80453
1.3312E7	7.71067	45.54595
1.3324E7	9.86751	50.99925
1.33359E7	12.78694	57.72233
1.33478E7	17.24628	66.73057
1.33597E7	24.96614	78.19789
1.33717E7	36.32319	92.60155
1.33836E7	57.83583	111.97966
1.33955E7	102.81741	132.17415
1.34075E7	188.59926	126.33285
1.34194E7	272.43374	14.3082
1.34313E7	208.75493	-115.43179
1.34433E7	115.59723	-135.28672
1.34552E7	65.74334	-116.74176
1.34671E7	40.17614	-96.92544
1.3479E7	27.90534	-82.76813
1.3491E7	19.97606	-70.82439
1.35029E7	15.17526	-62.12806
1.35148E7	11.40219	-54.5586
1.35268E7	9.22065	-49.10177
1.35387E7	7.51991	-44.59785
1.35506E7	6.50759	-40.85074
1.35626E7	5.36527	-37.42309
1.35745E7	4.46112	-34.67111
1.35864E7	3.87484	-32.21225
1.35983E7	3.3855	-30.16291
1.36103E7	3.06347	-28.30213
1.36222E7	2.56245	-26.66374
1.36341E7	2.39061	-25.2474
1.36461E7	2.20776	-23.95682
1.3658E7	1.96596	-22.75959
1.36699E7	1.72204	-21.7819
1.36819E7	1.64213	-20.56472
1.36938E7	1.42957	-19.65955
1.37057E7	1.33136	-18.8948
1.37177E7	1.2913	-18.02261
1.37296E7	1.14406	-17.21271
1.37415E7	1.04105	-16.84345
1.37534E7	0.96046	-16.0861
1.37654E7	0.99394	-15.44163
1.37773E7	0.91443	-15.279
1.37892E7	0.68835	-14.19427
1.38012E7	0.82242	-14.12981
1.38131E7	0.70945	-13.4116
1.3825E7	0.64654	-12.97482
1.3837E7	0.62074	-12.51704
1.38489E7	0.62859	-12.1169
1.38608E7	0.60014	-11.94897
1.38727E7	0.51433	-11.3462
1.38847E7	0.53	-11.09418
1.38966E7	0.52906	-10.79154
1.39085E7	0.52764	-10.59091
1.39205E7	0.41041	-10.13062
1.39324E7	0.39395	-9.74309
1.39443E7	0.3913	-9.26682
1.39563E7	0.46093	-9.35946
1.39682E7	0.36007	-8.61342
1.39801E7	0.30043	-8.66843
1.3992E7	0.39356	-8.32201
1.4004E7	0.29066	-7.99631
1.40159E7	0.33962	-8.17184
1.40278E7	0.38154	-7.89058
1.40398E7	0.33838	-7.61999
1.40517E7	0.32741	-7.2766
1.40636E7	0.2593	-6.88906
1.40756E7	0.23443	-6.72266
1.40875E7	0.30524	-6.98155
1.40994E7	0.25162	-6.30043
1.41113E7	0.25688	-6.54354
1.41233E7	0.21584	-6.06174
1.41352E7	0.23075	-5.94393
1.41471E7	0.20471	-5.78248
1.41591E7	0.21003	-5.44207
1.4171E7	0.17832	-5.45697
1.41829E7	0.27137	-5.12585
1.41949E7	0.24326	-4.86127
1.42068E7	0.24113	-4.72622
1.42187E7	0.20087	-4.62438
1.42307E7	0.18887	-4.32054
1.42426E7	0.17049	-4.40103
1.42545E7	0.20766	-3.76626
1.42664E7	0.20198	-3.79704
1.42784E7	0.24276	-3.62097
1.42903E7	0.23381	-3.25115
1.43022E7	0.26016	-3.27988
1.43142E7	0.24647	-3.23823
1.43261E7	0.28444	-2.77079
1.4338E7	0.27541	-2.43008
1.435E7	0.29981	-2.1733
1.43619E7	0.35495	-2.10376
1.43738E7	0.33392	-1.68944
1.43857E7	0.43095	-1.47341
1.43977E7	0.47901	-1.15206
1.44096E7	0.49021	-0.84671
1.44215E7	0.64827	-0.42537
1.44335E7	0.77482	0.24421
1.44454E7	1.00785	0.71328
1.44573E7	1.25544	1.25377
1.44693E7	1.70603	1.90596
1.44812E7	2.48663	3.3723
1.44931E7	3.7981	4.51335
1.4505E7	6.24686	5.68332
1.4517E7	10.82809	5.85407
1.45289E7	16.69595	1.25939
1.45408E7	15.7707	-7.66371
1.45528E7	9.82714	-11.10821
1.45647E7	5.73169	-10.3215
1.45766E7	3.57318	-9.12628
1.45886E7	2.32633	-7.91588
1.46005E7	1.69025	-7.16603
1.46124E7	1.31403	-6.56032
1.46243E7	0.94419	-5.70863
1.46363E7	0.81026	-5.32246
1.46482E7	0.63285	-4.57598
1.46601E7	0.50272	-4.4527
1.46721E7	0.49202	-4.28066
1.4684E7	0.40292	-3.74383
1.46959E7	0.28026	-3.4964
1.47079E7	0.29117	-3.09154
1.47198E7	0.25211	-3.15076
1.47317E7	0.26458	-2.65718
1.47437E7	0.23797	-2.59242
1.47556E7	0.18677	-2.57495
1.47675E7	0.20061	-2.35312
1.47794E7	0.16189	-2.10142
1.47914E7	0.16972	-1.89859
1.48033E7	0.13664	-1.64804
1.48152E7	0.16464	-1.67461
1.48272E7	0.09905	-1.45977
1.48391E7	0.14604	-1.3901
1.4851E7	0.11109	-1.17855
1.4863E7	0.06148	-0.96101
1.48749E7	0.10946	-0.78796
1.48868E7	0.06595	-0.63484
1.48987E7	0.08019	-0.52931
1.49107E7	0.05073	-0.47185
1.49226E7	0.10255	-0.46092
1.49345E7	0.04852	-0.25159
1.49465E7	0.05485	-0.11456
1.49584E7	0.03567	0.04033
1.49703E7	0.07422	0.15587
1.49823E7	0.07006	0.22371
1.49942E7	0.07404	0.37292
1.50061E7	-0.02711	0.49401
1.5018E7	0.07929	0.59365
1.503E7	0.08988	0.60094
1.50419E7	0.02522	0.84295
1.50538E7	0.08855	1.22871
1.50658E7	0.05403	1.20107
1.50777E7	0.08134	1.22609
1.50896E7	0.05692	1.38474
1.51016E7	0.11592	1.65656
1.51135E7	0.08204	1.5272
1.51254E7	0.08925	1.83766
1.51374E7	0.07926	1.88412
1.51493E7	0.1141	2.22175
1.51612E7	0.0885	2.29083
1.51731E7	0.08425	2.40136
1.51851E7	0.10869	2.67281
1.5197E7	0.07345	2.69564
1.52089E7	0.14588	3.01319
1.52209E7	0.05485	2.88092
1.52328E7	0.07838	3.21089
1.52447E7	0.10528	3.22328
1.52567E7	0.07125	3.34334
1.52686E7	0.07144	3.3914
1.52805E7	0.08262	3.53577
1.52924E7	0.12665	4.12073
1.53044E7	0.20637	4.28047
1.53163E7	0.18669	4.59299
1.53282E7	0.0727	4.19744
1.53402E7	0.11176	4.45049
1.53521E7	0.13981	4.73089
1.5364E7	0.10047	4.89785
1.5376E7	0.22321	5.33499
1.53879E7	0.16366	5.40549
1.53998E7	0.20518	5.70264
1.54117E7	0.17153	5.65041
1.54237E7	0.29136	6.25552
1.54356E7	0.23671	6.21331
1.54475E7	0.22843	6.65402
1.54595E7	0.24144	6.83235
1.54714E7	0.33564	7.2611
1.54833E7	0.28043	7.16716
1.54953E7	0.29105	7.35797
1.55072E7	0.34726	7.68912
1.55191E7	0.32921	8.07369
1.5531E7	0.34901	8.36067
1.5543E7	0.38388	8.85772
1.55549E7	0.42994	9.17639
1.55668E7	0.46499	9.32409
1.55788E7	0.48591	9.70308
1.55907E7	0.54974	10.25215
1.56026E7	0.48867	10.45528
1.56146E7	0.62117	10.90069
1.56265E7	0.74815	11.6871
1.56384E7	0.71719	11.84738
1.56504E7	0.73187	12.28706
1.56623E7	0.92414	13.01775
1.56742E7	0.98327	13.74729
1.56861E7	1.09977	14.42382
1.56981E7	1.23366	15.28928
1.571E7	1.359	15.89144
1.57219E7	1.49159	16.65353
1.57339E7	1.50518	17.32154
1.57458E7	1.88354	18.71805
1.57577E7	2.07949	19.57646
1.57697E7	2.2216	20.74065
1.57816E7	2.57471	22.20891
1.57935E7	2.93141	23.6029
1.58054E7	3.30025	25.34005
1.58174E7	4.06019	27.48765
1.58293E7	4.50243	29.60185
1.58412E7	5.4084	32.18919
1.58532E7	6.68867	35.22777
1.58651E7	7.76885	38.63283
1.5877E7	10.02736	43.04938
1.5889E7	13.05176	48.00372
1.59009E7	16.91186	54.16576
1.59128E7	22.70927	62.26339
1.59247E7	32.45942	71.87066
1.59367E7	48.63979	83.03114
1.59486E7	77.75578	93.915
1.59605E7	126.83454	89.71115
1.59725E7	180.23646	40.83223
1.59844E7	177.90675	-46.38946
1.59963E7	121.31119	-90.79951
1.60083E7	75.84797	-92.5558
1.60202E7	48.40219	-82.48375
1.60321E7	32.9086	-71.14073
1.60441E7	23.64079	-61.70907
1.6056E7	17.39505	-54.43836
1.60679E7	13.48028	-48.1866
1.60798E7	10.73158	-43.38459
1.60918E7	8.85495	-39.10704
1.61037E7	7.25609	-35.59024
1.61156E7	6.08839	-33.33436
1.61276E7	5.26461	-30.44715
1.61395E7	4.33207	-28.31311
1.61514E7	4.06089	-26.41184
1.61634E7	3.49868	-24.73384
1.61753E7	3.01894	-22.96191
1.61872E7	2.88272	-21.93124
1.61991E7	2.45513	-20.64082
1.62111E7	2.21768	-19.47549
1.6223E7	1.89608	-18.59625
1.62349E7	1.80453	-17.6815
1.62469E7	1.63364	-16.52292
1.62588E7	1.48432	-16.23141
1.62707E7	1.4091	-15.22922
1.62827E7	1.33278	-14.86774
1.62946E7	1.25498	-14.30553
1.63065E7	1.07131	-13.63313
1.63184E7	1.03718	-13.19415
1.63304E7	0.94208	-12.50502
1.63423E7	0.85467	-12.13811
1.63542E7	0.81904	-11.62609
1.63662E7	0.80565	-11.43872
1.63781E7	0.76094	-10.91184
1.639E7	0.69632	-10.56102
1.6402E7	0.68045	-10.40015
1.64139E7	0.64314	-10.09617
1.64258E7	0.60275	-9.48088
1.64377E7	0.57241	-9.26388
1.64497E7	0.55604	-9.05359
1.64616E7	0.4539	-8.51596
1.64735E7	0.4312	-8.50222
1.64855E7	0.43137	-8.0851
1.64974E7	0.39196	-7.95335
1.65093E7	0.38329	-7.65805
1.65213E7	0.38174	-7.46728
1.65332E7	0.35735	-7.11546
1.65451E7	0.34997	-6.93697
1.65571E7	0.35319	-6.74686
1.6569E7	0.30585	-6.53188
1.65809E7	0.33435	-6.31377
1.65928E7	0.30166	-6.13254
1.66048E7	0.27497	-6.17878
1.66167E7	0.30479	-5.82994
1.66286E7	0.20855	-5.70635
1.66406E7	0.24029	-5.6109
1.66525E7	0.23774	-5.21925
1.66644E7	0.23028	-5.14662
1.66764E7	0.19782	-4.97667
1.66883E7	0.208	-5.00273
1.67002E7	0.17804	-4.72056
1.67121E7	0.15671	-4.67413
1.67241E7	0.16074	-4.35924
1.6736E7	0.16105	-4.17088
1.67479E7	0.12374	-4.02524
1.67599E7	0.11457	-3.81903
1.67718E7	0.19315	-4.19053
1.67837E7	0.13205	-3.53542
1.67957E7	0.09427	-3.6089
1.68076E7	0.14381	-3.4417
1.68195E7	0.10925	-3.47002
1.68314E7	0.12168	-3.12515
1.68434E7	0.13277	-3.08807
1.68553E7	0.09623	-3.04224
1.68672E7	0.09902	-2.84244
1.68792E7	0.09659	-2.61168
1.68911E7	0.07052	-2.51108
1.6903E7	0.08085	-2.6133
1.6915E7	0.10368	-2.16594
1.69269E7	0.09453	-2.24529
1.69388E7	0.08972	-2.14476
1.69507E7	0.08634	-2.12924
1.69627E7	0.09736	-1.87492
1.69746E7	0.05505	-1.8999
1.69865E7	0.05089	-1.87863
1.69985E7	0.04282	-1.57512
1.70104E7	0.04126	-1.63287
1.70223E7	0.08328	-1.22544
1.70343E7	0.07102	-1.10158
1.70462E7	0.05453	-1.26712
1.70581E7	0.00867	-1.20115
1.70701E7	0.09776	-0.70334
1.7082E7	0.09615	-0.79961
1.70939E7	0.07956	-0.6488
1.71058E7	0.06217	-0.54445
1.71178E7	0.06185	-0.45157
1.71297E7	0.05833	-0.56251
1.71416E7	0.06307	-0.54378
1.71536E7	0.06083	-0.02834
1.71655E7	0.04237	-0.00101
1.71774E7	0.10158	0.05171
1.71894E7	0.10081	0.2932
1.72013E7	0.03264	0.32298
1.72132E7	0.09121	0.4089
1.72251E7	0.10318	0.40886
1.72371E7	0.08558	0.64801
1.7249E7	0.11764	0.92789
1.72609E7	0.08831	0.75438
1.72729E7	0.0961	1.07374
1.72848E7	0.09068	1.0633
1.72967E7	0.12425	1.27624
1.73087E7	0.10371	1.48756
1.73206E7	0.05045	1.3471
1.73325E7	0.11815	1.55887
1.73444E7	0.14902	1.9042
1.73564E7	0.14059	1.96148
1.73683E7	0.14432	1.88989
1.73802E7	0.12676	2.0862
1.73922E7	0.17739	2.21205
1.74041E7	0.16469	2.6188
1.7416E7	0.14925	2.56113
1.7428E7	0.16474	2.72337
1.74399E7	0.19917	3.13643
1.74518E7	0.23784	3.2025
1.74638E7	0.26868	3.32015
1.74757E7	0.22906	3.55929
1.74876E7	0.31862	4.01128
1.74995E7	0.33295	4.08812
1.75115E7	0.26916	3.99207
1.75234E7	0.35264	4.6484
1.75353E7	0.38243	4.83349
1.75473E7	0.44026	5.01094
1.75592E7	0.44044	5.16587
1.75711E7	0.50631	5.35915
1.75831E7	0.48077	5.59528
1.7595E7	0.57686	6.19791
1.76069E7	0.65209	6.45054
1.76188E7	0.67136	6.82769
1.76308E7	0.76031	7.30881
1.76427E7	0.86124	7.5861
1.76546E7	0.98223	8.17936
1.76666E7	1.02893	8.56496
1.76785E7	1.22413	9.17168
1.76904E7	1.36779	9.76371
1.77024E7	1.54537	10.63851
1.77143E7	1.69076	11.31582
1.77262E7	1.89755	11.99595
1.77381E7	2.24215	13.17152
1.77501E7	2.64665	13.86643
1.7762E7	3.22885	15.44046
1.77739E7	3.75181	16.7213
1.77859E7	4.70777	18.36131
1.77978E7	5.94438	20.52639
1.78097E7	7.47285	22.84335
1.78217E7	9.37012	25.28538
1.78336E7	12.34194	28.5649
1.78455E7	17.15211	32.46092
1.78574E7	24.31545	36.30609
1.78694E7	36.1465	39.55639
1.78813E7	53.44488	37.25587
1.78932E7	73.1525	21.6754
1.79052E7	79.04115	-8.22259
1.79171E7	63.91146	-32.18099
1.7929E7	44.23216	-39.87629
1.7941E7	29.98946	-38.64783
1.79529E7	20.94776	-35.28247
1.79648E7	15.03233	-31.32413
1.79768E7	11.12432	-28.0291
1.79887E7	8.76671	-25.12279
1.80006E7	6.91269	-22.5363
1.80125E7	5.64087	-20.42874
1.80245E7	4.57377	-18.69667
1.80364E7	3.88526	-17.15928
1.80483E7	3.31694	-15.91604
1.80603E7	2.91608	-14.70685
1.80722E7	2.51539	-13.72955
1.80841E7	2.18708	-12.80184
1.80961E7	1.86897	-11.96003
1.8108E7	1.63614	-11.46083
1.81199E7	1.51744	-10.79627
1.81318E7	1.37343	-10.13431
1.81438E7	1.24436	-9.7895
1.81557E7	1.10553	-9.37319
1.81676E7	0.99352	-8.80418
1.81796E7	0.90577	-8.40553
1.81915E7	0.83047	-8.12349
1.82034E7	0.73292	-7.54378
1.82154E7	0.64926	-7.25651
1.82273E7	0.6169	-7.06082
1.82392E7	0.62942	-7.05032
1.82511E7	0.53188	-6.55437
1.82631E7	0.51621	-6.10101
1.8275E7	0.44744	-6.05918
1.82869E7	0.46223	-5.81435
1.82989E7	0.43677	-5.96808
1.83108E7	0.37807	-5.44465
1.83227E7	0.35126	-5.10387
1.83347E7	0.31236	-5.15196
1.83466E7	0.29876	-4.82899
1.83585E7	0.24959	-4.50939
1.83704E7	0.24109	-4.58694
1.83824E7	0.21462	-4.23622
1.83943E7	0.26605	-4.26136
1.84062E7	0.21616	-4.26768
1.84182E7	0.1737	-4.06037
1.84301E7	0.17674	-3.7892
1.8442E7	0.16509	-3.63206
1.8454E7	0.17111	-3.6705
1.84659E7	0.15425	-3.56475
1.84778E7	0.13436	-3.16592
1.84898E7	0.12335	-3.49035
1.85017E7	0.11464	-3.16665
1.85136E7	0.10926	-2.79618
1.85255E7	0.09393	-2.65392
1.85375E7	0.10073	-3.00583
1.85494E7	0.08926	-2.80764
1.85613E7	0.09948	-2.48262
1.85733E7	0.05075	-2.59515
1.85852E7	0.07089	-2.53337
1.85971E7	0.0473	-2.61349
1.86091E7	0.05623	-2.13938
1.8621E7	0.06311	-2.22417
1.86329E7	0.04687	-2.10864
1.86448E7	0.02023	-2.04528
1.86568E7	0.06169	-2.106
1.86687E7	0.02058	-1.86231
1.86806E7	-0.00632	-1.7406
1.86926E7	0.02858	-1.60386
1.87045E7	-0.00887	-1.68739
1.87164E7	0.0028	-1.56863
1.87284E7	-0.02117	-1.43068
1.87403E7	-0.02362	-1.52392
1.87522E7	0.01076	-1.35494
1.87641E7	-0.00676	-1.38598
1.87761E7	0.02296	-1.34914
1.8788E7	-0.03157	-1.14844
1.87999E7	-0.00404	-1.41046
1.88119E7	-0.0078	-1.02054
1.88238E7	-0.01667	-1.14762
1.88357E7	-0.00356	-0.79106
1.88477E7	-0.04059	-0.97612
1.88596E7	-0.02043	-0.7426
1.88715E7	7.39446E-4	-0.72747
1.88835E7	-0.01318	-0.72975
1.88954E7	-0.03685	-0.70107
1.89073E7	-0.06058	-0.72842
1.89192E7	-0.03089	-0.44333
1.89312E7	-0.03091	-0.43729
1.89431E7	-0.03738	-0.57002
1.8955E7	-0.02295	-0.58474
1.8967E7	-0.02794	-0.27147
1.89789E7	-0.03384	-0.12836
1.89908E7	-0.05498	-0.34626
1.90028E7	-0.07259	-0.40943
1.90147E7	-0.05041	-0.44425
1.90266E7	-0.06309	-0.01475
1.90385E7	-0.00976	0.23521
1.90505E7	-0.02719	0.10225
1.90624E7	-0.04081	-0.14392
1.90743E7	-0.05503	0.11982
1.90863E7	-0.06208	0.07114
1.90982E7	-0.04829	0.18843
1.91101E7	-0.04075	0.37733
1.91221E7	-0.06625	0.27987
1.9134E7	-0.05716	0.24944
1.91459E7	-0.07703	0.21308
1.91578E7	-0.04033	0.44091
1.91698E7	-0.07137	0.19296
1.91817E7	-0.08186	0.40244
1.91936E7	-0.06021	0.37173
1.92056E7	-0.04936	0.5849
1.92175E7	-0.08989	0.44056
1.92294E7	-0.06408	0.49081
1.92414E7	-0.07275	0.58499
1.92533E7	-0.09154	0.50096
1.92652E7	-0.06494	0.78228
1.92771E7	-0.06306	0.84117
1.92891E7	-0.0614	0.78747
1.9301E7	-0.10051	0.73028
1.93129E7	-0.0845	0.94418
1.93249E7	-0.11912	0.84186
1.93368E7	-0.08559	0.85357
1.93487E7	-0.09164	0.88751
1.93607E7	-0.0883	1.05406
1.93726E7	-0.06728	1.22749
1.93845E7	-0.07138	1.41199
1.93965E7	-0.06528	1.07098
1.94084E7	-0.09374	1.34645
1.94203E7	-0.0711	1.31409
1.94322E7	-0.10701	1.20673
1.94442E7	-0.08168	1.3814
1.94561E7	-0.09737	1.4106
1.9468E7	-0.07452	1.48833
1.948E7	-0.05986	1.45151
1.94919E7	-0.06921	1.52694
1.95038E7	-0.08361	1.53662
1.95158E7	-0.10312	1.70116
1.95277E7	-0.04432	1.69186
1.95396E7	-0.08038	1.56922
1.95515E7	-0.09555	1.59206
1.95635E7	-0.08514	1.65173
1.95754E7	-0.09169	1.73597
1.95873E7	-0.06462	1.89407
1.95993E7	-0.09283	1.92909
1.96112E7	-0.06064	1.79372
1.96231E7	-0.08342	1.92704
1.96351E7	-0.06751	2.07729
1.9647E7	-0.09678	1.97155
1.96589E7	-0.05141	2.11468
1.96708E7	-0.05078	2.05431
1.96828E7	-0.03852	2.29485
1.96947E7	-0.06787	2.09202
1.97066E7	-0.06943	2.36406
1.97186E7	-0.04006	2.56084
1.97305E7	-0.05532	2.11607
1.97424E7	-0.0714	2.36034
1.97544E7	-0.04673	2.57684
1.97663E7	-0.07413	2.32825
1.97782E7	-0.08612	2.44652
1.97901E7	-0.082	2.30611
1.98021E7	-0.0793	2.41552
1.9814E7	-0.04862	2.54042
1.98259E7	-0.04806	2.61445
1.98379E7	8.52045E-4	2.98639
1.98498E7	-0.06259	2.596
1.98617E7	-0.0342	2.93883
1.98737E7	-0.03967	2.82338
1.98856E7	0.00264	3.02121
1.98975E7	-0.0666	2.86595
1.99095E7	-0.03312	3.06996
1.99214E7	-0.03203	3.01507
1.99333E7	-0.0078	3.1065
1.99452E7	-0.0195	3.00137
1.99572E7	0.00906	3.26089
1.99691E7	0.00246	3.21126
1.9981E7	-0.01685	3.20569
1.9993E7	0.00562	3.47389
2.00049E7	0.03341	3.42751
2.00168E7	0.04777	3.6488
2.00288E7	0.06118	3.76136
2.00407E7	0.06162	3.68739
2.00526E7	0.11996	4.00207
2.00645E7	0.0901	4.09339
2.00765E7	0.08708	3.9101
2.00884E7	0.10896	3.93272
2.01003E7	0.16721	4.09268
2.01123E7	0.16437	4.30537
2.01242E7	0.21903	4.64371
2.01361E7	0.28658	4.55416
2.01481E7	0.33847	4.84812
2.016E7	0.34503	4.90592
2.01719E7	0.40074	5.01943
2.01838E7	0.53248	5.34023
2.01958E7	0.58999	5.38247
2.02077E7	0.72117	5.70975
2.02196E7	0.83872	6.06653
2.02316E7	1.08478	6.35912
2.02435E7	1.31348	6.52058
2.02554E7	1.69544	7.24031
2.02674E7	2.10065	7.46282
2.02793E7	2.80922	8.08157
2.02912E7	3.7232	8.5966
2.03032E7	5.10197	9.23238
2.03151E7	7.00448	9.22498
2.0327E7	9.43383	8.52564
2.03389E7	11.84604	6.32557
2.03509E7	12.88294	2.37895
2.03628E7	11.50052	-1.23104
2.03747E7	8.98599	-3.15466
2.03867E7	6.63644	-3.59644
2.03986E7	4.81166	-3.32083
2.04105E7	3.57831	-2.62796
2.04225E7	2.73118	-2.47915
2.04344E7	2.0918	-1.90366
2.04463E7	1.69235	-1.62924
2.04582E7	1.32809	-1.13102
2.04702E7	1.06127	-0.65106
2.04821E7	0.90509	-0.34554
2.0494E7	0.78556	-0.13618
2.0506E7	0.62765	0.00756
2.05179E7	0.54116	0.07594
2.05298E7	0.45757	0.40863
2.05418E7	0.38084	0.70934
2.05537E7	0.31228	0.71871
2.05656E7	0.29125	0.89376
2.05775E7	0.23779	1.01087
2.05895E7	0.20233	1.10528
2.06014E7	0.18456	1.23422
2.06133E7	0.17126	1.37495
2.06253E7	0.1227	1.45825
2.06372E7	0.09687	1.6215
2.06491E7	0.09167	1.75275
2.06611E7	0.07186	1.77278
2.0673E7	0.04499	1.73768
2.06849E7	0.06666	1.8037
2.06968E7	0.03196	2.02587
2.07088E7	0.03651	2.02415
2.07207E7	0.01985	2.21747
2.07326E7	0.00568	2.33247
2.07446E7	0.01709	2.49033
2.07565E7	0.01358	2.25913
2.07684E7	0.0245	2.598
2.07804E7	-0.04668	2.25783
2.07923E7	-0.0404	2.37447
2.08042E7	-0.03678	2.33896
2.08162E7	-0.03806	2.32712
2.08281E7	-0.03617	2.37176
2.084E7	-0.06676	2.53513
2.08519E7	-0.05406	2.78112
2.08639E7	-0.08639	2.66578
2.08758E7	-0.06193	2.75524
2.08877E7	-0.09619	2.83468
2.08997E7	-0.0593	2.90771
2.09116E7	-0.08507	2.7147
2.09235E7	-0.05764	3.01665
2.09355E7	-0.06452	2.85358
2.09474E7	-0.08363	2.71436
2.09593E7	-0.08359	2.98272
2.09712E7	-0.11457	2.91138
2.09832E7	-0.09004	3.07563
2.09951E7	-0.07677	3.05631
2.1007E7	-0.06327	3.15592
2.1019E7	-0.07445	3.16557
2.10309E7	-0.10706	3.10312
2.10428E7	-0.07748	3.26281
2.10548E7	-0.09927	3.34458
2.10667E7	-0.10801	3.14464
2.10786E7	-0.11476	3.43917
2.10905E7	-0.06099	3.44627
2.11025E7	-0.07157	3.45937
2.11144E7	-0.08325	3.5089
2.11263E7	-0.12313	3.4533
2.11383E7	-0.10536	3.53092
2.11502E7	-0.07366	3.61229
2.11621E7	-0.08626	3.56004
2.11741E7	-0.09151	3.67874
2.1186E7	-0.06843	3.65065
2.11979E7	-0.10505	3.82761
2.12099E7	-0.06753	3.77069
2.12218E7	-0.08983	3.78837
2.12337E7	-0.08701	3.84252
2.12456E7	-0.07434	3.91344
2.12576E7	-0.12327	3.68789
2.12695E7	-0.10138	3.69386
2.12814E7	-0.1145	3.92393
2.12934E7	-0.09974	3.72989
2.13053E7	-0.11512	3.83051
2.13172E7	-0.11543	3.8706
2.13292E7	-0.08997	3.95185
2.13411E7	-0.11321	3.86366
2.1353E7	-0.13018	4.01305
2.13649E7	-0.10806	3.99656
2.13769E7	-0.11231	3.97554
2.13888E7	-0.10145	4.14559
2.14007E7	-0.10501	4.04065
2.14127E7	-0.1312	3.92475
2.14246E7	-0.10571	4.07833
2.14365E7	-0.14251	3.96815
2.14485E7	-0.13631	4.08454
2.14604E7	-0.07822	4.1941
2.14723E7	-0.10709	4.27904
2.14842E7	-0.11622	4.2213
2.14962E7	-0.10012	4.33632
2.15081E7	-0.10837	4.34302
2.152E7	-0.11651	4.21996
2.1532E7	-0.13706	4.04993
2.15439E7	-0.10394	4.23691
2.15558E7	-0.1189	4.24527
2.15678E7	-0.12333	4.13756
2.15797E7	-0.0842	4.52337
2.15916E7	-0.12139	4.43129
2.16035E7	-0.08213	4.60913
2.16155E7	-0.0977	4.60243
2.16274E7	-0.1089	4.33698
2.16393E7	-0.11944	4.60945
2.16513E7	-0.11491	4.58116
2.16632E7	-0.12118	4.48948
2.16751E7	-0.09717	4.67996
2.16871E7	-0.11416	4.5602
2.1699E7	-0.12056	4.7574
2.17109E7	-0.11314	4.67901
2.17229E7	-0.14092	4.39372
2.17348E7	-0.12966	4.64947
2.17467E7	-0.08265	4.70172
2.17586E7	-0.0865	4.64778
2.17706E7	-0.07183	4.86509
2.17825E7	-0.11705	4.77046
2.17944E7	-0.11037	4.78916
2.18064E7	-0.11136	4.74105
2.18183E7	-0.10725	4.88254
2.18302E7	-0.10703	4.78704
2.18422E7	-0.08386	4.86947
2.18541E7	-0.11907	4.76113
2.1866E7	-0.1167	4.87788
2.18779E7	-0.08233	4.93783
2.18899E7	-0.09588	4.89781
2.19018E7	-0.13706	4.9274
2.19137E7	-0.09698	5.0941
2.19257E7	-0.14468	4.88699
2.19376E7	-0.10137	4.92281
2.19495E7	-0.06305	5.2153
2.19615E7	-0.09989	5.23551
2.19734E7	-0.10539	5.05716
2.19853E7	-0.1205	5.11227
2.19972E7	-0.08107	5.28507
2.20092E7	-0.09914	5.18079
2.20211E7	-0.08462	5.25651
2.2033E7	-0.10496	5.20015
2.2045E7	-0.07823	5.3517
2.20569E7	-0.0937	5.3991
2.20688E7	-0.06269	5.44176
2.20808E7	-0.07555	5.34461
2.20927E7	-0.11495	5.22085
2.21046E7	-0.09116	5.39116
2.21165E7	-0.12076	5.29085
2.21285E7	-0.11106	5.39049
2.21404E7	-0.10621	5.48301
2.21523E7	-0.07785	5.36644
2.21643E7	-0.0873	5.46726
2.21762E7	-0.14948	5.21819
2.21881E7	-0.12471	5.35292
2.22001E7	-0.08463	5.71956
2.2212E7	-0.07872	5.7083
2.22239E7	-0.07551	5.64325
2.22359E7	-0.09349	5.57531
2.22478E7	-0.10483	5.51241
2.22597E7	-0.11361	5.42095
2.22716E7	-0.11065	5.63118
2.22836E7	-0.10617	5.74101
2.22955E7	-0.1	5.82575
2.23074E7	-0.07247	5.75771
2.23194E7	-0.06925	5.74818
2.23313E7	-0.12729	5.76814
2.23432E7	-0.09554	5.78957
2.23552E7	-0.07758	5.86378
2.23671E7	-0.08673	5.94723
2.2379E7	-0.07258	5.91924
2.23909E7	-0.08003	6.01238
2.24029E7	-0.04597	6.00667
2.24148E7	-0.07176	6.12858
2.24267E7	-0.08985	5.98612
2.24387E7	-0.06686	6.12465
2.24506E7	-0.11274	6.06063
2.24625E7	-0.05067	6.09055
2.24745E7	-0.02886	6.16868
2.24864E7	-0.10487	6.25704
2.24983E7	-0.05967	6.23538
2.25102E7	-0.05559	6.16218
2.25222E7	-0.0672	6.42048
2.25341E7	-0.05602	6.09402
2.2546E7	-0.02887	6.54955
2.2558E7	-0.02491	6.50799
2.25699E7	-0.06519	6.34564
2.25818E7	0.00985	6.66884
2.25938E7	-0.0614	6.33893
2.26057E7	-0.02034	6.49987
2.26176E7	0.00728	6.68853
2.26296E7	0.02763	6.68036
2.26415E7	0.01203	6.69233
2.26534E7	-0.01615	6.61578
2.26653E7	0.02741	6.78588
2.26773E7	2.13212E-4	6.77958
2.26892E7	0.03141	6.72788
2.27011E7	0.0484	7.04142
2.27131E7	0.04807	6.89249
2.2725E7	0.09694	7.18603
2.27369E7	0.09037	7.00912
2.27489E7	0.12162	7.22025
2.27608E7	0.16761	7.25214
2.27727E7	0.21254	7.31632
2.27846E7	0.23952	7.3202
2.27966E7	0.30616	7.53826
2.28085E7	0.34992	7.72188
2.28204E7	0.42849	7.74828
2.28324E7	0.46338	7.95014
2.28443E7	0.59932	7.97491
2.28562E7	0.73925	8.35526
2.28682E7	0.86595	8.39085
2.28801E7	1.0777	8.55631
2.2892E7	1.31106	8.80907
2.29039E7	1.66327	8.91996
2.29159E7	2.11968	9.11836
2.29278E7	2.70936	9.30021
2.29397E7	3.52822	9.49185
2.29517E7	4.42927	9.03021
2.29636E7	5.44874	8.47113
2.29755E7	6.21157	7.25652
2.29875E7	6.38965	5.64232
2.29994E7	5.84381	4.29232
2.30113E7	4.90005	3.50125
2.30232E7	3.91821	3.08176
2.30352E7	3.05599	2.9631
2.30471E7	2.39422	3.03156
2.3059E7	1.85848	3.33692
2.3071E7	1.50806	3.48235
2.30829E7	1.18634	3.64319
2.30948E7	0.97654	4.07112
2.31068E7	0.81686	4.16175
2.31187E7	0.68459	4.23849
2.31306E7	0.56951	4.33013
2.31426E7	0.47705	4.55215
2.31545E7	0.41682	4.69035
2.31664E7	0.30464	4.9187
2.31783E7	0.25793	4.69839
2.31903E7	0.25562	5.15952
2.32022E7	0.22663	5.29234
2.32141E7	0.14418	5.13675
2.32261E7	0.14729	5.1917
2.3238E7	0.15764	5.29189
2.32499E7	0.08886	5.22678
2.32619E7	0.10635	5.4078
2.32738E7	0.07685	5.41281
2.32857E7	0.05598	5.50781
2.32976E7	0.02189	5.65415
2.33096E7	0.02906	5.58134
2.33215E7	0.03376	5.95113
2.33334E7	0.05655	5.65904
2.33454E7	-0.02827	5.63163
2.33573E7	0.01557	5.7786
2.33692E7	-0.00796	5.85819
2.33812E7	-0.02961	5.86267
2.33931E7	-0.04368	6.10261
2.3405E7	-0.01447	6.01094
2.34169E7	-0.0438	5.92476
2.34289E7	-0.03737	6.05459
2.34408E7	-0.05613	6.03628
2.34527E7	-0.03648	6.10097
2.34647E7	-0.03924	6.12495
2.34766E7	-0.0498	6.26625
2.34885E7	-0.06296	5.9736
2.35005E7	-0.06695	6.01717
2.35124E7	-0.03999	6.15331
2.35243E7	-0.02781	6.27396
2.35362E7	-0.07698	6.24161
2.35482E7	-0.07027	6.36488
2.35601E7	-0.07544	6.33162
2.3572E7	-0.05565	6.33077
2.3584E7	-0.05188	6.35658
2.35959E7	-0.05548	6.44323
2.36078E7	-0.07097	6.40171
2.36198E7	-0.09385	6.47015
2.36317E7	-0.05281	6.53603
2.36436E7	-0.06987	6.45189
2.36556E7	-0.08949	6.51439
2.36675E7	-0.09531	6.55085
2.36794E7	-0.115	6.32828
2.36913E7	-0.09397	6.52211
2.37033E7	-0.09038	6.56254
2.37152E7	-0.07038	6.74059
2.37271E7	-0.06068	6.70838
2.37391E7	-0.08536	6.75015
2.3751E7	-0.063	6.70396
2.37629E7	-0.08434	6.71202
2.37749E7	-0.07445	6.87086
2.37868E7	-0.01582	6.88134
2.37987E7	-0.0796	6.85961
2.38106E7	-0.09228	6.6894
2.38226E7	-0.13112	6.83796
2.38345E7	-0.09372	6.91554
2.38464E7	-0.05779	6.88343
2.38584E7	-0.08198	6.84167
2.38703E7	-0.10382	6.99078
2.38822E7	-0.09572	6.8903
2.38942E7	-0.0919	7.01839
2.39061E7	-0.06042	7.11335
2.3918E7	-0.08314	6.99778
2.39299E7	-0.0648	6.90486
2.39419E7	-0.07526	7.05948
2.39538E7	-0.06058	6.97803
2.39657E7	-0.11724	6.90622
2.39777E7	-0.07843	7.00196
2.39896E7	-0.07359	7.22773
2.40015E7	-0.135	7.15003
2.40135E7	-0.0994	7.17934
2.40254E7	-0.08887	7.08073
2.40373E7	-0.08084	7.16294
2.40493E7	-0.14408	7.16209
2.40612E7	-0.12494	7.17789
2.40731E7	-0.09935	7.16434
2.4085E7	-0.07266	7.34451
2.4097E7	-0.1535	7.21605
2.41089E7	-0.09147	7.25291
2.41208E7	-0.10043	7.18132
2.41328E7	-0.08037	7.22983
2.41447E7	-0.12573	7.20456
2.41566E7	-0.09499	7.53561
2.41686E7	-0.09218	7.32384
2.41805E7	-0.07094	7.41117
2.41924E7	-0.11424	7.22468
2.42043E7	-0.08689	7.37851
2.42163E7	-0.05865	7.43447
2.42282E7	-0.13659	7.19288
2.42401E7	-0.09542	7.47901
2.42521E7	-0.06194	7.53148
2.4264E7	-0.07603	7.46513
2.42759E7	-0.09044	7.46559
2.42879E7	-0.06981	7.56687
2.42998E7	-0.09873	7.40059
2.43117E7	-0.09295	7.42971
2.43236E7	-0.09666	7.56396
2.43356E7	-0.10365	7.38988
2.43475E7	-0.14703	7.45562
2.43594E7	-0.06784	7.68092
2.43714E7	-0.09832	7.51572
2.43833E7	-0.12675	7.62782
2.43952E7	-0.08514	7.66492
2.44072E7	-0.08296	7.68557
2.44191E7	-0.09283	7.83941
2.4431E7	-0.10896	7.62508
2.44429E7	-0.06039	7.67938
2.44549E7	-0.10586	7.86642
2.44668E7	-0.10457	7.63414
2.44787E7	-0.08287	7.82493
2.44907E7	-0.09703	7.68
2.45026E7	-0.09154	7.6612
2.45145E7	-0.06581	7.84576
2.45265E7	-0.11222	7.81675
2.45384E7	-0.07418	7.74105
2.45503E7	-0.03724	7.95364
2.45623E7	-0.06778	7.71997
2.45742E7	-0.08497	7.8965
2.45861E7	-0.13374	7.84153
2.4598E7	-0.08882	8.03138
2.461E7	-0.07406	7.86042
2.46219E7	-0.0869	7.90044
2.46338E7	-0.08774	8.02872
2.46458E7	-0.06495	8.06946
2.46577E7	-0.05479	7.97367
2.46696E7	-0.09585	7.88523
2.46816E7	-0.083	7.92299
2.46935E7	-0.10333	7.9309
2.47054E7	-0.078	7.77839
2.47173E7	-0.05368	8.03968
2.47293E7	-0.09725	7.96916
2.47412E7	-0.04758	8.31445
2.47531E7	-0.05888	8.09657
2.47651E7	-0.09059	8.04683
2.4777E7	-0.09234	8.07284
2.47889E7	-0.07688	8.05972
2.48009E7	-0.10422	8.12506
2.48128E7	-0.09981	8.30817
2.48247E7	-0.13816	8.13788
2.48366E7	-0.07379	8.37097
2.48486E7	-0.1415	8.25302
2.48605E7	-0.11072	8.19294
2.48724E7	-0.1219	8.25123
2.48844E7	-0.10673	8.01656
2.48963E7	-0.11373	8.32495
2.49082E7	-0.05948	8.29055
2.49202E7	-0.08804	8.48722
2.49321E7	-0.08044	8.22766
2.4944E7	-0.06962	8.33789
2.49559E7	-0.06184	8.25442
2.49679E7	-0.10185	8.4291
2.49798E7	-0.08027	8.32029
2.49917E7	-0.06807	8.56773
2.50037E7	-0.09475	8.43727
2.50156E7	-0.06509	8.41601
2.50275E7	-0.07234	8.29216
2.50395E7	-0.08893	8.59672
2.50514E7	-0.07988	8.38102
2.50633E7	-0.08265	8.57278
2.50753E7	-0.11682	8.31843
2.50872E7	-0.09421	8.5111
2.50991E7	-0.06919	8.51213
2.5111E7	-0.12447	8.46839
2.5123E7	-0.07748	8.50739
2.51349E7	-0.13703	8.44298
2.51468E7	-0.0394	8.61188
2.51588E7	-0.08791	8.52044
2.51707E7	-0.07562	8.54302
2.51826E7	-0.07048	8.51546
2.51946E7	-0.07489	8.46403
2.52065E7	-0.08594	8.65278
2.52184E7	-0.06229	8.81545
2.52303E7	-0.01628	8.56921
2.52423E7	-0.06987	8.62617
2.52542E7	-0.09275	8.66604
2.52661E7	-0.07339	8.63366
2.52781E7	-0.07071	8.89647
2.529E7	-0.11591	8.66844
2.53019E7	-0.08767	8.74438
2.53139E7	-0.08341	8.70555
2.53258E7	-0.10385	8.83422
2.53377E7	-0.1046	8.80495
2.53496E7	-0.09766	8.9197
2.53616E7	-0.04299	8.54829
2.53735E7	-0.06279	8.9014
2.53854E7	-0.12562	8.82757
2.53974E7	-0.07898	8.82826
2.54093E7	-0.09331	8.83524
2.54212E7	-0.09956	9.02217
2.54332E7	-0.06925	8.73248
2.54451E7	-0.1033	8.85345
2.5457E7	-0.0424	8.86565
2.5469E7	-0.08342	8.7919
2.54809E7	-0.12254	8.98732
2.54928E7	-0.09329	9.166
2.55047E7	-0.12886	8.85973
2.55167E7	-0.07743	9.09435
2.55286E7	-0.0468	8.89652
2.55405E7	-0.07886	8.88828
2.55525E7	-0.08131	9.12454
2.55644E7	-0.0575	8.96955
2.55763E7	-0.0842	9.08457
2.55883E7	-0.1468	8.94918
2.56002E7	-0.06131	8.99337
2.56121E7	-0.0952	8.94286
2.5624E7	-0.10392	8.89076
2.5636E7	-0.05959	9.09525
2.56479E7	-0.09667	9.05096
2.56598E7	-0.12423	8.93887
2.56718E7	-0.11621	9.03109
2.56837E7	-0.05976	9.2228
2.56956E7	-0.07739	9.29931
2.57076E7	-0.11022	9.12883
2.57195E7	-0.10483	9.1316
2.57314E7	-0.13577	9.31011
2.57433E7	-0.0048	9.27541
2.57553E7	-0.10161	9.11392
2.57672E7	-0.06697	9.09887
2.57791E7	-0.07313	9.34474
2.57911E7	-0.04669	8.99973
2.5803E7	-0.11501	9.33195
2.58149E7	-0.10104	9.29723
2.58269E7	-0.04146	9.26514
2.58388E7	-0.07401	9.43344
2.58507E7	-0.10482	9.22925
2.58626E7	-0.15421	9.299
2.58746E7	-0.07767	9.39753
2.58865E7	-0.06087	9.30606
2.58984E7	-0.09038	9.30056
2.59104E7	-0.07306	9.46025
2.59223E7	-0.0717	9.39178
2.59342E7	-0.11603	9.39345
2.59462E7	-0.0945	9.34916
2.59581E7	-0.0594	9.47868
2.597E7	-0.0961	9.51971
2.5982E7	-0.03577	9.43734
2.59939E7	-0.10164	9.50284
2.60058E7	-0.08328	9.48337
2.60177E7	-0.05915	9.17458
2.60297E7	-0.02671	9.3562
2.60416E7	-0.09297	9.61385
2.60535E7	-0.00504	9.3982
2.60655E7	-0.09025	9.50573
2.60774E7	-0.11258	9.5164
2.60893E7	-0.05309	9.55026
2.61013E7	-0.06267	9.87841
2.61132E7	-0.0534	9.4664
2.61251E7	-0.0662	9.82547
2.6137E7	-0.03098	9.70354
2.6149E7	-0.13285	9.71516
2.61609E7	-0.0814	9.60473
2.61728E7	-0.10059	9.63222
2.61848E7	-0.0336	9.61785
2.61967E7	-0.03973	9.74773
2.62086E7	-0.09061	9.74714
2.62206E7	-0.0184	9.72674
2.62325E7	-0.09413	9.79879
2.62444E7	-0.03095	9.72946
2.62563E7	-0.0778	9.87483
2.62683E7	-0.07161	9.62492
2.62802E7	-0.06514	9.73146
2.62921E7	-0.02129	9.70554
2.63041E7	-0.00755	9.87011
2.6316E7	-0.06597	9.76531
2.63279E7	-0.03374	9.81106
2.63399E7	-0.09516	9.92318
2.63518E7	-0.10135	9.7168
2.63637E7	-0.07857	9.7298
2.63757E7	-0.1108	9.92144
2.63876E7	-0.10498	9.80512
2.63995E7	-0.12294	9.774
2.64114E7	-0.08875	10.02151
2.64234E7	-0.09862	10.02304
2.64353E7	-0.02175	9.90182
2.64472E7	-0.05928	9.77337
2.64592E7	-0.06758	9.88197
2.64711E7	-0.07007	9.86928
2.6483E7	-0.09298	10.01289
2.6495E7	-0.07298	10.07583
2.65069E7	-0.0851	10.06464
2.65188E7	-0.01041	10.24127
2.65307E7	-0.06219	10.1618
2.65427E7	-0.09758	10.00372
2.65546E7	-0.06004	9.91219
2.65665E7	-0.10262	9.8249
2.65785E7	-0.1189	10.07066
2.65904E7	-0.08037	10.11626
2.66023E7	-0.05244	10.09522
2.66143E7	-0.07905	10.09476
2.66262E7	-0.11689	10.25669
2.66381E7	-0.04356	10.2285
2.665E7	-0.11905	10.33794
2.6662E7	-0.09511	10.23073
2.66739E7	-0.04356	10.26809
2.66858E7	-0.11208	10.33539
2.66978E7	-0.04165	10.34921
2.67097E7	-0.04914	10.45762
2.67216E7	-0.02904	10.0469
2.67336E7	-0.0434	10.24975
2.67455E7	-0.04343	10.28611
2.67574E7	-0.06287	10.32673
2.67693E7	-0.01176	10.42898
2.67813E7	-0.10032	10.54934
2.67932E7	-0.11907	10.38076
2.68051E7	-0.05085	10.32241
2.68171E7	-0.15496	10.43722
2.6829E7	-0.0499	10.38627
2.68409E7	-0.05665	10.45444
2.68529E7	-0.08274	10.3956
2.68648E7	-0.04903	10.25175
2.68767E7	-0.11177	10.41067
2.68887E7	-0.07677	10.35418
2.69006E7	-0.08449	10.47985
2.69125E7	-0.05383	10.53174
2.69244E7	-0.06106	10.54413
2.69364E7	-0.02647	10.78761
2.69483E7	-0.09384	10.46162
2.69602E7	-0.11689	10.60274
2.69722E7	-0.08754	10.41769
2.69841E7	-0.0469	10.48192
2.6996E7	-0.09269	10.53757
2.7008E7	-0.10694	10.66214
2.70199E7	-0.07301	10.6725
2.70318E7	-0.03601	10.5445
2.70437E7	-0.03309	10.65535
2.70557E7	-0.06259	10.66847
2.70676E7	-0.10137	10.61664
2.70795E7	-0.07306	10.67051
2.70915E7	-0.07526	10.74481
2.71034E7	-0.04641	10.7629
2.71153E7	-0.12245	10.42039
2.71273E7	-0.11699	10.63474
2.71392E7	-0.07244	10.66945
2.71511E7	-0.08445	10.5466
2.7163E7	-0.05386	10.66107
2.7175E7	-0.09388	10.74659
2.71869E7	-0.07342	10.53333
2.71988E7	-0.03782	10.82464
2.72108E7	-0.08201	10.83323
2.72227E7	-0.03893	10.63077
2.72346E7	-0.03691	10.6849
2.72466E7	-0.09571	10.80714
2.72585E7	-0.0434	10.75023
2.72704E7	-0.04995	10.88441
2.72823E7	-0.05924	10.7969
2.72943E7	-0.02577	10.92408
2.73062E7	-0.04564	10.87945
2.73181E7	-0.07641	10.79387
2.73301E7	-0.10371	10.81314
2.7342E7	-0.1014	10.98884
2.73539E7	-0.08786	10.97712
2.73659E7	-0.10778	10.69481
2.73778E7	-0.0466	10.91339
2.73897E7	-0.03125	10.94205
2.74017E7	-0.09296	10.87488
2.74136E7	-0.09008	11.15171
2.74255E7	-0.06951	11.06367
2.74374E7	-0.10046	11.04814
2.74494E7	-0.03524	11.05663
2.74613E7	-0.0929	10.85903
2.74732E7	-0.02579	11.01785
2.74852E7	-0.06034	11.05513
2.74971E7	-0.09874	11.21283
2.7509E7	-0.09224	11.06019
2.7521E7	-0.00883	11.22773
2.75329E7	-0.04746	11.00916
2.75448E7	0.05057	11.36016
2.75567E7	-0.02421	10.98536
2.75687E7	-0.05913	11.30684
2.75806E7	-0.04371	11.11523
2.75925E7	-0.11498	11.00585
2.76045E7	-0.14619	11.21231
2.76164E7	-0.05012	11.14484
2.76283E7	-0.03147	11.30858
2.76403E7	-0.05766	11.18308
2.76522E7	-0.00742	11.21263
2.76641E7	-0.05616	11.11582
2.7676E7	2.98245E-4	11.18336
2.7688E7	-0.064	11.29546
2.76999E7	-0.06565	11.21351
2.77118E7	-0.08276	11.38844
2.77238E7	-0.01559	11.20105
2.77357E7	-0.04827	11.21272
2.77476E7	-0.04786	11.26571
2.77596E7	-0.01868	11.2311
2.77715E7	-0.07733	11.27069
2.77834E7	-0.12297	11.09079
2.77954E7	-0.08656	11.33261
2.78073E7	-0.03552	11.26892
2.78192E7	-0.06827	11.39657
2.78311E7	-0.07773	11.4627
2.78431E7	0.03991	11.49124
2.7855E7	-0.02772	11.33468
2.78669E7	-0.0901	11.3225
2.78789E7	-0.00839	11.664
2.78908E7	-0.06734	11.49921
2.79027E7	-0.04298	11.51517
2.79147E7	-0.05985	11.4582
2.79266E7	-0.06166	11.47539
2.79385E7	-0.00879	11.5491
2.79504E7	-0.04242	11.3355
2.79624E7	-0.05277	11.48326
2.79743E7	-0.0957	11.7337
2.79862E7	-0.02836	11.42895
2.79982E7	-0.00653	11.46597
2.80101E7	-0.08274	11.64697
2.8022E7	-0.0549	11.51761
2.8034E7	-0.03778	11.44646
2.80459E7	-0.0395	11.70637
2.80578E7	-0.0289	11.55214
2.80697E7	-0.035	11.60951
2.80817E7	-0.06005	11.79055
2.80936E7	-0.06016	11.5801
2.81055E7	-0.07998	11.74165
2.81175E7	-0.08627	11.66602
2.81294E7	-0.054	11.61043
2.81413E7	-0.11559	11.71633
2.81533E7	-0.05918	11.92117
2.81652E7	-0.06914	11.71428
2.81771E7	-0.06976	11.64322
2.8189E7	-0.08227	11.90824
2.8201E7	-0.00841	11.86784
2.82129E7	-0.05468	11.5967
2.82248E7	-0.03521	11.62369
2.82368E7	-0.0136	11.625
2.82487E7	-0.12871	11.78018
2.82606E7	0.00475	11.86938
2.82726E7	-0.04583	11.75677
2.82845E7	-0.08998	11.94387
2.82964E7	-0.08621	11.9557
2.83084E7	-0.02365	11.82294
2.83203E7	-0.02635	11.8517
2.83322E7	-0.04529	11.92125
2.83441E7	-0.04134	11.89082
2.83561E7	-0.01769	11.98528
2.8368E7	-0.04986	12.0391
2.83799E7	-0.05228	11.64618
2.83919E7	-0.01697	12.00328
2.84038E7	-0.05396	12.13408
2.84157E7	-0.08773	12.08016
2.84277E7	-0.02061	12.07674
2.84396E7	-0.06443	11.91767
2.84515E7	-0.04322	11.95517
2.84634E7	-0.06289	12.14576
2.84754E7	-0.12063	12.16788
2.84873E7	-0.0872	11.89075
2.84992E7	-0.0809	12.02671
2.85112E7	-0.06209	12.11291
2.85231E7	-0.03082	11.9587
2.8535E7	0.01532	12.09514
2.8547E7	0.01069	11.98367
2.85589E7	0.00562	12.0767
2.85708E7	-0.07975	12.231
2.85827E7	-0.06297	12.1632
2.85947E7	-0.05163	11.93639
2.86066E7	-0.02725	12.2824
2.86185E7	-0.0154	12.19377
2.86305E7	-0.11367	12.38986
2.86424E7	-0.08123	12.17493
2.86543E7	-0.02154	12.22598
2.86663E7	-0.07715	12.10635
2.86782E7	-0.10329	12.30823
2.86901E7	0.01022	12.17312
2.8702E7	-0.05521	12.15848
2.8714E7	-0.02388	12.29079
2.87259E7	-0.09603	12.28212
2.87378E7	-0.066	12.33941
2.87498E7	-0.07309	12.54966
2.87617E7	-0.10555	12.18463
2.87736E7	-0.05537	12.3972
2.87856E7	-0.00968	12.42946
2.87975E7	-0.0747	12.43665
2.88094E7	-0.07421	12.44357
2.88214E7	-0.04253	12.46744
2.88333E7	-0.09612	12.3559
2.88452E7	-0.08497	12.38642
2.88571E7	-0.00182	12.35479
2.88691E7	-0.00849	12.22647
2.8881E7	-0.07178	12.50392
2.88929E7	-0.05324	12.53773
2.89049E7	-0.01532	12.28718
2.89168E7	-0.03293	12.57169
2.89287E7	-0.06524	12.7417
2.89407E7	-0.03623	12.32746
2.89526E7	-0.01988	12.42991
2.89645E7	0.00736	12.56426
2.89764E7	-0.10063	12.46049
2.89884E7	-0.00171	12.63152
2.90003E7	-0.16322	12.48921
2.90122E7	-0.03469	12.55186
2.90242E7	-0.04036	12.55064
2.90361E7	-0.06099	12.64849
2.9048E7	-0.00336	12.75128
2.906E7	-0.04704	12.51577
2.90719E7	-0.09977	12.4004
2.90838E7	-0.02001	12.67147
2.90957E7	-0.07692	12.6481
2.91077E7	-0.02204	12.79367
2.91196E7	-0.06766	12.63372
2.91315E7	0.02912	12.7704
2.91435E7	-0.02583	12.70599
2.91554E7	-0.06521	12.88848
2.91673E7	-0.0575	12.65263
2.91793E7	-0.05829	12.71186
2.91912E7	-0.06361	12.82429
2.92031E7	-0.0465	12.76505
2.92151E7	-0.05849	12.7326
2.9227E7	-0.05452	12.86472
2.92389E7	0.00378	12.96877
2.92508E7	-0.01978	12.60371
2.92628E7	-0.05539	12.91636
2.92747E7	-0.08234	12.83305
2.92866E7	-0.01075	12.87269
2.92986E7	-0.04643	12.78996
2.93105E7	0.03593	12.9692
2.93224E7	-0.05416	12.88535
2.93344E7	-0.01128	12.68247
2.93463E7	-0.04163	13.01342
2.93582E7	-0.02218	12.86416
2.93701E7	-0.04931	12.88001
2.93821E7	-0.08277	12.84112
2.9394E7	-0.00447	12.99632
2.94059E7	-0.05179	13.19235
2.94179E7	-0.09423	13.01488
2.94298E7	0.01067	12.97015
2.94417E7	-0.09716	12.98489
2.94537E7	-0.06096	13.05012
2.94656E7	-0.05819	13.19791
2.94775E7	-0.08611	12.96234
2.94894E7	-0.07111	12.87271
2.95014E7	-0.01616	13.15046
2.95133E7	-0.0348	13.09542
2.95252E7	-0.02073	13.04537
2.95372E7	-0.07125	13.1889
2.95491E7	0.0053	12.92949
2.9561E7	0.01372	13.05208
2.9573E7	0.00584	13.01722
2.95849E7	-0.03439	13.30761
2.95968E7	-0.10165	13.14712
2.96087E7	-0.00155	13.24907
2.96207E7	-0.06073	13.12704
2.96326E7	-0.01935	13.23035
2.96445E7	-0.03796	13.10105
2.96565E7	-0.00621	13.37526
2.96684E7	-0.03212	13.07915
2.96803E7	-0.06627	13.13256
2.96923E7	-0.04071	13.20554
2.97042E7	-0.06229	13.11015
2.97161E7	0.01584	13.34646
2.97281E7	-0.07547	13.3204
2.974E7	-0.03017	13.22099
2.97519E7	-0.03705	13.25356
2.97638E7	-0.03507	13.28007
2.97758E7	0.03637	13.35252
2.97877E7	-0.01126	13.25474
2.97996E7	-0.05575	13.54906
2.98116E7	-0.01313	13.22408
2.98235E7	0.02869	13.44008
2.98354E7	-0.02172	13.40871
2.98474E7	-0.0178	13.46604
2.98593E7	-0.02001	13.4151
2.98712E7	-0.05352	13.48188
2.98831E7	-0.01427	13.42901
2.98951E7	-0.0425	13.44605
2.9907E7	-0.10699	13.44323
2.99189E7	-0.05805	13.56335
2.99309E7	-0.01978	13.51901
2.99428E7	-0.04517	13.22841
2.99547E7	0.02783	13.54738
2.99667E7	-0.08281	13.54563
2.99786E7	-0.06246	13.49917
2.99905E7	-0.02189	13.43174
3.00024E7	-0.03929	13.51904
3.00144E7	-0.01728	13.58973
3.00263E7	-0.05481	13.64304
3.00382E7	-0.02672	13.49174
3.00502E7	-0.00826	13.73874
3.00621E7	-0.01528	13.36622
3.0074E7	0.02105	13.6018
3.0086E7	-0.07134	13.47156
3.00979E7	5.68742E-4	13.7262
3.01098E7	-0.03798	13.63769
3.01217E7	-0.05812	13.61029
3.01337E7	-0.00455	13.63983
3.01456E7	-0.00374	13.78824
3.01575E7	-0.06871	13.47296
3.01695E7	-0.04789	13.64234
3.01814E7	0.01142	13.83073
3.01933E7	-0.00779	13.70665
3.02053E7	-0.11161	13.81304
3.02172E7	-0.107	13.90321
3.02291E7	-0.05006	13.72233
3.02411E7	-0.0776	13.9044
3.0253E7	-0.03745	13.83116
3.02649E7	0.06113	13.63699
3.02768E7	-0.03421	13.9286
3.02888E7	-0.08075	13.86555
3.03007E7	-0.0168	13.8562
3.03126E7	-0.04167	13.82051
3.03246E7	-0.10232	13.82666
3.03365E7	-0.00202	13.85387
3.03484E7	-0.02627	13.90868
3.03604E7	0.02321	13.95593
3.03723E7	-0.03016	13.79576
3.03842E7	-0.03491	13.8495
3.03961E7	-0.11514	13.95387
3.04081E7	-0.06823	13.96228
3.042E7	0.07234	13.844
3.04319E7	-0.07844	13.84233
3.04439E7	-0.0066	13.85495
3.04558E7	-0.0314	13.81154
3.04677E7	-0.10261	13.81149
3.04797E7	-0.07783	14.03148
3.04916E7	0.04384	13.9821
3.05035E7	-0.01236	14.11525
3.05154E7	0.00596	14.03646
3.05274E7	-0.00191	14.11235
3.05393E7	-0.02101	14.16372
3.05512E7	-0.03675	14.06283
3.05632E7	-0.03508	13.95723
3.05751E7	-0.01318	13.98587
3.0587E7	-0.02255	14.27111
3.0599E7	0.01681	14.14809
3.06109E7	-0.04691	14.17086
3.06228E7	-0.01877	14.09709
3.06348E7	0.01542	14.21018
3.06467E7	-0.07477	14.04203
3.06586E7	0.0212	14.33834
3.06705E7	-0.0861	14.05226
3.06825E7	-0.07039	14.13433
3.06944E7	-0.04167	14.21791
3.07063E7	-0.04902	14.31804
3.07183E7	-0.06629	14.04174
3.07302E7	-0.11135	14.14479
3.07421E7	0.0246	14.26012
3.07541E7	-0.00113	14.16972
3.0766E7	0.00576	14.1615
3.07779E7	-0.08221	14.52728
3.07898E7	-0.05508	14.38439
3.08018E7	-0.06513	14.55823
3.08137E7	-0.01899	14.22733
3.08256E7	-0.04002	14.11684
3.08376E7	-0.02476	14.32679
3.08495E7	-0.09242	14.22411
3.08614E7	0.00723	14.17931
3.08734E7	0.02045	14.51388
3.08853E7	-0.0234	14.38178
3.08972E7	-0.04281	14.35379
3.09091E7	-0.08064	14.4063
3.09211E7	-0.03994	14.41265
3.0933E7	0.03246	14.44655
3.09449E7	-0.05001	14.51027
3.09569E7	-0.00651	14.51421
3.09688E7	0.00208	14.27287
3.09807E7	-0.01332	14.42368
3.09927E7	-0.02057	14.49456
3.10046E7	-0.01082	14.43636
3.10165E7	-0.09025	14.60156
3.10284E7	-0.04481	14.56705
3.10404E7	0.03478	14.5802
3.10523E7	-0.03412	14.41175
3.10642E7	-0.01696	14.503
3.10762E7	-0.0328	14.64285
3.10881E7	0.01457	14.46179
3.11E7	-0.07023	14.72415
3.1112E7	-0.03306	14.71711
3.11239E7	0.02696	14.86245
3.11358E7	-0.0612	14.52885
3.11478E7	-0.02775	14.64645
3.11597E7	0.00161	14.51264
3.11716E7	-0.06034	14.55998
3.11835E7	-0.03422	14.82473
3.11955E7	-0.01222	14.57204
3.12074E7	-0.02459	14.57721
3.12193E7	-0.05619	14.58385
3.12313E7	-0.01639	14.79017
3.12432E7	-8.61746E-4	14.73377
3.12551E7	0.03161	14.83519
3.12671E7	0.0671	14.66803
3.1279E7	0.00975	14.87887
3.12909E7	-0.04695	14.59029
3.13028E7	-4.09912E-5	14.67912
3.13148E7	-0.10766	14.77952
3.13267E7	-0.05236	14.7349
3.13386E7	-0.02246	14.85637
3.13506E7	-0.02906	14.82566
3.13625E7	-0.07265	14.8849
3.13744E7	-0.06042	14.91378
3.13864E7	0.08482	14.84979
3.13983E7	-0.04282	14.80579
3.14102E7	-0.03488	14.85427
3.14221E7	-0.03875	14.78652
3.14341E7	-0.04767	14.77249
3.1446E7	-0.03834	15.0766
3.14579E7	0.02841	14.86688
3.14699E7	-0.02417	15.0201
3.14818E7	-0.11723	14.78373
3.14937E7	-0.07397	14.92854
3.15057E7	0.01687	15.06732
3.15176E7	0.02219	15.14283
3.15295E7	-0.05361	14.84001
3.15414E7	-0.05662	14.96453
3.15534E7	0.02929	14.94992
3.15653E7	-0.05816	14.8573
3.15772E7	-0.01003	15.11429
3.15892E7	-0.09759	15.10266
3.16011E7	-0.04848	14.75336
3.1613E7	-0.05098	15.08679
3.1625E7	-0.05102	15.20756
3.16369E7	-0.10128	15.0111
3.16488E7	0.01702	15.27939
3.16608E7	0.00702	15.17978
3.16727E7	-0.01857	15.38242
3.16846E7	0.04989	15.20513
3.16965E7	-0.01703	15.11776
3.17085E7	0.02512	15.03155
3.17204E7	-0.09255	15.44595
3.17323E7	-0.01754	15.41198
3.17443E7	-0.04248	15.13255
3.17562E7	-0.03744	15.1826
3.17681E7	0.00988	15.24564
3.17801E7	0.02258	15.36201
3.1792E7	0.05522	15.19355
3.18039E7	-0.04391	15.21249
3.18158E7	-0.03427	15.16792
3.18278E7	-0.04942	15.34743
3.18397E7	0.03884	15.21258
3.18516E7	-0.08669	15.36265
3.18636E7	-0.07392	15.25501
3.18755E7	4.59396E-4	15.42245
3.18874E7	-0.0643	15.33759
3.18994E7	-0.06955	15.18028
3.19113E7	-0.05437	15.19545
3.19232E7	0.03518	15.28063
3.19351E7	-0.08592	15.32552
3.19471E7	0.04899	15.28717
3.1959E7	-0.03558	15.44267
3.19709E7	0.02967	15.28291
3.19829E7	-0.08032	15.66872
3.19948E7	0.00797	15.44
3.20067E7	-0.10985	15.57952
3.20187E7	-0.06263	15.56879
3.20306E7	-0.08611	15.44137
3.20425E7	-0.01301	15.39809
3.20545E7	-0.02782	15.46032
3.20664E7	0.01751	15.4208
3.20783E7	0.06673	15.60787
3.20902E7	-0.05025	15.4207
3.21022E7	0.04205	15.48902
3.21141E7	-0.01574	15.48238
3.2126E7	-0.03916	15.58181
3.2138E7	-0.08027	15.4663
3.21499E7	-0.00292	15.59622
3.21618E7	-0.09369	15.6962
3.21738E7	0.01087	15.6166
3.21857E7	-0.03785	15.62009
3.21976E7	-0.04062	15.60672
3.22095E7	0.03168	15.6696
3.22215E7	0.0069	15.70646
3.22334E7	4.80627E-4	15.51853
3.22453E7	-0.02713	15.80484
3.22573E7	0.05937	15.72455
3.22692E7	-0.00858	15.77026
3.22811E7	0.04089	15.78002
3.22931E7	-0.0732	15.64785
3.2305E7	-0.09213	15.98313
3.23169E7	-0.02327	15.74824
3.23288E7	0.00481	15.64171
3.23408E7	0.00647	15.72511
3.23527E7	-0.04048	15.80965
3.23646E7	-0.05347	15.7031
3.23766E7	-0.0644	15.71419
3.23885E7	-0.05099	15.84153
3.24004E7	0.00129	15.66203
3.24124E7	0.04818	15.7552
3.24243E7	-0.0145	15.71805
3.24362E7	-0.02572	15.72902
3.24481E7	0.00646	15.89634
3.24601E7	-0.02192	15.91366
3.2472E7	-0.09485	15.7693
3.24839E7	0.00893	15.95251
3.24959E7	-0.06068	15.92606
3.25078E7	0.00173	15.96151
3.25197E7	-0.00399	16.14929
3.25317E7	-0.04101	15.94014
3.25436E7	-0.03916	15.8441
3.25555E7	-0.02377	15.73776
3.25675E7	0.04898	16.10099
3.25794E7	-0.01368	16.0359
3.25913E7	-0.03141	16.1297
3.26032E7	-0.0198	16.00143
3.26152E7	0.036	16.10846
3.26271E7	-0.0696	16.10555
3.2639E7	0.06396	16.32459
3.2651E7	-0.00747	15.91234
3.26629E7	-0.06007	16.04946
3.26748E7	-0.01447	15.97912
3.26868E7	-0.04787	16.17838
3.26987E7	-0.01471	16.20902
3.27106E7	-0.09505	16.20318
3.27225E7	-0.03744	16.02623
3.27345E7	-0.10971	16.06991
3.27464E7	-0.06754	16.26728
3.27583E7	0.01826	16.10272
3.27703E7	0.0558	16.21563
3.27822E7	-0.10353	16.21917
3.27941E7	0.01334	16.17319
3.28061E7	-0.06397	16.1142
3.2818E7	-0.12828	16.04486
3.28299E7	0.00101	16.04419
3.28418E7	-0.11498	16.09973
3.28538E7	-0.01682	16.4546
3.28657E7	-0.05392	16.12736
3.28776E7	0.04641	16.39026
3.28896E7	-0.17992	16.18768
3.29015E7	-0.03653	16.22094
3.29134E7	-0.08617	16.46354
3.29254E7	-0.04322	16.45888
3.29373E7	-0.08106	16.26177
3.29492E7	-0.06953	16.01738
3.29612E7	-0.13955	16.28023
3.29731E7	-0.08005	16.31394
3.2985E7	-0.01268	16.44238
3.29969E7	-0.10339	16.46483
3.30089E7	-0.00399	16.36659
3.30208E7	-0.03505	16.32911
3.30327E7	-0.08309	16.21529
3.30447E7	-0.07522	16.52001
3.30566E7	0.01103	16.54297
3.30685E7	0.00543	16.5307
3.30805E7	-0.05857	16.35489
3.30924E7	-0.09104	16.46761
3.31043E7	-0.01422	16.6344
3.31162E7	-0.08213	16.44541
3.31282E7	-0.05691	16.52687
3.31401E7	-0.06881	16.68562
3.3152E7	-0.0668	16.48413
3.3164E7	-0.01891	16.51903
3.31759E7	-0.04561	16.76358
3.31878E7	-0.03901	16.78262
3.31998E7	-0.04037	16.4975
3.32117E7	0.00989	16.38492
3.32236E7	-0.11322	16.40268
3.32355E7	-0.07409	16.72289
3.32475E7	-0.05275	16.79639
3.32594E7	-0.09582	16.82552
3.32713E7	0.01305	16.61084
3.32833E7	-0.10985	16.61502
3.32952E7	-0.02185	16.96487
3.33071E7	-0.04749	16.82958
3.33191E7	-0.06916	16.63248
3.3331E7	-0.02151	16.66142
3.33429E7	-0.04789	16.82227
3.33548E7	-0.1222	16.62525
3.33668E7	-0.05443	16.85768
3.33787E7	0.02917	16.68998
3.33906E7	-0.03113	16.6892
3.34026E7	-0.08211	16.69766
3.34145E7	-0.03964	16.77681
3.34264E7	0.01056	16.80859
3.34384E7	-0.08258	16.95934
3.34503E7	-0.07929	16.92742
3.34622E7	-0.07845	16.81127
3.34742E7	-0.0319	16.81898
3.34861E7	0.00877	16.91038
3.3498E7	0.08627	16.77889
3.35099E7	0.08461	16.77897
3.35219E7	-0.08156	16.9732
3.35338E7	0.0679	17.02231
3.35457E7	-0.0697	16.93435
3.35577E7	-0.03653	16.80968
3.35696E7	0.05419	16.68644
3.35815E7	-0.08498	16.93021
3.35935E7	-0.0028	16.83862
3.36054E7	-0.0787	16.8405
3.36173E7	-0.08961	16.84293
3.36292E7	0.0394	16.966
3.36412E7	0.06921	17.10237
3.36531E7	-0.03008	16.89087
3.3665E7	-0.04981	17.06618
3.3677E7	-0.09736	17.04742
3.36889E7	-0.00496	17.06407
3.37008E7	0.04353	17.0454
3.37128E7	0.06284	16.96433
3.37247E7	-0.05461	17.07587
3.37366E7	-0.05309	17.02772
3.37485E7	-0.04624	17.14479
3.37605E7	-0.01741	17.03056
3.37724E7	-0.00277	17.03166
3.37843E7	0.00708	17.15877
3.37963E7	-0.03185	17.03799
3.38082E7	-0.04523	16.96109
3.38201E7	0.01704	17.10979
3.38321E7	-0.09116	17.05152
3.3844E7	-0.04326	17.189
3.38559E7	-0.06443	17.13151
3.38678E7	-0.08956	17.12144
3.38798E7	0.03682	17.32318
3.38917E7	-0.01267	17.34839
3.39036E7	-0.04953	17.08502
3.39156E7	0.08833	17.36921
3.39275E7	0.03612	17.25003
3.39394E7	-0.00402	17.23142
3.39514E7	-0.02261	17.45979
3.39633E7	0.00344	17.41814
3.39752E7	0.03942	17.50829
3.39872E7	0.01056	17.18476
3.39991E7	-0.01869	17.20558
3.4011E7	-0.07986	17.19158
3.40229E7	-0.02376	17.45572
3.40349E7	-0.03582	17.16343
3.40468E7	-0.04977	17.21984
3.40587E7	0.05608	17.57274
3.40707E7	-0.03813	17.20334
3.40826E7	-0.0699	17.49165
3.40945E7	-0.06547	17.20214
3.41065E7	0.04569	17.40713
3.41184E7	-0.02535	17.45528
3.41303E7	0.03613	17.64678
3.41422E7	-0.0354	17.42996
3.41542E7	0.0078	17.46454
3.41661E7	-0.07724	17.58812
3.4178E7	0.03514	17.58137
3.419E7	0.02479	17.62219
3.42019E7	0.05228	17.74672
3.42138E7	0.08829	17.49824
3.42258E7	-0.02191	17.43143
3.42377E7	-0.05417	17.75468
3.42496E7	-0.11236	17.54617
3.42615E7	-0.03126	17.63772
3.42735E7	-0.03624	17.70925
3.42854E7	-0.04672	17.62714
3.42973E7	-0.02179	17.76613
3.43093E7	-0.03009	17.65613
3.43212E7	7.42581E-4	17.63485
3.43331E7	-0.0329	17.70498
3.43451E7	-0.07307	17.60874
3.4357E7	-0.0409	17.50107
3.43689E7	-0.00135	17.85898
3.43809E7	-0.02366	17.82081
3.43928E7	-0.03519	17.66819
3.44047E7	-0.08415	17.64783
3.44166E7	-0.04339	17.61645
3.44286E7	0.13082	17.71685
3.44405E7	-0.01445	17.62987
3.44524E7	-0.00217	17.7695
3.44644E7	-0.0506	18.04205
3.44763E7	-0.05308	17.67852
3.44882E7	0.00324	17.74259
3.45002E7	0.00576	17.94805
3.45121E7	0.02491	17.78294
3.4524E7	-0.04501	17.90518
3.45359E7	0.00408	17.84179
3.45479E7	-0.05487	17.97832
3.45598E7	-0.01115	17.78389
3.45717E7	-0.08175	17.74718
3.45837E7	-0.05809	17.9689
3.45956E7	0.01637	18.0493
3.46075E7	0.00494	17.8939
3.46195E7	-0.14121	17.87862
3.46314E7	-0.09758	17.80901
3.46433E7	-0.04436	18.05765
3.46552E7	-0.00279	17.85828
3.46672E7	-0.02895	17.7638
3.46791E7	-0.05139	17.76709
3.4691E7	0.01255	17.99532
3.4703E7	0.01099	18.30383
3.47149E7	-0.04596	18.03562
3.47268E7	0.02095	18.07021
3.47388E7	-0.06821	18.05562
3.47507E7	-0.05567	18.12636
3.47626E7	-0.00386	18.07881
3.47745E7	-0.07275	18.23337
3.47865E7	0.02277	18.21375
3.47984E7	-0.05905	18.04283
3.48103E7	-0.14235	17.94758
3.48223E7	-0.02168	18.15975
3.48342E7	-0.08732	18.06397
3.48461E7	-0.04037	18.08942
3.48581E7	0.01428	18.12776
3.487E7	-0.07345	18.08953
3.48819E7	-0.04408	18.17193
3.48939E7	0.00104	18.27606
3.49058E7	-0.08866	17.94465
3.49177E7	-0.13742	17.9977
3.49296E7	-0.05775	17.95447
3.49416E7	-0.02866	18.19625
3.49535E7	-0.06308	18.0885
3.49654E7	0.00493	18.16786
3.49774E7	-0.00421	18.3773
3.49893E7	-0.14442	18.28438
3.50012E7	-0.03134	18.40851
3.50132E7	-0.02642	18.42363
3.50251E7	-0.04118	18.07252
3.5037E7	-0.00343	18.27712
3.50489E7	0.01778	18.17196
3.50609E7	-0.04503	18.14535
3.50728E7	-0.10042	18.35744
3.50847E7	-0.01873	18.21044
3.50967E7	0.02277	18.3437
3.51086E7	-0.05059	18.34549
3.51205E7	-0.07602	18.50909
3.51325E7	-0.03202	18.22595
3.51444E7	-0.03687	18.34286
3.51563E7	-0.05854	18.5044
3.51682E7	-0.04081	18.55383
3.51802E7	-0.02128	18.38636
3.51921E7	-0.07592	18.73144
3.5204E7	-0.15525	18.51551
3.5216E7	-0.11856	18.61099
3.52279E7	-0.02915	18.51256
3.52398E7	-0.08345	18.44429
3.52518E7	-0.03901	18.6474
3.52637E7	-0.12437	18.54869
3.52756E7	-0.06587	18.47729
3.52875E7	-0.09295	18.66291
3.52995E7	-0.09536	18.51102
3.53114E7	-0.12016	18.5361
3.53233E7	-0.01934	18.6062
3.53353E7	-0.08612	18.5798
3.53472E7	-0.08914	18.49036
3.53591E7	0.0039	18.86641
3.53711E7	-0.03331	18.6998
3.5383E7	-0.02902	18.62779
3.53949E7	-0.11925	18.76361
3.54069E7	-0.00818	18.70666
3.54188E7	-0.04712	18.6654
3.54307E7	-0.04863	18.75805
3.54426E7	-0.10659	18.67915
3.54546E7	-0.06692	18.65262
3.54665E7	-0.12329	18.8479
3.54784E7	-0.03855	18.73255
3.54904E7	-0.05205	18.70437
3.55023E7	-0.03066	18.67447
3.55142E7	-0.08323	18.71876
3.55262E7	-0.11735	18.54938
3.55381E7	-0.05934	18.99789
3.555E7	0.00317	19.02855
3.55619E7	-0.04151	18.90602
3.55739E7	-0.04577	18.92171
3.55858E7	-0.02499	19.03207
3.55977E7	-0.11842	18.8332
3.56097E7	-0.10791	19.06602
3.56216E7	-0.06447	18.86254
3.56335E7	-0.14179	18.60917
3.56455E7	-0.03377	18.99666
3.56574E7	-0.09018	19.08048
3.56693E7	-0.04237	18.86801
3.56812E7	-0.09698	19.00473
3.56932E7	0.00731	19.05586
3.57051E7	-0.06064	19.01873
3.5717E7	-0.08993	19.04718
3.5729E7	-0.20212	18.9573
3.57409E7	-0.06081	18.94557
3.57528E7	-0.08859	19.22377
3.57648E7	-0.1061	19.08097
3.57767E7	0.02677	19.1424
3.57886E7	-0.13521	19.1312
3.58006E7	-0.06011	18.98442
3.58125E7	-0.075	19.12448
3.58244E7	-0.08947	19.14553
3.58363E7	-0.13164	18.96194
3.58483E7	-0.04703	19.15172
3.58602E7	-0.06152	19.13897
3.58721E7	-0.09121	19.0385
3.58841E7	-0.11872	19.24912
3.5896E7	-0.07231	19.13702
3.59079E7	-0.12454	19.03208
3.59199E7	-0.05999	19.24527
3.59318E7	-0.05341	19.10881
3.59437E7	-0.17451	19.00463
3.59556E7	-0.20266	19.23174
3.59676E7	0.03107	19.23783
3.59795E7	-0.12851	19.16906
3.59914E7	-0.01073	19.39844
3.60034E7	-0.14418	19.47866
3.60153E7	-0.02561	19.2702
3.60272E7	-0.09014	19.43935
3.60392E7	-0.06572	19.27829
3.60511E7	-0.07421	19.2041
3.6063E7	-0.04614	19.25221
3.60749E7	-0.03063	19.54529
3.60869E7	-0.08628	19.34223
3.60988E7	0.03955	19.54851
3.61107E7	-0.14943	19.19954
3.61227E7	-0.13197	19.20302
3.61346E7	-0.08052	19.39744
3.61465E7	-0.09184	19.38645
3.61585E7	-0.17751	19.18575
3.61704E7	-0.04916	19.39779
3.61823E7	-0.08264	19.2198
3.61942E7	-0.13696	19.35425
3.62062E7	-0.01748	19.53319
3.62181E7	-0.08465	19.34467
3.623E7	-0.17704	19.27598
3.6242E7	-0.10808	19.37402
3.62539E7	-0.08203	19.36394
3.62658E7	-0.00867	19.61612
3.62778E7	-0.07985	19.41382
3.62897E7	-0.10027	19.41737
3.63016E7	-0.11545	19.47521
3.63136E7	-0.07177	19.76156
3.63255E7	-0.06875	19.36409
3.63374E7	-0.10269	19.79919
3.63493E7	-0.10619	19.64697
3.63613E7	-0.00572	19.79101
3.63732E7	-0.08906	19.63144
3.63851E7	-0.06205	19.70519
3.63971E7	-0.04855	19.68212
3.6409E7	-0.11453	19.54962
3.64209E7	-0.0887	19.57994
3.64329E7	-0.14351	19.75754
3.64448E7	-0.00326	19.78886
3.64567E7	-0.03725	19.72482
3.64686E7	-0.12828	19.71453
3.64806E7	-0.13676	19.48912
3.64925E7	-0.13582	19.73367
3.65044E7	-0.18234	19.55765
3.65164E7	-0.13114	19.85372
3.65283E7	-0.12077	19.72954
3.65402E7	-0.15494	19.75751
3.65522E7	-0.06496	20.02955
3.65641E7	-0.06405	19.66756
3.6576E7	-0.12885	19.65843
3.65879E7	-0.0748	19.92519
3.65999E7	-0.05322	19.88562
3.66118E7	-0.13995	19.87624
3.66237E7	-0.19462	19.8178
3.66357E7	-0.10282	19.80525
3.66476E7	-0.02059	20.15278
3.66595E7	-0.14544	19.96328
3.66715E7	-0.10991	19.83525
3.66834E7	-0.1381	19.91229
3.66953E7	-0.09738	20.17771
3.67072E7	-0.12631	19.97504
3.67192E7	0.03029	20.17705
3.67311E7	-0.07671	19.81869
3.6743E7	-0.12335	19.89413
3.6755E7	-0.10254	20.04151
3.67669E7	-0.23067	20.04713
3.67788E7	-0.2015	19.91053
3.67908E7	-0.17881	19.90661
3.68027E7	-0.15959	19.97894
3.68146E7	-0.05072	20.14152
3.68266E7	-0.14524	20.21788
3.68385E7	-0.01239	20.1715
3.68504E7	0.00637	19.97877
3.68623E7	-0.23807	20.00822
3.68743E7	-0.02659	20.19068
3.68862E7	-0.09992	20.06268
3.68981E7	-0.09772	20.14554
3.69101E7	0.06426	20.34898
3.6922E7	-0.02234	20.47244
3.69339E7	-0.04423	20.3209
3.69459E7	-0.11511	20.06878
3.69578E7	-0.11946	20.25174
3.69697E7	-0.14745	20.27617
3.69816E7	-0.1201	19.95077
3.69936E7	-0.09391	20.07429
3.70055E7	-0.18025	20.21015
3.70174E7	-0.14674	20.07795
3.70294E7	0.02579	20.61355
3.70413E7	-0.11289	20.45671
3.70532E7	-0.13147	20.03387
3.70652E7	-0.03284	20.34677
3.70771E7	-0.01273	20.41472
3.7089E7	-0.12491	20.34156
3.71009E7	-0.1681	20.30184
3.71129E7	0.04923	20.5421
3.71248E7	0.02414	20.34619
3.71367E7	-0.01734	20.37759
3.71487E7	0.03049	20.52416
3.71606E7	-0.21091	20.17466
3.71725E7	-0.14045	20.35377
3.71845E7	-0.06159	20.33195
3.71964E7	-0.22935	20.30636
3.72083E7	-0.06557	20.43228
3.72203E7	-0.0381	20.31765
3.72322E7	-0.00714	20.51242
3.72441E7	-0.17167	20.47927
3.7256E7	-0.00316	20.49208
3.7268E7	-0.10725	20.36228
3.72799E7	-0.07588	20.51074
3.72918E7	-0.05937	20.38904
3.73038E7	-0.22928	20.13959
3.73157E7	-0.08272	20.58463
3.73276E7	-0.14544	20.47683
3.73396E7	-0.05215	20.59963
3.73515E7	-0.14335	20.71823
3.73634E7	-0.13174	20.61724
3.73753E7	-0.06095	20.71205
3.73873E7	-0.10273	20.81927
3.73992E7	-0.07562	20.63641
3.74111E7	0.01386	20.65891
3.74231E7	-0.13735	20.63409
3.7435E7	0.00752	20.62266
3.74469E7	-0.13575	20.73749
3.74589E7	-0.11459	20.56985
3.74708E7	-0.13169	20.71098
3.74827E7	-0.1281	20.74138
3.74946E7	-0.11075	20.72015
3.75066E7	-0.04152	20.8074
3.75185E7	-0.14028	20.94244
3.75304E7	-0.06642	20.76651
3.75424E7	-0.0738	20.89629
3.75543E7	-0.03747	20.72713
3.75662E7	-0.09899	20.79645
3.75782E7	-0.05328	20.81399
3.75901E7	-0.08942	20.83465
3.7602E7	-0.07449	20.88907
3.76139E7	0.03277	20.8352
3.76259E7	-0.07708	20.87777
3.76378E7	8.7326E-4	20.96416
3.76497E7	-0.01288	20.92192
3.76617E7	-0.12411	20.82518
3.76736E7	-0.10066	21.00588
3.76855E7	-0.15076	20.80111
3.76975E7	-0.14523	20.89248
3.77094E7	-0.04922	21.23809
3.77213E7	-0.15551	20.95752
3.77333E7	-0.1172	20.9843
3.77452E7	-0.08636	20.95039
3.77571E7	-0.22911	20.76791
3.7769E7	-0.13372	21.14411
3.7781E7	-0.10912	20.94613
3.77929E7	-0.16067	20.92847
3.78048E7	-0.09799	20.89551
3.78168E7	-0.06243	20.98822
3.78287E7	-0.0516	21.01424
3.78406E7	-0.05715	21.16746
3.78526E7	-0.18971	21.09632
3.78645E7	-0.07962	21.34102
3.78764E7	-0.2059	21.04923
3.78883E7	-0.08916	20.97526
3.79003E7	-0.00613	21.21977
3.79122E7	-0.14204	21.15019
3.79241E7	-0.24298	21.02021
3.79361E7	-0.09779	21.23617
3.7948E7	-0.17449	21.08315
3.79599E7	-0.11806	21.07309
3.79719E7	-0.08726	21.09344
3.79838E7	-0.12323	21.25763
3.79957E7	-0.16106	21.16557
3.80076E7	-0.25774	21.19008
3.80196E7	-0.08645	21.25292
3.80315E7	-0.19372	21.45963
3.80434E7	-0.13576	21.21505
3.80554E7	-0.0485	21.28472
3.80673E7	-0.21486	21.18263
3.80792E7	-0.07499	21.16063
3.80912E7	-0.1546	21.14284
3.81031E7	-0.03694	21.51938
3.8115E7	-0.10775	21.43758
3.8127E7	-0.26928	21.23219
3.81389E7	-0.05442	21.30498
3.81508E7	-0.10788	21.39404
3.81627E7	-0.06201	21.40418
3.81747E7	-0.07007	21.45542
3.81866E7	-0.16046	21.38682
3.81985E7	-0.11633	21.47211
3.82105E7	-0.18009	21.39726
3.82224E7	-0.07924	21.46964
3.82343E7	0.01076	21.62839
3.82463E7	-0.14522	21.43186
3.82582E7	-0.12909	21.42515
3.82701E7	-0.07497	21.45864
3.8282E7	-0.10554	21.53723
3.8294E7	-0.07939	21.35762
3.83059E7	-0.22109	21.36976
3.83178E7	0.03594	21.6367
3.83298E7	-0.19003	21.36913
3.83417E7	-0.06059	21.73804
3.83536E7	-0.16534	21.68217
3.83656E7	-0.0909	21.69817
3.83775E7	-0.1356	21.65477
3.83894E7	-0.11855	21.796
3.84013E7	-0.16366	21.73829
3.84133E7	-0.05004	21.6247
3.84252E7	-0.07736	21.78074
3.84371E7	-0.10113	21.71788
3.84491E7	-0.15486	21.73722
3.8461E7	-0.13329	21.59962
3.84729E7	-0.00718	21.57478
3.84849E7	-0.13872	21.65882
3.84968E7	-0.22405	21.68921
3.85087E7	-0.18189	21.78803
3.85206E7	-0.06394	21.7797
3.85326E7	-0.17394	21.67242
3.85445E7	-0.07564	21.75249
3.85564E7	-0.07174	21.9661
3.85684E7	0.04907	22.03372
3.85803E7	-0.07871	21.93365
3.85922E7	-0.14271	21.82684
3.86042E7	-0.15655	21.80903
3.86161E7	-0.12933	21.62176
3.8628E7	-0.00182	21.91216
3.864E7	-0.08107	22.00116
3.86519E7	-0.09019	21.89628
3.86638E7	-0.04263	22.01784
3.86757E7	-0.08257	21.91905
3.86877E7	-0.1841	21.94424
3.86996E7	-0.14625	21.90632
3.87115E7	0.01173	22.03478
3.87235E7	-0.108	21.98666
3.87354E7	-0.10249	21.7735
3.87473E7	-0.14243	22.09553
3.87593E7	-0.18211	21.63615
3.87712E7	-0.27506	22.00337
3.87831E7	-0.17087	21.73636
3.8795E7	-0.02262	22.22198
3.8807E7	-0.05333	21.97255
3.88189E7	-0.1633	21.959
3.88308E7	-0.14122	22.03256
3.88428E7	-0.07394	22.08404
3.88547E7	-0.12516	22.13911
3.88666E7	-0.15811	22.05529
3.88786E7	-0.0962	22.21029
3.88905E7	-0.04371	22.21245
3.89024E7	-0.05224	22.43433
3.89143E7	-0.01006	22.20069
3.89263E7	-0.13672	22.08003
3.89382E7	-0.18749	21.95104
3.89501E7	-0.15296	22.18766
3.89621E7	-0.1288	22.36301
3.8974E7	-0.15435	22.0536
3.89859E7	-0.11416	22.24314
3.89979E7	-0.05759	22.27325
3.90098E7	-0.11176	22.44583
3.90217E7	-0.18526	22.00334
3.90336E7	-0.16015	22.32305
3.90456E7	-0.23835	22.07247
3.90575E7	-0.08535	22.38583
3.90694E7	-0.07957	22.39466
3.90814E7	-0.11595	22.5794
3.90933E7	-0.15162	22.32679
3.91052E7	-0.12855	22.38994
3.91172E7	-0.32845	22.27426
3.91291E7	-0.10286	22.28441
3.9141E7	-0.10209	22.65512
3.9153E7	-0.13709	22.30453
3.91649E7	-0.1903	22.3894
3.91768E7	-0.05585	22.47761
3.91887E7	-0.29854	22.21159
3.92007E7	-0.12823	22.75349
3.92126E7	-0.21559	22.38819
3.92245E7	-0.06693	22.64019
3.92365E7	-0.0532	22.72737
3.92484E7	-0.17436	22.57225
3.92603E7	-0.12227	22.25861
3.92723E7	-0.09404	22.58172
3.92842E7	-0.03833	22.5854
3.92961E7	-0.10467	22.45161
3.9308E7	0.01205	22.38253
3.932E7	-0.05532	22.70915
3.93319E7	-0.21838	22.51434
3.93438E7	-0.02855	22.7154
3.93558E7	-0.19531	22.63746
3.93677E7	-0.15846	22.61113
3.93796E7	-0.09601	22.66486
3.93916E7	-0.228	22.57167
3.94035E7	-0.1308	22.78451
3.94154E7	-0.16575	22.56766
3.94273E7	-0.04748	22.95451
3.94393E7	-0.10694	22.62705
3.94512E7	-0.06757	22.7234
3.94631E7	-0.16891	22.56514
3.94751E7	0.02049	22.93661
3.9487E7	-0.1591	22.57881
3.94989E7	-0.11062	22.78615
3.95109E7	-0.1968	22.71255
3.95228E7	-0.13717	22.85743
3.95347E7	-0.25245	22.78068
3.95467E7	-0.13014	22.7308
3.95586E7	-0.0846	22.66255
3.95705E7	-0.21184	22.52515
3.95824E7	-0.05622	22.88913
3.95944E7	-0.06822	22.87363
3.96063E7	-0.10636	22.87392
3.96182E7	-0.18577	23.00653
3.96302E7	-0.1398	22.86616
3.96421E7	-0.15093	22.79021
3.9654E7	-0.27311	22.82602
3.9666E7	0.05444	23.20855
3.96779E7	-0.09224	23.10948
3.96898E7	-0.06509	22.92166
3.97017E7	-0.07044	23.02362
3.97137E7	-0.14829	23.07512
3.97256E7	-0.27954	22.86563
3.97375E7	-0.16817	23.01783
3.97495E7	-0.22102	22.95677
3.97614E7	-0.22311	22.95714
3.97733E7	-0.2519	22.95766
3.97853E7	-0.04644	23.17623
3.97972E7	-0.10081	23.26253
3.98091E7	-0.15653	22.97673
3.9821E7	-0.21566	23.00579
3.9833E7	-0.10206	23.24072
3.98449E7	-0.27556	22.97381
3.98568E7	-0.08051	23.1653
3.98688E7	-0.2249	22.95859
3.98807E7	-0.08548	23.36341
3.98926E7	-0.13365	23.16573
3.99046E7	-0.23811	23.14805
3.99165E7	-0.03572	23.37954
3.99284E7	0.08271	23.39957
3.99403E7	-0.18954	23.21548
3.99523E7	-0.15125	23.25874
3.99642E7	-0.02615	23.49319
3.99761E7	-0.19205	23.39887
3.99881E7	-0.25851	23.10049
4E7	-0.13846	23.2025
